[
  {
    "_id": "1697325939",
    "record": [
      [
        "001@",
        "",
        "0",
        "123"
      ],
      [
        "001A",
        "",
        "0",
        "3311:06-05-20"
      ],
      [
        "001B",
        "",
        "0",
        "3311:20-05-20",
        "t",
        "11:22:31.000"
      ],
      [
        "001D",
        "",
        "0",
        "3311:06-05-20"
      ],
      [
        "001U",
        "",
        "0",
        "utf8"
      ],
      [
        "001X",
        "",
        "0",
        "0"
      ],
      [
        "002@",
        "",
        "0",
        "Ocv"
      ],
      [
        "002C",
        "",
        "a",
        "Text",
        "b",
        "txt"
      ],
      [
        "002D",
        "",
        "a",
        "Computermedien",
        "b",
        "c"
      ],
      [
        "002E",
        "",
        "a",
        "Online-Ressource",
        "b",
        "cr"
      ],
      [
        "003@",
        "",
        "0",
        "1697325939"
      ],
      [
        "004U",
        "",
        "0",
        "urn:nbn:de:gbv:ha33-1-195750"
      ],
      [
        "006M",
        "",
        "0",
        "VD18 13057979"
      ],
      [
        "007G",
        "",
        "i",
        "KXP",
        "0",
        "1697325939"
      ],
      [
        "007S",
        "",
        "0",
        "VD18 13057979"
      ],
      [
        "008@",
        "",
        "b",
        "RedVD18-DE-Ha33"
      ],
      [
        "009@",
        "",
        "b",
        "vd18"
      ],
      [
        "010@",
        "",
        "a",
        "ger"
      ],
      [
        "010E",
        "",
        "e",
        "rda"
      ],
      [
        "011@",
        "",
        "a",
        "1800",
        "b",
        "1800"
      ],
      [
        "011B",
        "",
        "a",
        "2020"
      ],
      [
        "016A",
        "",
        "0",
        "cr"
      ],
      [
        "017C",
        "",
        "S",
        "1",
        "u",
        "http://nbn-resolving.de/urn:nbn:de:gbv:ha33-1-195750",
        "x",
        "L",
        "x",
        "R",
        "3",
        "Volltext",
        "5",
        "34"
      ],
      [
        "019@",
        "",
        "a",
        "XA-DXDE",
        "a",
        "XA-DE"
      ],
      [
        "021A",
        "",
        "a",
        "Oratorisches Magazin",
        "d",
        "zunächst zum Behufe der Redeübungen in den obern Klassen der Schulen",
        "h",
        "Herausgegeben von Fürchtegott Christian Fulda, Pfarrer zu Schochwitz in der Graffschaft Mansfeld."
      ],
      [
        "028C",
        "",
        "9",
        "078956358",
        "V",
        "Tpv1",
        "7",
        "gnd/117540382",
        "3",
        "291473504",
        "w",
        "piz",
        "A",
        "Fulda",
        "D",
        "Fürchtegott Christian",
        "E",
        "1768",
        "M",
        "1854",
        "B",
        "HerausgeberIn",
        "4",
        "edt"
      ],
      [
        "029F",
        "",
        "9",
        "13196142X",
        "V",
        "Tbv1",
        "7",
        "gnd/2133444-4",
        "3",
        "194623289",
        "w",
        "kiz",
        "A",
        "Franckesche Stiftungen zu Halle",
        "F",
        "Waisenhaus",
        "B",
        "Verlag",
        "4",
        "pbl"
      ],
      [
        "032C",
        "",
        "a",
        "Online-Ausgabe"
      ],
      [
        "033A",
        "",
        "p",
        "Halle",
        "n",
        "im Verlage der Waisenhaus-Buchhandlung"
      ],
      [
        "033D",
        "",
        "9",
        "104745673",
        "V",
        "Tgv1",
        "7",
        "gnd/4023025-9",
        "3",
        "208947132",
        "w",
        "gik",
        "p",
        "Halle (Saale)",
        "4",
        "pup"
      ],
      [
        "033N",
        "",
        "p",
        "Halle, Saale",
        "n",
        "Universitäts- und Landesbibliothek Sachsen-Anhalt"
      ],
      [
        "033Q",
        "",
        "a",
        "1 Online-Ressource"
      ],
      [
        "036L",
        "",
        "a",
        "VD18 digital"
      ],
      [
        "037A",
        "",
        "a",
        "Mehr nicht erschienen"
      ],
      [
        "037H",
        "",
        "a",
        "TIFF, Vers.6.0, 300 dpi, 24 bit (Farbe), Digitalisierungsvorlage: Primärausgabe"
      ],
      [
        "039I",
        "",
        "i",
        "Elektronische Reproduktion von",
        "9",
        "26577408X",
        "R",
        "Acv",
        "t",
        "Oratorisches Magazin",
        "d",
        "Halle",
        "e",
        "im Verlage der Waisenhaus-Buchhandlung",
        "f",
        "1800",
        "A",
        "K10plus"
      ],
      [
        "044S",
        "",
        "9",
        "096632925",
        "V",
        "Tsv",
        "a",
        "Rhetorik"
      ],
      [
        "046H",
        "",
        "a",
        "Vorlageform der Veröffentlichungsangabe: Halle, im Verlage der Waisenhaus-Buchhandlung. 1800."
      ],
      [
        "046X",
        "",
        "a",
        "aa",
        "5",
        "DE-3"
      ],
      [
        "101@",
        "",
        "a",
        "123",
        "c",
        "PICA"
      ],
      [
        "201A",
        "01",
        "0",
        "06-05-20"
      ],
      [
        "201B",
        "01",
        "0",
        "06-05-20",
        "t",
        "15:10:55.000"
      ],
      [
        "201D",
        "01",
        "0",
        "3311:06-05-20"
      ],
      [
        "201U",
        "01",
        "0",
        "utf8"
      ],
      [
        "202D",
        "01",
        "0",
        "06-05-20",
        "b",
        "1676115",
        "a",
        "3311"
      ],
      [
        "203@",
        "01",
        "0",
        "3661066625"
      ],
      [
        "208@",
        "01",
        "a",
        "06-05-20",
        "b",
        "xro"
      ]
    ]
  }
]
