[
  {
    "record": [
      [
        "001@",
        "",
        "0",
        "11"
      ],
      [
        "001A",
        "",
        "0",
        "0001:07-08-06"
      ],
      [
        "001B",
        "",
        "0",
        "1999:01-05-18",
        "t",
        "15:47:56.000"
      ],
      [
        "001D",
        "",
        "0",
        "0001:07-08-06"
      ],
      [
        "001U",
        "",
        "0",
        "utf8"
      ],
      [
        "001X",
        "",
        "0",
        "0"
      ],
      [
        "002@",
        "",
        "0",
        "Aaus"
      ],
      [
        "002C",
        "",
        "a",
        "Noten",
        "b",
        "ntm"
      ],
      [
        "002D",
        "",
        "a",
        "ohne Hilfsmittel zu benutzen",
        "b",
        "n"
      ],
      [
        "002E",
        "",
        "a",
        "Band",
        "b",
        "nc"
      ],
      [
        "003@",
        "",
        "0",
        "515339180"
      ],
      [
        "003O",
        "",
        "a",
        "OCoLC",
        "0",
        "255249305",
        "v",
        "2012-12-31"
      ],
      [
        "007D",
        "",
        "i",
        "Pl.-Nr.",
        "0",
        "2384"
      ],
      [
        "007D",
        "",
        "i",
        "Pl.-Nr.",
        "0",
        "2388"
      ],
      [
        "007G",
        "",
        "i",
        "GBV",
        "0",
        "515339180"
      ],
      [
        "011@",
        "",
        "a",
        "1815",
        "n",
        "[ca. 1815]"
      ],
      [
        "013H",
        "",
        "a",
        "muno"
      ],
      [
        "019@",
        "",
        "a",
        "XA-DXDE"
      ],
      [
        "021A",
        "",
        "a",
        "Musicalische Versuche",
        "h",
        "von Friedrich Naue"
      ],
      [
        "022A",
        "01",
        "a",
        "Werke, Vokalmusik",
        "h",
        "Ausw."
      ],
      [
        "028A",
        "",
        "9",
        "134628756",
        "V",
        "Tpv1",
        "7",
        "gnd/116898666",
        "3",
        "177049340",
        "w",
        "piz",
        "A",
        "Naue",
        "D",
        "Johann Friedrich",
        "E",
        "1787",
        "M",
        "1858"
      ],
      [
        "033A",
        "",
        "p",
        "Halle",
        "n",
        "Renger"
      ],
      [
        "033J",
        "",
        "9",
        "387882529",
        "V",
        "Tbv1",
        "7",
        "gnd/10078824-5",
        "3",
        "199861919",
        "w",
        "kif",
        "A",
        "Rengersche Buchhandlung",
        "G",
        "Halle (Saale)"
      ],
      [
        "034D",
        "",
        "a",
        "123 S."
      ],
      [
        "037A",
        "",
        "a",
        "Kein Plattendr."
      ],
      [
        "037A",
        "",
        "a",
        "S. [62 - 64] blank"
      ],
      [
        "037A",
        "",
        "a",
        "Die Vorlage enthält insgesamt 3 Werke"
      ],
      [
        "037A",
        "",
        "a",
        "Keine Preisangabe auf dem Titelbl."
      ],
      [
        "037A",
        "",
        "a",
        "Mit Ill. auf dem Titelbl. und Bordüre als Umrahmung"
      ],
      [
        "037B",
        "",
        "a",
        "Für eine Singst. oder Chor mit Klavierbegl. oder Chor a cappella"
      ],
      [
        "046H",
        "",
        "a",
        "Vorlageform der Veröffentlichungsangabe: Halle im Verlage der Rengerschen Buchhandlung"
      ],
      [
        "046W",
        "",
        "a",
        "IMD-Felder maschinell generiert (GBV)"
      ],
      [
        "047C",
        "",
        "a",
        "musikalische"
      ],
      [
        "101@",
        "",
        "a",
        "11",
        "c",
        "PICA"
      ],
      [
        "201B",
        "01",
        "0",
        "07-08-06",
        "t",
        "15:34:55.000"
      ],
      [
        "201U",
        "01",
        "0",
        "utf8"
      ],
      [
        "202D",
        "01",
        "0",
        "07-08-06",
        "b",
        "1662",
        "a",
        "0001"
      ],
      [
        "203@",
        "01",
        "0",
        "773731423"
      ],
      [
        "208@",
        "01",
        "a",
        "07-08-06",
        "b",
        "k"
      ],
      [
        "209A",
        "01",
        "f",
        "1:Mus",
        "a",
        "55 Depos SA 408",
        "d",
        "i",
        "x",
        "00"
      ],
      [
        "220B",
        "01",
        "a",
        "Dbsa"
      ]
    ],
    "_id": "515339180"
  }
]
