[
  {
    "record": [
      [
        "001@",
        "",
        "0",
        "11,22,24,31,40,50,61-62,65,69,105,121,123,171,179,278,289,2001,2003,2006,2010,2012,2027,4035,4125,4253"
      ],
      [
        "001A",
        "",
        "0",
        "2004:16-11-93"
      ],
      [
        "001B",
        "",
        "0",
        "2004:06-07-19",
        "t",
        "09:51:47.000"
      ],
      [
        "001D",
        "",
        "0",
        "2004:17-05-03"
      ],
      [
        "001U",
        "",
        "0",
        "utf8"
      ],
      [
        "001X",
        "",
        "0",
        "0"
      ],
      [
        "002@",
        "",
        "0",
        "Adv"
      ],
      [
        "002C",
        "",
        "a",
        "Text",
        "b",
        "txt"
      ],
      [
        "002D",
        "",
        "a",
        "ohne Hilfsmittel zu benutzen",
        "b",
        "n"
      ],
      [
        "002E",
        "",
        "a",
        "Band",
        "b",
        "nc"
      ],
      [
        "003@",
        "",
        "0",
        "130090271"
      ],
      [
        "003O",
        "",
        "a",
        "OCoLC",
        "0",
        "183364840",
        "v",
        "2012-12-31"
      ],
      [
        "003S",
        "",
        "0",
        "049023497"
      ],
      [
        "003T",
        "",
        "a",
        "OCoLC",
        "0",
        "183364840"
      ],
      [
        "006G",
        "",
        "0",
        "012606413"
      ],
      [
        "006S",
        "",
        "0",
        "338095047"
      ],
      [
        "006Z",
        "",
        "0",
        "500301-5"
      ],
      [
        "007G",
        "",
        "i",
        "ZDB",
        "0",
        "500301-5"
      ],
      [
        "010@",
        "",
        "a",
        "ger"
      ],
      [
        "011@",
        "",
        "a",
        "1811",
        "b",
        "1819",
        "n",
        "1811-1819"
      ],
      [
        "013D",
        "",
        "9",
        "104628669",
        "V",
        "Tsv1",
        "3",
        "209995106",
        "7",
        "gnd/4179998-7",
        "a",
        "Monografische Reihe"
      ],
      [
        "018@",
        "",
        "a",
        "z"
      ],
      [
        "019@",
        "",
        "a",
        "XA-DXDE"
      ],
      [
        "021A",
        "",
        "a",
        "Neue Schriften der Naturforschenden Gesellschaft in Halle"
      ],
      [
        "029A",
        "",
        "9",
        "100303854",
        "V",
        "Tbv1",
        "7",
        "gnd/10228-3",
        "3",
        "190205598",
        "w",
        "kiz",
        "A",
        "Naturforschende Gesellschaft zu Halle",
        "B",
        "Verfasser",
        "4",
        "aut"
      ],
      [
        "031@",
        "",
        "a",
        "1.1809/11(1811) - 2.1812/19(1819); 3.1817/19,1-2[?]"
      ],
      [
        "031N",
        "",
        "d",
        "1",
        "j",
        "1809/11",
        "n",
        "2",
        "k",
        "1812/19",
        "0",
        " ",
        "d",
        "3",
        "e",
        "1",
        "j",
        "1817/19"
      ],
      [
        "033A",
        "",
        "p",
        "Halle",
        "n",
        "Hendel"
      ],
      [
        "039I",
        "",
        "i",
        "Elektronische Reproduktion",
        "9",
        "1028181256",
        "R",
        "Odv",
        "7",
        "zdb/2938065-0",
        "5",
        "501697462",
        "V",
        "Tbv1",
        "7",
        "gnd/10228-3",
        "3",
        "190205598",
        "w",
        "kiz",
        "A",
        "Naturforschende Gesellschaft zu Halle",
        "t",
        "Neue Schriften der Naturforschenden Gesellschaft in Halle",
        "d",
        "[Dresden]",
        "e",
        "[SLUB]",
        "f",
        "2018",
        "h",
        "Online-Ressource",
        "C",
        "ZDB",
        "6",
        "29380650"
      ],
      [
        "045G",
        "",
        "a",
        "500",
        "A",
        "DE-600"
      ],
      [
        "045Q",
        "08",
        "a",
        "30.00"
      ],
      [
        "045V",
        "",
        "a",
        "25"
      ],
      [
        "046D",
        "",
        "i",
        "Hauptsacht. teils",
        "a",
        "Neue Schriften der Naturforschenden Gesellschaft zu Halle"
      ],
      [
        "101@",
        "",
        "a",
        "11",
        "c",
        "PICA"
      ],
      [
        "201B",
        "03",
        "0",
        "23-02-04",
        "t",
        "08:40:19.000"
      ],
      [
        "201U",
        "03",
        "0",
        "utf8"
      ],
      [
        "202D",
        "03",
        "0",
        "23-02-04",
        "b",
        "1653",
        "a",
        "0001"
      ],
      [
        "203@",
        "03",
        "0",
        "635619342"
      ],
      [
        "208@",
        "03",
        "a",
        "23-02-04",
        "b",
        "x"
      ],
      [
        "101@",
        "",
        "a",
        "22",
        "c",
        "PICA"
      ],
      [
        "201B",
        "01",
        "0",
        "23-04-09",
        "t",
        "16:12:00.000"
      ],
      [
        "201U",
        "01",
        "0",
        "utf8"
      ],
      [
        "202D",
        "01",
        "0",
        "23-04-09",
        "b",
        "6915",
        "a",
        "0018"
      ],
      [
        "203@",
        "01",
        "0",
        "652593917"
      ],
      [
        "208@",
        "01",
        "a",
        "18-06-04",
        "b",
        "ru"
      ],
      [
        "201B",
        "02",
        "0",
        "06-10-08",
        "t",
        "16:27:34.000"
      ],
      [
        "201U",
        "02",
        "0",
        "utf8"
      ],
      [
        "202D",
        "02",
        "0",
        "06-10-08",
        "b",
        "7565",
        "a",
        "0018/0263"
      ],
      [
        "203@",
        "02",
        "0",
        "89365597X"
      ],
      [
        "208@",
        "02",
        "a",
        "06-10-08",
        "b",
        "xi26311"
      ],
      [
        "101@",
        "",
        "a",
        "24",
        "c",
        "PICA"
      ],
      [
        "101B",
        "",
        "0",
        "09-08-96",
        "t",
        "01:46:05.862"
      ],
      [
        "101U",
        "",
        "0",
        "utf8"
      ],
      [
        "107F",
        "",
        "0",
        "ZDB37582070"
      ],
      [
        "201B",
        "01",
        "0",
        "04-06-06",
        "t",
        "10:08:19.000"
      ],
      [
        "201U",
        "01",
        "0",
        "utf8"
      ],
      [
        "202D",
        "01",
        "0",
        "04-06-06",
        "b",
        "r24sigabc",
        "a",
        "1999"
      ],
      [
        "203@",
        "01",
        "0",
        "193694239"
      ],
      [
        "206X",
        "01",
        "0",
        "37582070/01"
      ],
      [
        "208@",
        "01",
        "a",
        "01-01-96",
        "b",
        "zz1"
      ],
      [
        "209A",
        "01",
        "b",
        "8",
        "f",
        "16",
        "a",
        "Einzelsignaturen",
        "d",
        "s",
        "x",
        "09"
      ],
      [
        "209O",
        "01",
        "a",
        "qa",
        "x",
        "00"
      ],
      [
        "101@",
        "",
        "a",
        "31",
        "c",
        "PICA"
      ],
      [
        "201B",
        "01",
        "0",
        "25-03-99",
        "t",
        "15:36:00.195"
      ],
      [
        "201U",
        "01",
        "0",
        "utf8"
      ],
      [
        "202D",
        "01",
        "0",
        "25-03-99",
        "b",
        "1162",
        "a",
        "0000"
      ],
      [
        "203@",
        "01",
        "0",
        "333583221"
      ],
      [
        "208@",
        "01",
        "a",
        "25-03-99",
        "b",
        "x"
      ],
      [
        "101@",
        "",
        "a",
        "40",
        "c",
        "PICA"
      ],
      [
        "101B",
        "",
        "0",
        "13-12-02",
        "t",
        "13:14:31.830"
      ],
      [
        "101U",
        "",
        "0",
        "utf8"
      ],
      [
        "107F",
        "",
        "0",
        "8 PH M II,6005"
      ],
      [
        "107F",
        "",
        "0",
        "QP156627906"
      ],
      [
        "107F",
        "",
        "0",
        "ZRU052533751"
      ],
      [
        "201B",
        "01",
        "0",
        "28-12-10",
        "t",
        "05:25:51.000"
      ],
      [
        "201U",
        "01",
        "0",
        "utf8"
      ],
      [
        "202D",
        "01",
        "0",
        "28-12-10",
        "b",
        "r40sel2",
        "a",
        "0007"
      ],
      [
        "203@",
        "01",
        "0",
        "13082724X"
      ],
      [
        "208@",
        "01",
        "a",
        "10-08-94",
        "b",
        "bsp"
      ],
      [
        "209A",
        "01",
        "f",
        "HG-FB",
        "a",
        "8 PHYS MATH II, 6005",
        "d",
        "s",
        "x",
        "00"
      ],
      [
        "231@",
        "01",
        "d",
        "1",
        "j",
        "1809/11",
        "n",
        "3",
        "o",
        "2",
        "k",
        "1817"
      ],
      [
        "245Z",
        "01",
        "9",
        "343690519",
        "V",
        "Tov",
        "a",
        "PHYS MATH.004.003.002.001",
        "j",
        "Germanorum: Aussig - Zwickau",
        "x",
        "00"
      ],
      [
        "101@",
        "",
        "a",
        "50",
        "c",
        "PICA"
      ],
      [
        "101B",
        "",
        "0",
        "04-12-01",
        "t",
        "08:05:33.893"
      ],
      [
        "101U",
        "",
        "0",
        "utf8"
      ],
      [
        "102D",
        "",
        "0",
        "04-12-01",
        "b",
        "2019",
        "a",
        "0000"
      ],
      [
        "107F",
        "",
        "0",
        "0589.005"
      ],
      [
        "201B",
        "01",
        "0",
        "04-12-01",
        "t",
        "08:05:33.941"
      ],
      [
        "201U",
        "01",
        "0",
        "utf8"
      ],
      [
        "202D",
        "01",
        "0",
        "04-12-01",
        "b",
        "2019",
        "a",
        "0000"
      ],
      [
        "203@",
        "01",
        "0",
        "533515491"
      ],
      [
        "208@",
        "01",
        "a",
        "04-12-01",
        "b",
        "x"
      ],
      [
        "101@",
        "",
        "a",
        "61",
        "c",
        "PICA"
      ],
      [
        "201B",
        "01",
        "0",
        "15-09-17",
        "t",
        "09:51:13.000"
      ],
      [
        "201U",
        "01",
        "0",
        "utf8"
      ],
      [
        "202D",
        "01",
        "0",
        "15-09-17",
        "b",
        "5632",
        "a",
        "0032"
      ],
      [
        "203@",
        "01",
        "0",
        "169000715X"
      ],
      [
        "208@",
        "01",
        "a",
        "23-05-17",
        "b",
        "bm"
      ],
      [
        "209A",
        "01",
        "a",
        "Einzelsignatur",
        "d",
        "i",
        "x",
        "00"
      ],
      [
        "231@",
        "01",
        "d",
        "1",
        "j",
        "1809/11",
        "0",
        " ",
        "d",
        "2",
        "j",
        "1812/14"
      ],
      [
        "231B",
        "01",
        "a",
        "1.1809/11(1811); 2.1812/14(1814),1-3"
      ],
      [
        "237A",
        "01",
        "a",
        "Ausleihe/Vormerken über Einzelbände (\"zugehörige Publikationen\")"
      ],
      [
        "237A",
        "01",
        "a",
        "Sammlung Privatbibliothek Johann Wolfgang von Goethe <Klassik Stiftung Weimar>"
      ],
      [
        "101@",
        "",
        "a",
        "62",
        "c",
        "PICA"
      ],
      [
        "201B",
        "01",
        "0",
        "10-03-03",
        "t",
        "15:50:41.000"
      ],
      [
        "201U",
        "01",
        "0",
        "utf8"
      ],
      [
        "202D",
        "01",
        "0",
        "10-03-03",
        "b",
        "4433",
        "a",
        "0028"
      ],
      [
        "203@",
        "01",
        "0",
        "275373525"
      ],
      [
        "206X",
        "01",
        "0",
        "45662435/01"
      ],
      [
        "208@",
        "01",
        "a",
        "08-03-98",
        "b",
        "bup"
      ],
      [
        "209A",
        "01",
        "f",
        "28-MAG",
        "a",
        "Na-3426",
        "d",
        "f",
        "x",
        "00"
      ],
      [
        "209B",
        "01",
        "a",
        "1.1809/11(1811)",
        "x",
        "32"
      ],
      [
        "231@",
        "01",
        "d",
        "1",
        "j",
        "1809/11",
        "h",
        "1811"
      ],
      [
        "201B",
        "02",
        "0",
        "20-01-00",
        "t",
        "06:52:33.485"
      ],
      [
        "201U",
        "02",
        "0",
        "utf8"
      ],
      [
        "202D",
        "02",
        "0",
        "20-01-00",
        "b",
        "6466",
        "a",
        "0000"
      ],
      [
        "203@",
        "02",
        "0",
        "374923396"
      ],
      [
        "208@",
        "02",
        "a",
        "20-01-00",
        "b",
        "x  r"
      ],
      [
        "101@",
        "",
        "a",
        "65",
        "c",
        "PICA"
      ],
      [
        "201B",
        "01",
        "0",
        "24-05-13",
        "t",
        "09:28:34.000"
      ],
      [
        "201U",
        "01",
        "0",
        "utf8"
      ],
      [
        "202D",
        "01",
        "0",
        "24-05-13",
        "b",
        "2573",
        "a",
        "0003/0004"
      ],
      [
        "203@",
        "01",
        "0",
        "367206846"
      ],
      [
        "208@",
        "01",
        "a",
        "25-11-99",
        "b",
        "bd"
      ],
      [
        "209A",
        "01",
        "a",
        "Pa 1120 a",
        "d",
        "f",
        "x",
        "00"
      ],
      [
        "220B",
        "01",
        "a",
        "Bd. 1-2 Umsetzung aus Ha 4 2013"
      ],
      [
        "231@",
        "01",
        "d",
        "1",
        "j",
        "1809/11",
        "n",
        "3",
        "k",
        "1817/19"
      ],
      [
        "231B",
        "01",
        "a",
        "1.1809/11(1811) - 3.1817/19,1"
      ],
      [
        "101@",
        "",
        "a",
        "69",
        "c",
        "PICA"
      ],
      [
        "101B",
        "",
        "0",
        "13-01-06",
        "t",
        "12:52:43.000"
      ],
      [
        "101U",
        "",
        "0",
        "utf8"
      ],
      [
        "102D",
        "",
        "0",
        "13-01-06",
        "b",
        "384906",
        "a",
        "1999"
      ],
      [
        "107F",
        "",
        "0",
        "ZDB37439741"
      ],
      [
        "201B",
        "01",
        "0",
        "13-01-06",
        "t",
        "12:52:43.000"
      ],
      [
        "201U",
        "01",
        "0",
        "utf8"
      ],
      [
        "202D",
        "01",
        "0",
        "13-01-06",
        "b",
        "384906",
        "a",
        "1999"
      ],
      [
        "203@",
        "01",
        "0",
        "192431331"
      ],
      [
        "206X",
        "01",
        "0",
        "37439741/01"
      ],
      [
        "208@",
        "01",
        "a",
        "01-01-96",
        "b",
        "b"
      ],
      [
        "209A",
        "01",
        "a",
        "Sa 193",
        "x",
        "00"
      ],
      [
        "209B",
        "01",
        "a",
        " 1.1810/11,3-4; 2.1812/18,2,4",
        "x",
        "32"
      ],
      [
        "231@",
        "01",
        "d",
        "1",
        "e",
        "3 bis 4",
        "j",
        "1810/11",
        "0",
        " ",
        "d",
        "2",
        "e",
        "2,4",
        "j",
        "1812/18"
      ],
      [
        "101@",
        "",
        "a",
        "105",
        "c",
        "PICA"
      ],
      [
        "201B",
        "01",
        "0",
        "24-07-12",
        "t",
        "14:25:44.000"
      ],
      [
        "201U",
        "01",
        "0",
        "utf8"
      ],
      [
        "202D",
        "01",
        "0",
        "24-07-12",
        "b",
        "6743",
        "a",
        "0841/0333"
      ],
      [
        "203@",
        "01",
        "0",
        "1312829443"
      ],
      [
        "208@",
        "01",
        "a",
        "24-07-12",
        "b",
        "xi01"
      ],
      [
        "101@",
        "",
        "a",
        "121",
        "c",
        "PICA"
      ],
      [
        "101B",
        "",
        "0",
        "13-12-02",
        "t",
        "13:14:34.514"
      ],
      [
        "101U",
        "",
        "0",
        "utf8"
      ],
      [
        "107F",
        "",
        "0",
        "NW II 1. 276"
      ],
      [
        "107F",
        "",
        "0",
        "QP169638731"
      ],
      [
        "107F",
        "",
        "0",
        "ZRU052533751"
      ],
      [
        "145Z",
        "",
        "a",
        "r"
      ],
      [
        "201B",
        "01",
        "0",
        "05-01-06",
        "t",
        "12:28:35.000"
      ],
      [
        "201U",
        "01",
        "0",
        "utf8"
      ],
      [
        "202D",
        "01",
        "0",
        "05-01-06",
        "b",
        "5204",
        "a",
        "0045"
      ],
      [
        "203@",
        "01",
        "0",
        "134778499"
      ],
      [
        "208@",
        "01",
        "a",
        "03-10-94",
        "b",
        "b"
      ],
      [
        "209A",
        "01",
        "a",
        "NW II 1. 276",
        "d",
        "d",
        "x",
        "00"
      ],
      [
        "231@",
        "01",
        "d",
        "1",
        "j",
        "1809/11"
      ],
      [
        "231B",
        "01",
        "a",
        "1.1809/11(1811)"
      ],
      [
        "201B",
        "02",
        "0",
        "06-01-15",
        "t",
        "18:21:02.000"
      ],
      [
        "201U",
        "02",
        "0",
        "utf8"
      ],
      [
        "202D",
        "02",
        "0",
        "06-01-15",
        "b",
        "5204",
        "a",
        "0045"
      ],
      [
        "203@",
        "02",
        "0",
        "749767995"
      ],
      [
        "208@",
        "02",
        "a",
        "05-01-06",
        "b",
        "b"
      ],
      [
        "209A",
        "02",
        "a",
        "NW II 7 E 126",
        "d",
        "d",
        "x",
        "00"
      ],
      [
        "231@",
        "02",
        "d",
        "2",
        "j",
        "1812/19"
      ],
      [
        "231B",
        "02",
        "a",
        "2.1812/19(1819),2"
      ],
      [
        "201B",
        "03",
        "0",
        "30-05-16",
        "t",
        "13:44:00.000"
      ],
      [
        "201U",
        "03",
        "0",
        "utf8"
      ],
      [
        "202D",
        "03",
        "0",
        "30-05-16",
        "b",
        "9405",
        "a",
        "0045"
      ],
      [
        "203@",
        "03",
        "0",
        "1516521587"
      ],
      [
        "208@",
        "03",
        "a",
        "06-01-15",
        "b",
        "b"
      ],
      [
        "209A",
        "03",
        "a",
        "Einzelsigatur",
        "d",
        "d",
        "x",
        "00"
      ],
      [
        "231@",
        "03",
        "d",
        "2",
        "j",
        "1812/19",
        "n",
        "3",
        "k",
        "1817/19"
      ],
      [
        "231B",
        "03",
        "a",
        "2.1812/19(1819),4; 3.1817/19,1"
      ],
      [
        "237A",
        "03",
        "a",
        "#Einzelsigatur siehe unter dem Titel des Bandes"
      ],
      [
        "101@",
        "",
        "a",
        "123",
        "c",
        "PICA"
      ],
      [
        "201B",
        "01",
        "0",
        "05-05-10",
        "t",
        "12:37:58.000"
      ],
      [
        "201U",
        "01",
        "0",
        "utf8"
      ],
      [
        "202D",
        "01",
        "0",
        "05-05-10",
        "b",
        "4244",
        "a",
        "3311"
      ],
      [
        "203@",
        "01",
        "0",
        "1159632642"
      ],
      [
        "208@",
        "01",
        "a",
        "05-05-10",
        "b",
        "x"
      ],
      [
        "101@",
        "",
        "a",
        "171",
        "c",
        "PICA"
      ],
      [
        "201B",
        "01",
        "0",
        "18-10-19",
        "t",
        "11:31:25.000"
      ],
      [
        "201D",
        "01",
        "0",
        "3309:18-10-19"
      ],
      [
        "201U",
        "01",
        "0",
        "utf8"
      ],
      [
        "202D",
        "01",
        "0",
        "18-10-19",
        "b",
        "5765",
        "a",
        "3309"
      ],
      [
        "203@",
        "01",
        "0",
        "1500364843"
      ],
      [
        "208@",
        "01",
        "a",
        "29-08-14",
        "b",
        "x"
      ],
      [
        "209A",
        "01",
        "B",
        "Ha 2",
        "x",
        "00"
      ],
      [
        "101@",
        "",
        "a",
        "179",
        "c",
        "PICA"
      ],
      [
        "201B",
        "01",
        "0",
        "23-07-07",
        "t",
        "12:25:37.000"
      ],
      [
        "201U",
        "01",
        "0",
        "utf8"
      ],
      [
        "202D",
        "01",
        "0",
        "23-07-07",
        "b",
        "179",
        "a",
        "8306"
      ],
      [
        "203@",
        "01",
        "0",
        "766387992"
      ],
      [
        "206W",
        "01",
        "0",
        "080111459",
        "z",
        "1"
      ],
      [
        "208@",
        "01",
        "a",
        "24-09-02",
        "b",
        "b"
      ],
      [
        "209A",
        "01",
        "a",
        "Z 2231",
        "d",
        "u",
        "x",
        "00"
      ],
      [
        "231@",
        "01",
        "d",
        "1",
        "j",
        "1809/11"
      ],
      [
        "231B",
        "01",
        "a",
        "1.1809/11(1811)"
      ],
      [
        "101@",
        "",
        "a",
        "278",
        "c",
        "PICA"
      ],
      [
        "201B",
        "01",
        "0",
        "07-06-11",
        "t",
        "17:40:34.000"
      ],
      [
        "201U",
        "01",
        "0",
        "utf8"
      ],
      [
        "202D",
        "01",
        "0",
        "07-06-11",
        "b",
        "7747",
        "a",
        "3310"
      ],
      [
        "203@",
        "01",
        "0",
        "1248361725"
      ],
      [
        "208@",
        "01",
        "a",
        "07-06-11",
        "b",
        "z"
      ],
      [
        "209A",
        "01",
        "a",
        "H 220",
        "d",
        "i",
        "x",
        "00"
      ],
      [
        "231@",
        "01",
        "d",
        "1",
        "j",
        "1809"
      ],
      [
        "231B",
        "01",
        "a",
        "1.1809,1-6"
      ],
      [
        "101@",
        "",
        "a",
        "289",
        "c",
        "PICA"
      ],
      [
        "201B",
        "01",
        "0",
        "27-03-09",
        "t",
        "12:53:05.000"
      ],
      [
        "201U",
        "01",
        "0",
        "utf8"
      ],
      [
        "202D",
        "01",
        "0",
        "27-03-09",
        "b",
        "4449",
        "a",
        "3289"
      ],
      [
        "203@",
        "01",
        "0",
        "927136430"
      ],
      [
        "208@",
        "01",
        "a",
        "27-03-09",
        "b",
        "x"
      ],
      [
        "245Z",
        "01",
        "a",
        "j1811",
        "x",
        "99"
      ],
      [
        "101@",
        "",
        "a",
        "2001",
        "c",
        "PICA"
      ],
      [
        "201A",
        "01",
        "0",
        "11-11-97"
      ],
      [
        "201B",
        "01",
        "0",
        "11-11-97",
        "t",
        "00:00:00.000"
      ],
      [
        "201D",
        "01",
        "0",
        "TUUB:11-11-97"
      ],
      [
        "201U",
        "01",
        "0",
        "utf8"
      ],
      [
        "203@",
        "01",
        "0",
        "2477367218"
      ],
      [
        "203S",
        "01",
        "0",
        "477367216"
      ],
      [
        "208@",
        "01",
        "a",
        "11-11-97",
        "b",
        "l01"
      ],
      [
        "209A",
        "01",
        "B",
        "21",
        "x",
        "00"
      ],
      [
        "209B",
        "01",
        "a",
        "abe5",
        "x",
        "12"
      ],
      [
        "101@",
        "",
        "a",
        "2003",
        "c",
        "PICA"
      ],
      [
        "201A",
        "01",
        "0",
        "22-11-04"
      ],
      [
        "201B",
        "01",
        "0",
        "22-11-04",
        "t",
        "00:00:00.000"
      ],
      [
        "201D",
        "01",
        "0",
        "FRUB:22-11-04"
      ],
      [
        "201U",
        "01",
        "0",
        "utf8"
      ],
      [
        "203@",
        "01",
        "0",
        "2477367226"
      ],
      [
        "203S",
        "01",
        "0",
        "477367224"
      ],
      [
        "208@",
        "01",
        "a",
        "22-11-04",
        "b",
        "l01"
      ],
      [
        "209A",
        "01",
        "B",
        "25",
        "x",
        "00"
      ],
      [
        "209B",
        "01",
        "a",
        "revo",
        "x",
        "12"
      ],
      [
        "209B",
        "01",
        "a",
        "z0",
        "x",
        "13"
      ],
      [
        "220B",
        "01",
        "a",
        "va"
      ],
      [
        "101@",
        "",
        "a",
        "2006",
        "c",
        "PICA"
      ],
      [
        "201A",
        "02",
        "0",
        "14-09-10"
      ],
      [
        "201B",
        "02",
        "0",
        "31-07-19",
        "t",
        "12:23:30.000"
      ],
      [
        "201D",
        "02",
        "0",
        "DDSU:14-09-10"
      ],
      [
        "201U",
        "02",
        "0",
        "utf8"
      ],
      [
        "202D",
        "02",
        "0",
        "31-07-19",
        "b",
        "1623635",
        "a",
        "20728"
      ],
      [
        "203@",
        "02",
        "0",
        "2666313379"
      ],
      [
        "203S",
        "02",
        "0",
        "666313377"
      ],
      [
        "206Z",
        "02",
        "0",
        "187980403"
      ],
      [
        "208@",
        "02",
        "a",
        "14-09-10",
        "b",
        "z01"
      ],
      [
        "209A",
        "02",
        "B",
        "14",
        "a",
        "monographisch erfasst",
        "J",
        "l",
        "x",
        "00"
      ],
      [
        "231@",
        "02",
        "d",
        "1",
        "j",
        "1809/10"
      ],
      [
        "231B",
        "02",
        "g",
        "1",
        "a",
        "1.1809/11(1811),3"
      ],
      [
        "201A",
        "03",
        "0",
        "11-12-99"
      ],
      [
        "201B",
        "03",
        "0",
        "31-07-19",
        "t",
        "12:23:30.000"
      ],
      [
        "201D",
        "03",
        "0",
        "DDSU:11-12-99"
      ],
      [
        "201U",
        "03",
        "0",
        "utf8"
      ],
      [
        "202D",
        "03",
        "0",
        "31-07-19",
        "b",
        "1623635",
        "a",
        "20728"
      ],
      [
        "203@",
        "03",
        "0",
        "3020197511"
      ],
      [
        "203S",
        "03",
        "0",
        "102019751X"
      ],
      [
        "206Z",
        "03",
        "0",
        "026807742"
      ],
      [
        "208@",
        "03",
        "a",
        "11-12-99",
        "b",
        "z01"
      ],
      [
        "209A",
        "03",
        "B",
        "14",
        "a",
        "Hist.nat.A.0684.m",
        "J",
        "l",
        "x",
        "00"
      ],
      [
        "231@",
        "03",
        "d",
        "1",
        "j",
        "1809/11",
        "n",
        "2",
        "k",
        "1812/19"
      ],
      [
        "231B",
        "03",
        "g",
        "1",
        "a",
        "1.1809/11(1811) - 2.1812/19(1819)"
      ],
      [
        "231D",
        "03",
        "a",
        "monografisch erfasst"
      ],
      [
        "245G",
        "03",
        "c",
        "5"
      ],
      [
        "101@",
        "",
        "a",
        "2010",
        "c",
        "PICA"
      ],
      [
        "201A",
        "01",
        "0",
        "10-09-97"
      ],
      [
        "201B",
        "01",
        "0",
        "10-09-97",
        "t",
        "00:00:00.000"
      ],
      [
        "201D",
        "01",
        "0",
        "L1UB:10-09-97"
      ],
      [
        "201U",
        "01",
        "0",
        "utf8"
      ],
      [
        "203@",
        "01",
        "0",
        "2477367242"
      ],
      [
        "203S",
        "01",
        "0",
        "477367240"
      ],
      [
        "208@",
        "01",
        "a",
        "10-09-97",
        "b",
        "l01"
      ],
      [
        "209A",
        "01",
        "B",
        "15",
        "x",
        "00"
      ],
      [
        "209B",
        "01",
        "a",
        "ABER",
        "x",
        "12"
      ],
      [
        "101@",
        "",
        "a",
        "2012",
        "c",
        "PICA"
      ],
      [
        "201A",
        "01",
        "0",
        "27-09-13"
      ],
      [
        "201B",
        "01",
        "0",
        "27-09-13",
        "t",
        "09:47:29.000"
      ],
      [
        "201D",
        "01",
        "0",
        "HDBSGP:27-09-13"
      ],
      [
        "201U",
        "01",
        "0",
        "utf8"
      ],
      [
        "203@",
        "01",
        "0",
        "2768752312"
      ],
      [
        "203S",
        "01",
        "0",
        "768752310"
      ],
      [
        "208@",
        "01",
        "a",
        "27-09-13",
        "b",
        "l01"
      ],
      [
        "209A",
        "01",
        "B",
        "16/25",
        "D",
        "p",
        "x",
        "00"
      ],
      [
        "209B",
        "01",
        "a",
        "reko",
        "x",
        "12"
      ],
      [
        "209G",
        "01",
        "a",
        "597382193"
      ],
      [
        "101@",
        "",
        "a",
        "2027",
        "c",
        "PICA"
      ],
      [
        "201A",
        "01",
        "0",
        "23-10-06"
      ],
      [
        "201B",
        "01",
        "0",
        "23-10-06",
        "t",
        "12:46:31.000"
      ],
      [
        "201D",
        "01",
        "0",
        "FGBA:23-10-06"
      ],
      [
        "201U",
        "01",
        "0",
        "utf8"
      ],
      [
        "203@",
        "01",
        "0",
        "2518746846"
      ],
      [
        "203S",
        "01",
        "0",
        "518746844"
      ],
      [
        "208@",
        "01",
        "a",
        "23-10-06",
        "b",
        "l01"
      ],
      [
        "209A",
        "01",
        "B",
        "105",
        "x",
        "00"
      ],
      [
        "244Z",
        "01",
        "S",
        "s",
        "a",
        "b0300032",
        "x",
        "00"
      ],
      [
        "101@",
        "",
        "a",
        "4035",
        "c",
        "PICA"
      ],
      [
        "201A",
        "01",
        "0",
        "15-07-03"
      ],
      [
        "201B",
        "01",
        "0",
        "20-04-19",
        "t",
        "16:42:56.000"
      ],
      [
        "201D",
        "01",
        "0",
        "0004:15-07-03"
      ],
      [
        "201U",
        "01",
        "0",
        "utf8"
      ],
      [
        "202D",
        "01",
        "0",
        "20-04-19",
        "b",
        "csfn_storemm-zdb-offline",
        "a",
        "100019999"
      ],
      [
        "203@",
        "01",
        "0",
        "3430384389"
      ],
      [
        "206Z",
        "01",
        "0",
        "057919909"
      ],
      [
        "208@",
        "01",
        "a",
        "15-07-03",
        "b",
        "b"
      ],
      [
        "209A",
        "01",
        "B",
        "4",
        "a",
        "IX C 84",
        "d",
        "s",
        "x",
        "00"
      ],
      [
        "231@",
        "01",
        "d",
        "1",
        "j",
        "1809",
        "n",
        "3",
        "k",
        "1817"
      ],
      [
        "231B",
        "01",
        "g",
        "1",
        "a",
        "1.1809/11 - 3.1817"
      ],
      [
        "101@",
        "",
        "a",
        "4125",
        "c",
        "PICA"
      ],
      [
        "201A",
        "01",
        "0",
        "18-11-95"
      ],
      [
        "201B",
        "01",
        "0",
        "20-04-19",
        "t",
        "16:42:56.000"
      ],
      [
        "201D",
        "01",
        "0",
        "0355:18-11-95"
      ],
      [
        "201U",
        "01",
        "0",
        "utf8"
      ],
      [
        "202D",
        "01",
        "0",
        "20-04-19",
        "b",
        "csfn_storemm-zdb-offline",
        "a",
        "100019999"
      ],
      [
        "203@",
        "01",
        "0",
        "3430384400"
      ],
      [
        "206Z",
        "01",
        "0",
        "066725771"
      ],
      [
        "208@",
        "01",
        "a",
        "18-11-95",
        "b",
        "b000"
      ],
      [
        "209A",
        "01",
        "f",
        "240",
        "g",
        "240/TA 5295",
        "x",
        "01"
      ],
      [
        "231@",
        "01",
        "d",
        "1",
        "j",
        "1809/11",
        "n",
        "2",
        "k",
        "1812/19",
        "0",
        " ",
        "d",
        "3",
        "j",
        "1817/19"
      ],
      [
        "231B",
        "01",
        "g",
        "3240     A",
        "a",
        "1.1809/11(1811) - 2.1812/19(1819); 3.1817/19,1-2"
      ],
      [
        "101@",
        "",
        "a",
        "4253",
        "c",
        "PICA"
      ],
      [
        "201A",
        "01",
        "0",
        "18-08-06"
      ],
      [
        "201B",
        "01",
        "0",
        "20-04-19",
        "t",
        "16:42:56.000"
      ],
      [
        "201D",
        "01",
        "0",
        "0036:18-08-06"
      ],
      [
        "201U",
        "01",
        "0",
        "utf8"
      ],
      [
        "202D",
        "01",
        "0",
        "20-04-19",
        "b",
        "csfn_storemm-zdb-offline",
        "a",
        "100019999"
      ],
      [
        "203@",
        "01",
        "0",
        "3430384397"
      ],
      [
        "206Z",
        "01",
        "0",
        "119472163"
      ],
      [
        "208@",
        "01",
        "a",
        "18-08-06",
        "b",
        "b"
      ],
      [
        "231@",
        "01",
        "d",
        "1",
        "j",
        "1809",
        "0",
        " ",
        "d",
        "2",
        "j",
        "1812"
      ],
      [
        "231B",
        "01",
        "g",
        "1",
        "a",
        "1.1809/11(1811),1,6; 2.1812/19(1819),2,4"
      ]
    ],
    "_id": "130090271"
  }
]
