[{
   "record" : [
      [
         "001A",
         "",
         "0",
         "3280:24-05-13"
      ],
      [
         "001B",
         "",
         "0",
         "3280:24-05-13",
         "t",
         "09:29:34.000"
      ],
      [
         "001D",
         "",
         "0",
         "3280:24-05-13"
      ],
      [
         "001U",
         "",
         "0",
         "utf8"
      ],
      [
         "001X",
         "",
         "0",
         "0"
      ],
      [
         "002@",
         "",
         "0",
         "Abvz"
      ],
      [
         "003@",
         "",
         "0",
         "001916718"
      ],
      [
         "003O",
         "",
         "a",
         "OCoLC",
         "0",
         "225159965",
         "v",
         "2012-12-31"
      ],
      [
         "006G",
         "",
         "0",
         "013018078"
      ],
      [
         "006X",
         "",
         "c",
         "OCoLC",
         "0",
         "225159965"
      ],
      [
         "006X",
         "",
         "c",
         "ADW",
         "0",
         "6154"
      ],
      [
         "006Z",
         "",
         "0",
         "5495167"
      ],
      [
         "007G",
         "",
         "c",
         "ZDB",
         "0",
         "5495167"
      ],
      [
         "010@",
         "",
         "a",
         "ger"
      ],
      [
         "011@",
         "",
         "a",
         "1798",
         "b",
         "1810"
      ],
      [
         "011B",
         "",
         "a",
         "1989",
         "b",
         "1990"
      ],
      [
         "013H",
         "",
         "0",
         "sm"
      ],
      [
         "016E",
         "",
         "0",
         "ebmb000abcu"
      ],
      [
         "018@",
         "",
         "0",
         "z"
      ],
      [
         "019@",
         "",
         "a",
         "XA-DXDE"
      ],
      [
         "021A",
         "",
         "a",
         "London und Paris",
         "d",
         "eine Zeitschrift mit Kupfern",
         "h",
         "[Hrsg.: Friedrich Justin Bertuch]"
      ],
      [
         "028C",
         "",
         "d",
         "Friedrich Justin",
         "a",
         "Bertuch",
         "9",
         "133422712",
         "d",
         "Friedrich Justin",
         "a",
         "Bertuch",
         "E",
         "1747",
         "F",
         "1822",
         "0",
         "gnd/118510169"
      ],
      [
         "031@",
         "",
         "a",
         "1.1798 - 12.1810 = Bd. 1-24"
      ],
      [
         "033A",
         "",
         "p",
         "Rudolstadt",
         "n",
         "Verl. d. Hof-, Buch- u. Kunsth"
      ],
      [
         "033B",
         "05",
         "p",
         "Weimar",
         "n",
         "Verl. der Industrie-Comptoir",
         "h",
         "1798-1803"
      ],
      [
         "033B",
         "05",
         "p",
         "Halle",
         "n",
         "Neue Societäts-Buch-u. Kunsth",
         "h",
         "1804-1807"
      ],
      [
         "033N",
         "",
         "p",
         "Wildberg",
         "n",
         "Belser Wiss. Dienst"
      ],
      [
         "033N",
         "",
         "p",
         "Hildesheim",
         "n",
         "Olms"
      ],
      [
         "036L",
         "",
         "a",
         "Deutsche Zeitschriften des 18. und 19. Jahrhunderts : Supplement"
      ],
      [
         "037F",
         "",
         "a",
         "Mikrofiche-Ausg. 1.1798: Wildberg : Belser Wiss. Dienst, 1989/90. (Edition Corvey)"
      ],
      [
         "037G",
         "",
         "a",
         "Mikrofiche-Ausg. 1.1798: Wildberg : Belser Wiss. Dienst, 1989/90. (Edition Corvey). - Mikrofiche-Ausg.: Hildesheim : Olms, 1999. (Deutsche Zeitschriften des 18. und 19. Jahrhunderts : Supplement)"
      ],
      [
         "039C",
         "",
         "c",
         "Beil",
         "a",
         "Herzoglich Sächsisch Privilegirtes Landes-Industrie-Comptoir <Weimar>: Monats-Bericht des H.S. Privil. Landes-Industrie-Comptoirs und des Geographischen Instituts zu Weimar sowie auch der F.S.R. Privil. Hof-, Buch- und Kunsthandlung zu Rudolstadt",
         "C",
         "ZDB",
         "6",
         "343409-6"
      ],
      [
         "039E",
         "",
         "c",
         "Forts.",
         "a",
         "Paris, Wien und London",
         "C",
         "ZDB",
         "6",
         "549517-9"
      ],
      [
         "045G",
         "",
         "a",
         "910",
         "a",
         "050",
         "A",
         "DNB"
      ],
      [
         "045M",
         "10",
         "b",
         "9",
         "a",
         "AV 11000"
      ],
      [
         "045Q",
         "01",
         "9",
         "181570386",
         "a",
         "15.64",
         "j",
         "Großbritannien",
         "j",
         "Irland",
         "X",
         "Geschichte"
      ],
      [
         "045Y",
         "",
         "a",
         "ang"
      ],
      [
         "046P",
         "",
         "a",
         "1809 nicht ersch"
      ]
   ],
   "_id" : "001916718"
}]
