[{
   "record" : [
      [
         "001A",
         "",
         "0",
         "2049:25-02-19"
      ],
      [
         "001B",
         "",
         "0",
         "2049:26-02-19",
         "t",
         "00:00:57.000"
      ],
      [
         "001D",
         "",
         "0",
         "2049:25-02-19"
      ],
      [
         "001U",
         "",
         "0",
         "utf8"
      ],
      [
         "001X",
         "",
         "0",
         "0"
      ],
      [
         "002@",
         "",
         "0",
         "Ocv"
      ],
      [
         "002C",
         "",
         "a",
         "Text",
         "b",
         "txt"
      ],
      [
         "002D",
         "",
         "a",
         "Computermedien",
         "b",
         "c"
      ],
      [
         "002E",
         "",
         "a",
         "Online-Ressource",
         "b",
         "cr"
      ],
      [
         "003@",
         "",
         "0",
         "026663503"
      ],
      [
         "004U",
         "",
         "0",
         "urn:nbn:de:gbv:3:1-844943"
      ],
      [
         "006M",
         "",
         "0",
         "VD18 90758641"
      ],
      [
         "006Y",
         "",
         "0",
         "gvk1048617068"
      ],
      [
         "007G",
         "",
         "c",
         "GBV",
         "0",
         "1048617068"
      ],
      [
         "007S",
         "",
         "0",
         "VD18 90758641"
      ],
      [
         "008@",
         "",
         "b",
         "RedVD18-DE-3"
      ],
      [
         "009@",
         "",
         "b",
         "vd18"
      ],
      [
         "009P",
         "03",
         "S",
         "1",
         "a",
         "http://nbn-resolving.de/urn:nbn:de:gbv:3:1-844943"
      ],
      [
         "010@",
         "",
         "a",
         "lat"
      ],
      [
         "010E",
         "",
         "e",
         "rda"
      ],
      [
         "011@",
         "",
         "a",
         "2019",
         "n",
         "[2019]",
         "r",
         "1705"
      ],
      [
         "016D",
         "",
         "0",
         "cr"
      ],
      [
         "019@",
         "",
         "a",
         "XA-DE"
      ],
      [
         "021A",
         "",
         "a",
         "Dissertationis Juridicæ, De Tutelis ...",
         "h",
         "Præside Viro Nobilißimo, Amplißimo, Consultißimo atq[ue] Excellentißimo Dn. Johanne Henrico Feltzio, J. U. D. Pandect. & Juris Canonici P. P. Ordinario ... sistit Joh. Josephus Manniere, Molshemensis, Auctor"
      ],
      [
         "027A",
         "",
         "a",
         "De Tutelis"
      ],
      [
         "028A",
         "",
         "d",
         "Johann Heinrich",
         "a",
         "Feltz",
         "9",
         "011001879",
         "d",
         "Johann Heinrich",
         "a",
         "Feltz",
         "E",
         "1665",
         "F",
         "1737",
         "0",
         "gnd/100281494",
         "B",
         "Praeses",
         "4",
         "pra"
      ],
      [
         "028C",
         "",
         "d",
         "Johannes Josephus",
         "a",
         "Maniere",
         "9",
         "026672987",
         "d",
         "Johannes Josephus",
         "a",
         "Maniere",
         "0",
         "gnd/1084589567",
         "B",
         "RespondentIn",
         "4",
         "rsp"
      ],
      [
         "028C",
         "",
         "d",
         "Josias",
         "a",
         "Städel",
         "l",
         "II.",
         "9",
         "011751762",
         "d",
         "Josias",
         "a",
         "Städel",
         "l",
         "II.",
         "F",
         "1717",
         "0",
         "gnd/1037510208",
         "B",
         "DruckerIn",
         "4",
         "prt"
      ],
      [
         "029F",
         "",
         "9",
         "025148834",
         "M",
         "Tbv1",
         "a",
         "Josias Staedel",
         "g",
         "Straßburg",
         "0",
         "gnd/16023384-7",
         "B",
         "DruckerIn",
         "4",
         "prt"
      ],
      [
         "033A",
         "",
         "p",
         "Halle, Saale",
         "n",
         "Universitäts- und Landesbibliothek Sachsen-Anhalt"
      ],
      [
         "036E",
         "",
         "a",
         "VD18 digital"
      ],
      [
         "037H",
         "",
         "a",
         "TIFF, Vers.6.0, 300 dpi, 24 bit (Farbe), Digitalisierungsvorlage: Primärausgabe"
      ],
      [
         "037I",
         "",
         "a",
         "Universitäts- und Landesbibliothek Sachsen-Anhalt, Halle (Saale)"
      ],
      [
         "039I",
         "",
         "c",
         "Elektronische Reproduktion von",
         "l",
         "Feltz, Johann Heinrich, 1665-1737",
         "t",
         "Dissertationis Juridicæ, De Tutelis ...",
         "d",
         "Argentorati",
         "e",
         "Literis Josiæ Stædelii",
         "f",
         "[MDCCV?]-",
         "C",
         "GBV",
         "6",
         "1048374025"
      ],
      [
         "044S",
         "",
         "9",
         "010879870",
         "a",
         "Dissertation:jur."
      ],
      [
         "046H",
         "",
         "a",
         "Vorlageform der Veröffentlichungsangabe: \"Argentorati, Literis Josiæ Stædelii, Acad. Typogr.\""
      ],
      [
         "046X",
         "",
         "S",
         "lzar",
         "C",
         "la",
         "a",
         "ULB Sachsen-Anhalt, Halle (Saale)"
      ],
      [
         "047A",
         "",
         "a",
         "Bestand: DE-3"
      ]
   ],
   "_id" : "026663503"
}]
