[{
   "record" : [
      [
         "001@",
         "",
         "0",
         "11-12,15-16,20,38,111,153,323",
         "a",
         "3"
      ],
      [
         "001A",
         "",
         "0",
         "9001:21-11-99"
      ],
      [
         "001B",
         "",
         "0",
         "9024:22-02-19",
         "t",
         "22:20:05.000"
      ],
      [
         "001D",
         "",
         "0",
         "9001:25-05-05"
      ],
      [
         "001U",
         "",
         "0",
         "utf8"
      ],
      [
         "001X",
         "",
         "0",
         "0"
      ],
      [
         "002@",
         "",
         "0",
         "Abvz"
      ],
      [
         "002C",
         "",
         "a",
         "Text",
         "b",
         "txt"
      ],
      [
         "002D",
         "",
         "a",
         "ohne Hilfsmittel zu benutzen",
         "b",
         "n"
      ],
      [
         "002E",
         "",
         "a",
         "Band",
         "b",
         "nc"
      ],
      [
         "003@",
         "",
         "0",
         "017323185"
      ],
      [
         "006S",
         "",
         "0",
         "2009235-0"
      ],
      [
         "006S",
         "",
         "0",
         "2034301-2"
      ],
      [
         "006Z",
         "",
         "0",
         "1205474-4"
      ],
      [
         "007G",
         "",
         "a",
         "ZDB",
         "0",
         "1205474-4"
      ],
      [
         "007I",
         "",
         "S",
         "o",
         "0",
         "649224627"
      ],
      [
         "010@",
         "",
         "a",
         "ger"
      ],
      [
         "011@",
         "",
         "a",
         "1726",
         "b",
         "1834"
      ],
      [
         "013D",
         "",
         "9",
         "040674886",
         "7",
         "Tsz",
         "V",
         "saz",
         "A",
         "gnd",
         "0",
         "4067488-5",
         "a",
         "Zeitschrift"
      ],
      [
         "013D",
         "",
         "9",
         "04077211X",
         "7",
         "Ts1",
         "V",
         "saz",
         "A",
         "gnd",
         "0",
         "4077211-1",
         "a",
         "Schulprogramm"
      ],
      [
         "013H",
         "",
         "0",
         "sc"
      ],
      [
         "019@",
         "",
         "a",
         "XA-DXDE"
      ],
      [
         "021A",
         "",
         "a",
         "Ad examen solemne Scholae Latinae Gymnasii Halensis in Orphanotropheo ... subeundum audiendasque orationes aliquot primi ordinis civium bonarum fautores reverenter invitat ..."
      ],
      [
         "029A",
         "",
         "9",
         "942422775",
         "7",
         "Tb1",
         "V",
         "kiz",
         "A",
         "gnd",
         "0",
         "5113087-7",
         "a",
         "Lateinschule zu Halle",
         "B",
         "Verfasser",
         "4",
         "aut"
      ],
      [
         "031@",
         "",
         "a",
         "Nachgewiesen 1726 - 1830/31(1831); nachgewiesen 1833/34(1834)"
      ],
      [
         "031N",
         "",
         "j",
         "1726",
         "k",
         "1839"
      ],
      [
         "033A",
         "",
         "p",
         "Halis Saxonum"
      ],
      [
         "033A",
         "",
         "p",
         "Halle S.",
         "h",
         "teils",
         "z",
         "f"
      ],
      [
         "039E",
         "",
         "b",
         "z",
         "a",
         "1831/32",
         "9",
         "01492238X",
         "g",
         "Abvz",
         "0",
         "891026-1",
         "7",
         "Tb1",
         "V",
         "kiz",
         "A",
         "gnd",
         "0",
         "601236-X",
         "a",
         "Lateinische Hauptschule zu Halle",
         "F",
         "Verfasser",
         "4",
         "aut",
         "Y",
         "Programm der Lateinischen Hauptschule in Halle",
         "6",
         "Halle, S.",
         "H",
         "1832-1898"
      ],
      [
         "039E",
         "",
         "b",
         "s",
         "9",
         "017372690",
         "g",
         "Abvz",
         "0",
         "1210575-2",
         "7",
         "Tb1",
         "V",
         "kiz",
         "A",
         "gnd",
         "0",
         "5113087-7",
         "a",
         "Lateinschule zu Halle",
         "F",
         "Verfasser",
         "4",
         "aut",
         "Y",
         "Ad Scholae Latinae in Orphanotropheo Halensi examen sollemne ... instituendum ... invitat",
         "6",
         "Halis Saxonum",
         "H",
         "1835-1841"
      ],
      [
         "039I",
         "",
         "a",
         "Elektronische Reproduktion",
         "9",
         "1093610654",
         "g",
         "Obxz",
         "0",
         "2850572-4",
         "7",
         "Tb1",
         "V",
         "kiz",
         "A",
         "gnd",
         "0",
         "5113087-7",
         "a",
         "Lateinschule zu Halle",
         "F",
         "Verfasser",
         "4",
         "aut",
         "Y",
         "Ad examen solemne Scholae Latinae Gymnasii Halensis in Orphanotropheo ... subeundum audiendasque orationes aliquot primi ordinis civium bonarum fautores reverenter invitat ...",
         "6",
         "Halle, Saale : ULB",
         "H",
         "2016"
      ],
      [
         "045U",
         "",
         "e",
         "370"
      ],
      [
         "046C",
         "",
         "b",
         "Abweichender Titel teils",
         "a",
         "Historische Nachrichten, die Lateinische Schule im Waisenhause betreffend"
      ],
      [
         "046D",
         "",
         "b",
         "Haupttitel teils",
         "a",
         "Zur öffentlichen Prüfung einiger Classen der Lateinischen Schule im Waisenhause, den ... wurden die Freunde der Wissenschaften ergebenst eingeladen"
      ],
      [
         "047C",
         "",
         "a",
         "sollemne Klassen"
      ],
      [
         "101@",
         "",
         "a",
         "11"
      ],
      [
         "201B",
         "1",
         "0",
         "29-06-16",
         "t",
         "17:06:12.000"
      ],
      [
         "201U",
         "1",
         "0",
         "utf8"
      ],
      [
         "203@",
         "1",
         "0",
         "168317575"
      ],
      [
         "206Y",
         "1",
         "0",
         "h110668057X"
      ],
      [
         "208@",
         "1",
         "a",
         "14-12-09",
         "b",
         "x"
      ],
      [
         "209A",
         "1",
         "a",
         "Ah 16636",
         "d",
         "d",
         "l",
         "k",
         "x",
         "00"
      ],
      [
         "209B",
         "1",
         "g",
         "1",
         "a",
         "1824/25(1825) - 1825/26(1826); 1928/29(1929)",
         "x",
         "32"
      ],
      [
         "209B",
         "1",
         "a",
         "Als Nr. 6, 6a und 7 in Sammelband",
         "x",
         "34"
      ],
      [
         "231@",
         "1",
         "j",
         "1824/25",
         "k",
         "1825/26",
         "0",
         " ",
         "j",
         "1928/29"
      ],
      [
         "247C",
         "1",
         "9",
         "00903482X",
         "0",
         "910107-X",
         "S",
         "1",
         "L",
         "BER",
         "T",
         "DE-1",
         "I",
         "0011",
         "Z",
         "CC0",
         "g",
         "GBV",
         "h",
         "l",
         "A",
         "Staatsbibliothek zu Berlin - Preußischer Kulturbesitz, Haus Unter den Linden",
         "a",
         "Berlin SBB Haus Unter d.Linden"
      ],
      [
         "101@",
         "",
         "a",
         "11"
      ],
      [
         "201B",
         "2",
         "0",
         "03-05-16",
         "t",
         "23:35:44.000"
      ],
      [
         "201U",
         "2",
         "0",
         "utf8"
      ],
      [
         "203@",
         "2",
         "0",
         "16964099X"
      ],
      [
         "206Y",
         "2",
         "0",
         "h1109188048"
      ],
      [
         "208@",
         "2",
         "a",
         "13-01-10",
         "b",
         "x"
      ],
      [
         "209A",
         "2",
         "a",
         "Ah 16639",
         "d",
         "d",
         "l",
         "k",
         "x",
         "00"
      ],
      [
         "209B",
         "2",
         "g",
         "2",
         "a",
         "1829/30(1830)",
         "x",
         "32"
      ],
      [
         "209B",
         "2",
         "a",
         "Als Nr. 4 in Sammelband",
         "x",
         "34"
      ],
      [
         "231@",
         "2",
         "j",
         "1829/30"
      ],
      [
         "247C",
         "2",
         "9",
         "00903482X",
         "0",
         "910107-X",
         "S",
         "1",
         "L",
         "BER",
         "T",
         "DE-1",
         "I",
         "0011",
         "Z",
         "CC0",
         "g",
         "GBV",
         "h",
         "l",
         "A",
         "Staatsbibliothek zu Berlin - Preußischer Kulturbesitz, Haus Unter den Linden",
         "a",
         "Berlin SBB Haus Unter d.Linden"
      ],
      [
         "101@",
         "",
         "a",
         "11"
      ],
      [
         "201B",
         "3",
         "0",
         "03-05-16",
         "t",
         "23:35:44.000"
      ],
      [
         "201U",
         "3",
         "0",
         "utf8"
      ],
      [
         "203@",
         "3",
         "0",
         "174362374"
      ],
      [
         "206Y",
         "3",
         "0",
         "h1117088278"
      ],
      [
         "208@",
         "3",
         "a",
         "08-03-10",
         "b",
         "x"
      ],
      [
         "209A",
         "3",
         "a",
         "Ah 16647-1829/31,1",
         "d",
         "d",
         "l",
         "k",
         "x",
         "00"
      ],
      [
         "209B",
         "3",
         "g",
         "3",
         "a",
         "1830/31(1831)",
         "x",
         "32"
      ],
      [
         "209B",
         "3",
         "a",
         "Als Nr. 8 in Sammelband",
         "x",
         "34"
      ],
      [
         "231@",
         "3",
         "j",
         "1830/31"
      ],
      [
         "247C",
         "3",
         "9",
         "00903482X",
         "0",
         "910107-X",
         "S",
         "1",
         "L",
         "BER",
         "T",
         "DE-1",
         "I",
         "0011",
         "Z",
         "CC0",
         "g",
         "GBV",
         "h",
         "l",
         "A",
         "Staatsbibliothek zu Berlin - Preußischer Kulturbesitz, Haus Unter den Linden",
         "a",
         "Berlin SBB Haus Unter d.Linden"
      ],
      [
         "101@",
         "",
         "a",
         "11"
      ],
      [
         "201B",
         "4",
         "0",
         "03-05-16",
         "t",
         "23:35:44.000"
      ],
      [
         "201U",
         "4",
         "0",
         "utf8"
      ],
      [
         "203@",
         "4",
         "0",
         "174457669"
      ],
      [
         "206Y",
         "4",
         "0",
         "h1119924847"
      ],
      [
         "208@",
         "4",
         "a",
         "19-03-10",
         "b",
         "x"
      ],
      [
         "209A",
         "4",
         "a",
         "4\"@Ah 16651",
         "d",
         "d",
         "l",
         "k",
         "x",
         "00"
      ],
      [
         "209B",
         "4",
         "g",
         "4",
         "a",
         "1833/34(1834)",
         "x",
         "32"
      ],
      [
         "209B",
         "4",
         "a",
         "Als Nr. 4 in Sammelband",
         "x",
         "34"
      ],
      [
         "231@",
         "4",
         "j",
         "1833/34"
      ],
      [
         "247C",
         "4",
         "9",
         "00903482X",
         "0",
         "910107-X",
         "S",
         "1",
         "L",
         "BER",
         "T",
         "DE-1",
         "I",
         "0011",
         "Z",
         "CC0",
         "g",
         "GBV",
         "h",
         "l",
         "A",
         "Staatsbibliothek zu Berlin - Preußischer Kulturbesitz, Haus Unter den Linden",
         "a",
         "Berlin SBB Haus Unter d.Linden"
      ],
      [
         "101@",
         "",
         "a",
         "12"
      ],
      [
         "201B",
         "1",
         "0",
         "11-07-18",
         "t",
         "17:04:59.000"
      ],
      [
         "201U",
         "1",
         "0",
         "utf8"
      ],
      [
         "203@",
         "1",
         "0",
         "173049125"
      ],
      [
         "206Y",
         "1",
         "0",
         "h308538919"
      ],
      [
         "208@",
         "1",
         "a",
         "05-11-98",
         "b",
         "x"
      ],
      [
         "209A",
         "1",
         "a",
         "Pon Yb 3735",
         "d",
         "f",
         "l",
         "k",
         "x",
         "00"
      ],
      [
         "209B",
         "1",
         "g",
         "1",
         "a",
         "1824/25(1825); 1828/29(1829)",
         "x",
         "32"
      ],
      [
         "231@",
         "1",
         "j",
         "1824/25",
         "0",
         " ",
         "j",
         "1828/29"
      ],
      [
         "247C",
         "1",
         "9",
         "009027866",
         "0",
         "931000-9",
         "S",
         "3",
         "L",
         "SAA",
         "T",
         "DE-3",
         "I",
         "0012",
         "Z",
         "CC0",
         "c",
         "S",
         "g",
         "GBV",
         "h",
         "k",
         "A",
         "Universitäts- und Landesbibliothek Sachsen-Anhalt / Zentrale",
         "a",
         "Halle/S UuLB"
      ],
      [
         "101@",
         "",
         "a",
         "12"
      ],
      [
         "201B",
         "2",
         "0",
         "11-07-18",
         "t",
         "17:04:59.000"
      ],
      [
         "201U",
         "2",
         "0",
         "utf8"
      ],
      [
         "203@",
         "2",
         "0",
         "173049133"
      ],
      [
         "206Y",
         "2",
         "0",
         "h385251440"
      ],
      [
         "208@",
         "2",
         "a",
         "04-04-00",
         "b",
         "x"
      ],
      [
         "209A",
         "2",
         "a",
         "Halle, Lat. Hauptschule, Schulprogramm, 1825/29 (1-4)",
         "d",
         "g",
         "l",
         "n",
         "x",
         "00"
      ],
      [
         "209A",
         "2",
         "g",
         "Vorh. in: Halle, Lat. Hauptschule, Schulprogramm, 1825/29",
         "x",
         "09"
      ],
      [
         "209B",
         "2",
         "g",
         "2",
         "a",
         "1825 - 1826; 1828/29(1829)",
         "x",
         "32"
      ],
      [
         "209B",
         "2",
         "a",
         "Bestellen Sie bitte mit dem Titel:  Caroli Augusti Schirlitzii Commentatio de Latine Loquendi Usu e Scholis Haudquaquam Tollendo",
         "x",
         "34"
      ],
      [
         "247C",
         "2",
         "9",
         "009027866",
         "0",
         "931000-9",
         "S",
         "3",
         "L",
         "SAA",
         "T",
         "DE-3",
         "I",
         "0012",
         "Z",
         "CC0",
         "c",
         "S",
         "g",
         "GBV",
         "h",
         "k",
         "A",
         "Universitäts- und Landesbibliothek Sachsen-Anhalt / Zentrale",
         "a",
         "Halle/S UuLB"
      ],
      [
         "101@",
         "",
         "a",
         "12"
      ],
      [
         "201B",
         "3",
         "0",
         "06-03-18",
         "t",
         "01:09:22.000"
      ],
      [
         "201U",
         "3",
         "0",
         "utf8"
      ],
      [
         "203@",
         "3",
         "0",
         "438402774"
      ],
      [
         "206Y",
         "3",
         "0",
         "h1395502064"
      ],
      [
         "208@",
         "3",
         "a",
         "27-01-99",
         "b",
         "x"
      ],
      [
         "209A",
         "3",
         "a",
         "Halle, Lat. Hauptschule, Schulprogramm, 1830/39",
         "d",
         "g",
         "l",
         "n",
         "x",
         "00"
      ],
      [
         "209B",
         "3",
         "g",
         "3",
         "a",
         "1830/31(1831); 1833/34(1834)",
         "x",
         "32"
      ],
      [
         "247C",
         "3",
         "9",
         "009027866",
         "0",
         "931000-9",
         "S",
         "3",
         "L",
         "SAA",
         "T",
         "DE-3",
         "I",
         "0012",
         "Z",
         "CC0",
         "c",
         "S",
         "g",
         "GBV",
         "h",
         "k",
         "A",
         "Universitäts- und Landesbibliothek Sachsen-Anhalt / Zentrale",
         "a",
         "Halle/S UuLB"
      ],
      [
         "101@",
         "",
         "a",
         "15"
      ],
      [
         "201B",
         "1",
         "0",
         "19-05-16",
         "t",
         "13:18:46.000"
      ],
      [
         "201U",
         "1",
         "0",
         "utf8"
      ],
      [
         "203@",
         "1",
         "0",
         "061064017"
      ],
      [
         "208@",
         "1",
         "a",
         "21-12-00",
         "b",
         "x"
      ],
      [
         "209A",
         "1",
         "a",
         "BB 588",
         "x",
         "00"
      ],
      [
         "209B",
         "1",
         "c",
         "2a",
         "x",
         "01"
      ],
      [
         "209B",
         "1",
         "g",
         "1",
         "a",
         "1829 - 1830",
         "x",
         "32"
      ],
      [
         "231@",
         "1",
         "j",
         "1829",
         "k",
         "1830"
      ],
      [
         "247C",
         "1",
         "9",
         "009006079",
         "0",
         "441000-2",
         "S",
         "6",
         "L",
         "NRW",
         "T",
         "DE-6",
         "I",
         "0015",
         "K",
         "HBZ",
         "Z",
         "CC0",
         "g",
         "HBZ",
         "h",
         "l",
         "A",
         "Universitäts- und Landesbibliothek Münster",
         "a",
         "Münster ULB"
      ],
      [
         "101@",
         "",
         "a",
         "16"
      ],
      [
         "201B",
         "1",
         "0",
         "19-05-11",
         "t",
         "17:37:44.000"
      ],
      [
         "201U",
         "1",
         "0",
         "utf8"
      ],
      [
         "203@",
         "1",
         "0",
         "089069978"
      ],
      [
         "206Y",
         "1",
         "0",
         "h145894657"
      ],
      [
         "206Z",
         "1",
         "0",
         "182409384"
      ],
      [
         "208@",
         "1",
         "a",
         "31-12-94",
         "b",
         "x"
      ],
      [
         "209A",
         "1",
         "a",
         "SCHULPROGR I 8 HLP I, 3879",
         "d",
         "s",
         "l",
         "k",
         "x",
         "00"
      ],
      [
         "209A",
         "1",
         "f",
         "HG-FB",
         "g",
         "8 HLP I, 3879",
         "x",
         "09"
      ],
      [
         "209B",
         "1",
         "g",
         "1",
         "a",
         "1826; 1828",
         "x",
         "32"
      ],
      [
         "231@",
         "1",
         "j",
         "1826",
         "0",
         " ",
         "j",
         "1828"
      ],
      [
         "247C",
         "1",
         "9",
         "009004742",
         "0",
         "341000-6",
         "S",
         "7",
         "L",
         "NIE",
         "T",
         "DE-7",
         "I",
         "0016",
         "Z",
         "CC0",
         "c",
         "S",
         "g",
         "GBV",
         "h",
         "l",
         "A",
         "Niedersächsische Staats- und Universitätsbibliothek Göttingen",
         "a",
         "Göttingen SUB"
      ],
      [
         "101@",
         "",
         "a",
         "16"
      ],
      [
         "201B",
         "2",
         "0",
         "07-07-11",
         "t",
         "18:27:49.000"
      ],
      [
         "201U",
         "2",
         "0",
         "utf8"
      ],
      [
         "203@",
         "2",
         "0",
         "089069986"
      ],
      [
         "206Y",
         "2",
         "0",
         "h145894665"
      ],
      [
         "206Z",
         "2",
         "0",
         "182409384"
      ],
      [
         "208@",
         "2",
         "a",
         "31-12-94",
         "b",
         "x"
      ],
      [
         "209A",
         "2",
         "a",
         "SCHULPROGR I 4 HLP I, 3881",
         "d",
         "s",
         "l",
         "k",
         "x",
         "00"
      ],
      [
         "209A",
         "2",
         "f",
         "HG-FB",
         "g",
         "4 HLP I, 3881",
         "x",
         "09"
      ],
      [
         "209B",
         "2",
         "g",
         "2",
         "a",
         "1830; 1831/32; 1834; 1835 - 1836; 1837; 1839; 1842 - 1843/44",
         "x",
         "32"
      ],
      [
         "209B",
         "2",
         "a",
         "Forts.-Titel hier mitgebunden",
         "x",
         "34"
      ],
      [
         "231@",
         "2",
         "j",
         "1830",
         "0",
         " ",
         "j",
         "1831/32",
         "0",
         " ",
         "j",
         "1834",
         "0",
         " ",
         "j",
         "1835",
         "k",
         "1836",
         "0",
         " ",
         "d",
         "1837",
         "0",
         " ",
         "j",
         "1839",
         "0",
         " ",
         "d",
         "1842",
         "k",
         "1843/44"
      ],
      [
         "247C",
         "2",
         "9",
         "009004742",
         "0",
         "341000-6",
         "S",
         "7",
         "L",
         "NIE",
         "T",
         "DE-7",
         "I",
         "0016",
         "Z",
         "CC0",
         "c",
         "S",
         "g",
         "GBV",
         "h",
         "l",
         "A",
         "Niedersächsische Staats- und Universitätsbibliothek Göttingen",
         "a",
         "Göttingen SUB"
      ],
      [
         "101@",
         "",
         "a",
         "20"
      ],
      [
         "201B",
         "1",
         "0",
         "26-11-13",
         "t",
         "15:45:17.000"
      ],
      [
         "201U",
         "1",
         "0",
         "utf8"
      ],
      [
         "203@",
         "1",
         "0",
         "277286298"
      ],
      [
         "208@",
         "1",
         "a",
         "26-11-13",
         "b",
         "x"
      ],
      [
         "209A",
         "1",
         "a",
         "4 H.lit.p. 245 r",
         "x",
         "00"
      ],
      [
         "209B",
         "1",
         "g",
         " A",
         "a",
         "1829/30",
         "x",
         "32"
      ],
      [
         "209B",
         "1",
         "a",
         "Jg. 1829/30: Titelblatt fehlt",
         "x",
         "34"
      ],
      [
         "231@",
         "1",
         "j",
         "1829/30"
      ],
      [
         "247C",
         "1",
         "9",
         "009023496",
         "0",
         "800100-5",
         "S",
         "12",
         "L",
         "BAY",
         "T",
         "DE-12",
         "I",
         "0020",
         "K",
         "BVB",
         "Z",
         "CC0",
         "c",
         "S",
         "g",
         "BVB",
         "h",
         "l",
         "A",
         "Bayerische Staatsbibliothek",
         "a",
         "München BSB"
      ],
      [
         "101@",
         "",
         "a",
         "38"
      ],
      [
         "201B",
         "1",
         "0",
         "28-02-18",
         "t",
         "11:43:09.000"
      ],
      [
         "201U",
         "1",
         "0",
         "utf8"
      ],
      [
         "203@",
         "1",
         "0",
         "307923614"
      ],
      [
         "206Y",
         "1",
         "0",
         "h1478373172"
      ],
      [
         "208@",
         "1",
         "a",
         "19-06-14",
         "b",
         "x"
      ],
      [
         "209A",
         "1",
         "a",
         "Einzelsignatur",
         "d",
         "s",
         "l",
         "k",
         "x",
         "00"
      ],
      [
         "209B",
         "1",
         "g",
         "1",
         "a",
         "5.1829/30 = WS 1829/30",
         "x",
         "32"
      ],
      [
         "209B",
         "1",
         "a",
         "Ausleihe/Vormerken über Einzelbände (\"zugehörige Publikationen\")",
         "x",
         "34"
      ],
      [
         "231@",
         "1",
         "d",
         "5",
         "j",
         "1829/30"
      ],
      [
         "247C",
         "1",
         "9",
         "009032215",
         "0",
         "948110-2",
         "S",
         "32",
         "L",
         "THU",
         "T",
         "DE-32",
         "I",
         "0038",
         "Z",
         "CC0",
         "g",
         "GBV",
         "h",
         "l",
         "A",
         "Klassik Stiftung Weimar / Herzogin Anna Amalia Bibliothek",
         "a",
         "Weimar HAAB"
      ],
      [
         "101@",
         "",
         "a",
         "111"
      ],
      [
         "201B",
         "1",
         "0",
         "26-07-03",
         "t",
         "02:37:30.000"
      ],
      [
         "201U",
         "1",
         "0",
         "utf8"
      ],
      [
         "203@",
         "1",
         "0",
         "075359626"
      ],
      [
         "206Y",
         "1",
         "0",
         "h385421753"
      ],
      [
         "206Z",
         "1",
         "0",
         "182409384"
      ],
      [
         "208@",
         "1",
         "a",
         "05-04-00",
         "b",
         "x"
      ],
      [
         "209A",
         "1",
         "a",
         "S/VERL:1126",
         "d",
         "i",
         "x",
         "00"
      ],
      [
         "209B",
         "1",
         "g",
         "1",
         "a",
         "1825/26(1826)",
         "x",
         "32"
      ],
      [
         "231@",
         "1",
         "j",
         "1825/26"
      ],
      [
         "247C",
         "1",
         "9",
         "020089295",
         "0",
         "938116-8",
         "S",
         "Ha 33",
         "L",
         "SAA",
         "T",
         "DE-Ha33",
         "I",
         "0111",
         "Z",
         "CC0",
         "g",
         "GBV",
         "h",
         "l",
         "A",
         "Franckesche Stiftungen, Studienzentrum August Hermann Francke, Archiv und Bibliothek",
         "a",
         "Halle/S Franck. Stiftungen"
      ],
      [
         "101@",
         "",
         "a",
         "111"
      ],
      [
         "201B",
         "2",
         "0",
         "17-10-08",
         "t",
         "17:02:06.000"
      ],
      [
         "201U",
         "2",
         "0",
         "utf8"
      ],
      [
         "203@",
         "2",
         "0",
         "14392530X"
      ],
      [
         "206Y",
         "2",
         "0",
         "h88993181X"
      ],
      [
         "206Z",
         "2",
         "0",
         "182409384"
      ],
      [
         "208@",
         "2",
         "a",
         "08-09-08",
         "b",
         "x"
      ],
      [
         "209A",
         "2",
         "a",
         "105 I 12 [3]",
         "d",
         "i",
         "l",
         "n",
         "x",
         "00"
      ],
      [
         "209B",
         "2",
         "g",
         "2",
         "a",
         "1755",
         "x",
         "32"
      ],
      [
         "231@",
         "2",
         "j",
         "1755"
      ],
      [
         "247C",
         "2",
         "9",
         "020089295",
         "0",
         "938116-8",
         "S",
         "Ha 33",
         "L",
         "SAA",
         "T",
         "DE-Ha33",
         "I",
         "0111",
         "Z",
         "CC0",
         "g",
         "GBV",
         "h",
         "l",
         "A",
         "Franckesche Stiftungen, Studienzentrum August Hermann Francke, Archiv und Bibliothek",
         "a",
         "Halle/S Franck. Stiftungen"
      ],
      [
         "101@",
         "",
         "a",
         "153"
      ],
      [
         "201B",
         "1",
         "0",
         "26-07-03",
         "t",
         "02:37:30.000"
      ],
      [
         "201U",
         "1",
         "0",
         "utf8"
      ],
      [
         "203@",
         "1",
         "0",
         "048102202"
      ],
      [
         "206X",
         "1",
         "0",
         "4564967-4"
      ],
      [
         "208@",
         "1",
         "a",
         "26-12-99",
         "b",
         "x"
      ],
      [
         "209A",
         "1",
         "a",
         "AD 3256",
         "x",
         "00"
      ],
      [
         "209B",
         "1",
         "g",
         "1",
         "a",
         "1824/25(1825); 1830/31(1831)",
         "x",
         "32"
      ],
      [
         "231@",
         "1",
         "j",
         "1824/25",
         "0",
         " ",
         "j",
         "1830/31"
      ],
      [
         "247C",
         "1",
         "9",
         "023142308",
         "0",
         "916000-0",
         "S",
         "B 478",
         "L",
         "BER",
         "T",
         "DE-B478",
         "I",
         "0153",
         "K",
         "SWB",
         "Z",
         "CC0",
         "g",
         "SWB",
         "h",
         "k",
         "A",
         "BBF | Bibliothek für Bildungsgeschichtliche Forschung in Berlin",
         "a",
         "Berlin BBF/DIPF"
      ],
      [
         "101@",
         "",
         "a",
         "323"
      ],
      [
         "201B",
         "1",
         "0",
         "27-01-16",
         "t",
         "21:25:23.000"
      ],
      [
         "201U",
         "1",
         "0",
         "utf8"
      ],
      [
         "203@",
         "1",
         "0",
         "048102210"
      ],
      [
         "206X",
         "1",
         "0",
         "4359772-5"
      ],
      [
         "208@",
         "1",
         "a",
         "26-12-99",
         "b",
         "x"
      ],
      [
         "209A",
         "1",
         "a",
         "Pr Hall b",
         "x",
         "00"
      ],
      [
         "209B",
         "1",
         "g",
         "1",
         "a",
         "1824/25(1825); 1830/31(1831); 1833/34(1834)",
         "x",
         "32"
      ],
      [
         "231@",
         "1",
         "j",
         "1824/25",
         "0",
         " ",
         "j",
         "1830/31",
         "0",
         " ",
         "j",
         "1833/34"
      ],
      [
         "247C",
         "1",
         "9",
         "108168805X",
         "0",
         "245100-1",
         "S",
         "48",
         "L",
         "HAM",
         "T",
         "DE-48",
         "I",
         "0323",
         "K",
         "GBV",
         "Z",
         "CC0",
         "g",
         "GBV",
         "h",
         "l",
         "A",
         "Bibliothek der Hansestadt Lübeck",
         "a",
         "Lübeck StB"
      ]
   ],
   "_id" : "017323185"
}]
