[
  {
    "record": [
      [
        "001@",
        "",
        "0",
        "11,20,22-24,30-31,40,60,62-63,65,69,72-74,95,105,110,118,122,130-132,140,147,151,160-161,164,170,206,209,213,215,230,239,252,264,285,293,602,752,2014,2403,2446,4012,4037,4112,4125-4126,4249,4305-4307,4313,4322-4325,4338,4367,4700"
      ],
      [
        "001A",
        "",
        "0",
        "2004:02-04-08"
      ],
      [
        "001B",
        "",
        "0",
        "2004:09-06-19",
        "t",
        "14:55:23.000"
      ],
      [
        "001D",
        "",
        "0",
        "2004:02-04-08"
      ],
      [
        "001U",
        "",
        "0",
        "utf8"
      ],
      [
        "001X",
        "",
        "0",
        "0"
      ],
      [
        "002@",
        "",
        "0",
        "Obv"
      ],
      [
        "002C",
        "",
        "a",
        "Text",
        "b",
        "txt"
      ],
      [
        "002D",
        "",
        "a",
        "Computermedien",
        "b",
        "c"
      ],
      [
        "002E",
        "",
        "a",
        "Online-Ressource",
        "b",
        "cr"
      ],
      [
        "003@",
        "",
        "0",
        "560843771"
      ],
      [
        "003O",
        "",
        "a",
        "OCoLC",
        "0",
        "231862399",
        "v",
        "2012-12-31"
      ],
      [
        "003S",
        "",
        "0",
        "281384738"
      ],
      [
        "003T",
        "",
        "a",
        "OCoLC",
        "0",
        "890585388"
      ],
      [
        "006G",
        "",
        "0",
        "988031094"
      ],
      [
        "006Z",
        "",
        "0",
        "2417376-9"
      ],
      [
        "007G",
        "",
        "i",
        "ZDB",
        "0",
        "2417376-9"
      ],
      [
        "009@",
        "",
        "a",
        "SWB",
        "b",
        "ld"
      ],
      [
        "010@",
        "",
        "a",
        "ger"
      ],
      [
        "011@",
        "",
        "a",
        "1815",
        "b",
        "1823",
        "n",
        "1815-1823"
      ],
      [
        "011B",
        "",
        "a",
        "2007"
      ],
      [
        "013D",
        "",
        "9",
        "10454466X",
        "V",
        "Tsvz",
        "3",
        "20917000X",
        "7",
        "gnd/4067488-5",
        "a",
        "Zeitschrift"
      ],
      [
        "016A",
        "",
        "0",
        "cr|uuu---uuuuu"
      ],
      [
        "017C",
        "",
        "u",
        "http://vlp.mpiwg-berlin.mpg.de/library/journals.html",
        "x",
        "H",
        "4",
        "LF"
      ],
      [
        "017C",
        "",
        "u",
        "http://www.bibliothek.uni-regensburg.de/ezeit/?2417376",
        "x",
        "F"
      ],
      [
        "017C",
        "",
        "u",
        "http://opacplus.bsb-muenchen.de/title/505384-5",
        "x",
        "L ; urheberrechtsfreie Bände",
        "4",
        "LF"
      ],
      [
        "018@",
        "",
        "a",
        "z"
      ],
      [
        "019@",
        "",
        "a",
        "XA-DXDE"
      ],
      [
        "021A",
        "",
        "a",
        "Deutsches Archiv für die Physiologie",
        "h",
        "Hrsg.: Johann Friedrich Meckel"
      ],
      [
        "028C",
        "",
        "9",
        "139322965",
        "V",
        "Tpv1",
        "7",
        "gnd/116988703",
        "3",
        "291016332",
        "w",
        "piz",
        "A",
        "Meckel",
        "D",
        "Johann F.",
        "E",
        "1781",
        "M",
        "1833",
        "B",
        "MitwirkendeR",
        "4",
        "ctb"
      ],
      [
        "031@",
        "",
        "a",
        "1.1815 - 8.1823"
      ],
      [
        "031N",
        "",
        "d",
        "1",
        "j",
        "1815",
        "n",
        "8",
        "k",
        "1823"
      ],
      [
        "033A",
        "",
        "p",
        "Halle",
        "p",
        "Berlin"
      ],
      [
        "033N",
        "",
        "p",
        "Berlin",
        "n",
        "Max Planck Institute for the History of Science"
      ],
      [
        "033N",
        "",
        "p",
        "München",
        "n",
        "Münchener Digitalisierungszentrum"
      ],
      [
        "034D",
        "",
        "a",
        "Online-Ressource"
      ],
      [
        "036L",
        "09",
        "a",
        "Virtual laboratory"
      ],
      [
        "037G",
        "",
        "a",
        "Digital. Ausg.: Berlin : Max Planck Institute for the History of Science, ca. 2007. (Virtual laboratory). - Digital. Ausg. # München : Münchener Digitalisierungszentrum, 2008-2013"
      ],
      [
        "039B",
        "",
        "i",
        "Beil. zu",
        "9",
        "560843100",
        "R",
        "Obv",
        "7",
        "zdb/2417282-0",
        "5",
        "28138469X",
        "1",
        "1866-4784",
        "t",
        "The @virtual laboratory",
        "d",
        "Berlin",
        "e",
        "Inst.",
        "f",
        "2008",
        "C",
        "ZDB",
        "6",
        "24172820"
      ],
      [
        "039D",
        "",
        "i",
        "Druckausg.",
        "9",
        "167356194",
        "R",
        "Abv",
        "7",
        "zdb/505384-5",
        "5",
        "015651592",
        "t",
        "Deutsches Archiv für die Physiologie",
        "d",
        "Halle",
        "f",
        "1815",
        "C",
        "ZDB",
        "6",
        "5053845"
      ],
      [
        "039E",
        "",
        "b",
        "f",
        "i",
        "Vorg.",
        "9",
        "799117838",
        "R",
        "Obv",
        "7",
        "zdb/2794093-7",
        "5",
        "415972140",
        "t",
        "Archiv für die Physiologie",
        "d",
        "Halle",
        "f",
        "1796",
        "h",
        "Online-Ressource",
        "C",
        "ZDB",
        "6",
        "27940937"
      ],
      [
        "039E",
        "",
        "b",
        "s",
        "t",
        "Forts. ---> Archiv für Anatomie und Physiologie"
      ],
      [
        "045G",
        "",
        "a",
        "610",
        "A",
        "DE-600"
      ],
      [
        "046C",
        "",
        "i",
        "Nebent.",
        "a",
        "Deutsches Archiv für Physiologie"
      ],
      [
        "046X",
        "",
        "a",
        "aa",
        "5",
        "DE-12",
        "2",
        "pdager"
      ],
      [
        "047B",
        "",
        "a",
        "85640SF3!Volltext"
      ],
      [
        "101@",
        "",
        "a",
        "11",
        "c",
        "PICA"
      ],
      [
        "201B",
        "01",
        "0",
        "29-07-08",
        "t",
        "15:55:45.000"
      ],
      [
        "201U",
        "01",
        "0",
        "utf8"
      ],
      [
        "202D",
        "01",
        "0",
        "29-07-08",
        "b",
        "1687",
        "a",
        "0001"
      ],
      [
        "203@",
        "01",
        "0",
        "883774720"
      ],
      [
        "208@",
        "01",
        "a",
        "29-07-08",
        "b",
        "b5"
      ],
      [
        "209C",
        "01",
        "a",
        "KERFDIG MPIWG",
        "x",
        "00"
      ],
      [
        "237A",
        "01",
        "a",
        "Freier Zugriff an Internetarbeitsplätzen"
      ],
      [
        "101@",
        "",
        "a",
        "20",
        "c",
        "PICA"
      ],
      [
        "101B",
        "",
        "0",
        "20-06-15",
        "t",
        "03:17:30.000"
      ],
      [
        "101U",
        "",
        "0",
        "utf8"
      ],
      [
        "102D",
        "",
        "0",
        "20-06-15",
        "b",
        "ezblok",
        "a",
        "2004"
      ],
      [
        "109R",
        "",
        "u",
        "http://www.bibliothek.uni-regensburg.de/ezeit/?2417376&bibid=TUBS"
      ],
      [
        "201B",
        "01",
        "0",
        "20-06-15",
        "t",
        "13:26:16.000"
      ],
      [
        "201U",
        "01",
        "0",
        "utf8"
      ],
      [
        "202D",
        "01",
        "0",
        "20-06-15",
        "b",
        "ezblok",
        "a",
        "2004"
      ],
      [
        "203@",
        "01",
        "0",
        "874439485"
      ],
      [
        "206W",
        "01",
        "0",
        "EZB9066094"
      ],
      [
        "208@",
        "01",
        "a",
        "20-06-15",
        "b",
        "b"
      ],
      [
        "209B",
        "01",
        "a",
        "04",
        "c",
        "10",
        "d",
        "zz",
        "x",
        "53"
      ],
      [
        "209O",
        "01",
        "a",
        "OLR-EZB",
        "x",
        "00"
      ],
      [
        "231@",
        "01",
        "d",
        "1",
        "j",
        "1815",
        "n",
        "8",
        "k",
        "1823"
      ],
      [
        "231B",
        "01",
        "a",
        "lizenzfrei: 1.1815 - 8.1823"
      ],
      [
        "101@",
        "",
        "a",
        "22",
        "c",
        "PICA"
      ],
      [
        "101B",
        "",
        "0",
        "21-09-14",
        "t",
        "23:46:24.000"
      ],
      [
        "101U",
        "",
        "0",
        "utf8"
      ],
      [
        "102D",
        "",
        "0",
        "21-09-14",
        "b",
        "ezblok",
        "a",
        "2004"
      ],
      [
        "109R",
        "",
        "u",
        "http://www.bibliothek.uni-regensburg.de/ezeit/?2417376&bibid=SUBHH"
      ],
      [
        "201B",
        "01",
        "0",
        "23-06-15",
        "t",
        "01:42:47.000"
      ],
      [
        "201U",
        "01",
        "0",
        "utf8"
      ],
      [
        "202D",
        "01",
        "0",
        "23-06-15",
        "b",
        "ezblok",
        "a",
        "2004"
      ],
      [
        "203@",
        "01",
        "0",
        "874435315"
      ],
      [
        "206W",
        "01",
        "0",
        "EZB4379111"
      ],
      [
        "208@",
        "01",
        "a",
        "23-06-15",
        "b",
        "bu"
      ],
      [
        "209B",
        "01",
        "a",
        "04",
        "c",
        "10",
        "d",
        "zz",
        "x",
        "53"
      ],
      [
        "209O",
        "01",
        "a",
        "olr-ezb",
        "x",
        "00"
      ],
      [
        "231@",
        "01",
        "d",
        "1",
        "j",
        "1815",
        "n",
        "8",
        "k",
        "1823"
      ],
      [
        "231B",
        "01",
        "a",
        "lizenzfrei: 1.1815 - 8.1823"
      ],
      [
        "101@",
        "",
        "a",
        "23",
        "c",
        "PICA"
      ],
      [
        "101B",
        "",
        "0",
        "18-02-17",
        "t",
        "17:04:57.000"
      ],
      [
        "101U",
        "",
        "0",
        "utf8"
      ],
      [
        "102D",
        "",
        "0",
        "18-02-17",
        "b",
        "ezblok",
        "a",
        "2004"
      ],
      [
        "109R",
        "",
        "u",
        "http://www.bibliothek.uni-regensburg.de/ezeit/?2417376&bibid=TUHH",
        "B",
        "1"
      ],
      [
        "201B",
        "01",
        "0",
        "30-05-20",
        "t",
        "16:33:23.000"
      ],
      [
        "201U",
        "01",
        "0",
        "utf8"
      ],
      [
        "202D",
        "01",
        "0",
        "30-05-20",
        "b",
        "ezb_addexp",
        "a",
        "2004"
      ],
      [
        "203@",
        "01",
        "0",
        "1116928876"
      ],
      [
        "206W",
        "01",
        "0",
        "EZB9066084"
      ],
      [
        "208@",
        "01",
        "a",
        "18-02-17",
        "b",
        "b"
      ],
      [
        "209B",
        "01",
        "a",
        "04",
        "c",
        "10",
        "d",
        "zz",
        "x",
        "53"
      ],
      [
        "209O",
        "01",
        "a",
        "olr-ezb",
        "x",
        "00"
      ],
      [
        "231@",
        "01",
        "d",
        "1",
        "j",
        "1815",
        "n",
        "8",
        "k",
        "1823"
      ],
      [
        "231B",
        "01",
        "a",
        "lizenzfrei: 1.1815 - 8.1823"
      ],
      [
        "245P",
        "01",
        "a",
        "f",
        "x",
        "19"
      ],
      [
        "101@",
        "",
        "a",
        "24",
        "c",
        "PICA"
      ],
      [
        "101B",
        "",
        "0",
        "10-09-16",
        "t",
        "13:01:06.000"
      ],
      [
        "101U",
        "",
        "0",
        "utf8"
      ],
      [
        "102D",
        "",
        "0",
        "10-09-16",
        "b",
        "ezblok",
        "a",
        "2004"
      ],
      [
        "109R",
        "",
        "u",
        "http://www.bibliothek.uni-regensburg.de/ezeit/?2417376&bibid=UBK",
        "B",
        "1"
      ],
      [
        "201B",
        "01",
        "0",
        "10-09-16",
        "t",
        "13:01:06.000"
      ],
      [
        "201U",
        "01",
        "0",
        "utf8"
      ],
      [
        "202D",
        "01",
        "0",
        "10-09-16",
        "b",
        "ezblok",
        "a",
        "2004"
      ],
      [
        "203@",
        "01",
        "0",
        "874425425"
      ],
      [
        "206W",
        "01",
        "0",
        "EZB9066086"
      ],
      [
        "208@",
        "01",
        "a",
        "10-09-16",
        "b",
        "b"
      ],
      [
        "209B",
        "01",
        "a",
        "04",
        "c",
        "10",
        "d",
        "zz",
        "x",
        "53"
      ],
      [
        "209O",
        "01",
        "a",
        "OLR-EZB",
        "x",
        "00"
      ],
      [
        "231@",
        "01",
        "d",
        "1",
        "j",
        "1815",
        "n",
        "8",
        "k",
        "1823"
      ],
      [
        "231B",
        "01",
        "a",
        "lizenzfrei: 1.1815 - 8.1823"
      ],
      [
        "101@",
        "",
        "a",
        "30",
        "c",
        "PICA"
      ],
      [
        "201B",
        "01",
        "0",
        "20-09-08",
        "t",
        "12:43:50.000"
      ],
      [
        "201U",
        "01",
        "0",
        "utf8"
      ],
      [
        "202D",
        "01",
        "0",
        "20-09-08",
        "b",
        "ezb2bibn",
        "a",
        "1999"
      ],
      [
        "203@",
        "01",
        "0",
        "891839429"
      ],
      [
        "208@",
        "01",
        "a",
        "20-09-08",
        "b",
        "b"
      ],
      [
        "209O",
        "01",
        "a",
        "OLR-EZB",
        "x",
        "00"
      ],
      [
        "209R",
        "01",
        "S",
        "1",
        "u",
        "http://www.bibliothek.uni-regensburg.de/ezeit/?2417376&bibid=UBCL"
      ],
      [
        "101@",
        "",
        "a",
        "31",
        "c",
        "PICA"
      ],
      [
        "201B",
        "01",
        "0",
        "18-05-08",
        "t",
        "20:15:42.000"
      ],
      [
        "201U",
        "01",
        "0",
        "utf8"
      ],
      [
        "202D",
        "01",
        "0",
        "18-05-08",
        "b",
        "ezb2bib",
        "a",
        "1999"
      ],
      [
        "203@",
        "01",
        "0",
        "874437482"
      ],
      [
        "208@",
        "01",
        "a",
        "18-05-08",
        "b",
        "bezb"
      ],
      [
        "209R",
        "01",
        "S",
        "1",
        "u",
        "http://rzblx1.uni-regensburg.de/ezeit/detail.phtml?bibid=THULB&colors=7&lang=de&jour_id=106164",
        "y",
        "EZB"
      ],
      [
        "101@",
        "",
        "a",
        "40",
        "c",
        "PICA"
      ],
      [
        "101B",
        "",
        "0",
        "13-12-15",
        "t",
        "22:44:53.000"
      ],
      [
        "101U",
        "",
        "0",
        "utf8"
      ],
      [
        "102D",
        "",
        "0",
        "13-12-15",
        "b",
        "800",
        "a",
        "1999"
      ],
      [
        "109R",
        "",
        "u",
        "http://www.bibliothek.uni-regensburg.de/ezeit/?2417376&bibid=SUBGO",
        "y",
        "EZB",
        "B",
        "2"
      ],
      [
        "201B",
        "01",
        "0",
        "20-06-15",
        "t",
        "14:40:34.000"
      ],
      [
        "201U",
        "01",
        "0",
        "utf8"
      ],
      [
        "202D",
        "01",
        "0",
        "20-06-15",
        "b",
        "ezblok",
        "a",
        "2004"
      ],
      [
        "203@",
        "01",
        "0",
        "874431654"
      ],
      [
        "206W",
        "01",
        "0",
        "EZB9066097"
      ],
      [
        "208@",
        "01",
        "a",
        "20-06-15",
        "b",
        "bsn"
      ],
      [
        "209B",
        "01",
        "a",
        "04",
        "c",
        "10",
        "d",
        "zz",
        "x",
        "53"
      ],
      [
        "209O",
        "01",
        "a",
        "olr-ezb",
        "x",
        "00"
      ],
      [
        "231@",
        "01",
        "d",
        "1",
        "j",
        "1815",
        "n",
        "8",
        "k",
        "1823"
      ],
      [
        "231B",
        "01",
        "a",
        "lizenzfrei: 1.1815 - 8.1823"
      ],
      [
        "101@",
        "",
        "a",
        "60",
        "c",
        "PICA"
      ],
      [
        "101B",
        "",
        "0",
        "01-07-17",
        "t",
        "17:28:15.000"
      ],
      [
        "101U",
        "",
        "0",
        "utf8"
      ],
      [
        "102D",
        "",
        "0",
        "01-07-17",
        "b",
        "ezblok",
        "a",
        "2004"
      ],
      [
        "109R",
        "",
        "u",
        "http://www.bibliothek.uni-regensburg.de/ezeit/?2417376&bibid=UBWH",
        "B",
        "1"
      ],
      [
        "201B",
        "01",
        "0",
        "31-05-20",
        "t",
        "01:35:03.000"
      ],
      [
        "201U",
        "01",
        "0",
        "utf8"
      ],
      [
        "202D",
        "01",
        "0",
        "31-05-20",
        "b",
        "ezb_addexp",
        "a",
        "2004"
      ],
      [
        "203@",
        "01",
        "0",
        "1698974221"
      ],
      [
        "206W",
        "01",
        "0",
        "EZB9066085"
      ],
      [
        "208@",
        "01",
        "a",
        "01-07-17",
        "b",
        "b"
      ],
      [
        "209B",
        "01",
        "a",
        "04",
        "c",
        "10",
        "d",
        "zz",
        "x",
        "53"
      ],
      [
        "209O",
        "01",
        "a",
        "OLR-EZB",
        "x",
        "00"
      ],
      [
        "231@",
        "01",
        "d",
        "1",
        "j",
        "1815",
        "n",
        "8",
        "k",
        "1823"
      ],
      [
        "231B",
        "01",
        "a",
        "lizenzfrei: 1.1815 - 8.1823"
      ],
      [
        "101@",
        "",
        "a",
        "62",
        "c",
        "PICA"
      ],
      [
        "101B",
        "",
        "0",
        "16-09-17",
        "t",
        "16:07:35.000"
      ],
      [
        "101U",
        "",
        "0",
        "utf8"
      ],
      [
        "102D",
        "",
        "0",
        "16-09-17",
        "b",
        "ezblok",
        "a",
        "2004"
      ],
      [
        "109R",
        "",
        "u",
        "http://www.bibliothek.uni-regensburg.de/ezeit/?2417376&bibid=UBRO"
      ],
      [
        "201B",
        "01",
        "0",
        "16-09-19",
        "t",
        "22:36:44.000"
      ],
      [
        "201U",
        "01",
        "0",
        "utf8"
      ],
      [
        "202D",
        "01",
        "0",
        "16-09-19",
        "b",
        "800",
        "a",
        "1999"
      ],
      [
        "203@",
        "01",
        "0",
        "874437415"
      ],
      [
        "206W",
        "01",
        "0",
        "EZB9066103"
      ],
      [
        "208@",
        "01",
        "a",
        "18-05-08",
        "b",
        "b"
      ],
      [
        "209B",
        "01",
        "a",
        "04",
        "c",
        "10",
        "d",
        "zz",
        "x",
        "53"
      ],
      [
        "209O",
        "01",
        "a",
        "OLR-EZB",
        "x",
        "00"
      ],
      [
        "231@",
        "01",
        "d",
        "1",
        "j",
        "1815",
        "n",
        "8",
        "k",
        "1823"
      ],
      [
        "231B",
        "01",
        "a",
        "lizenzfrei: 1.1815 - 8.1823"
      ],
      [
        "101@",
        "",
        "a",
        "63",
        "c",
        "PICA"
      ],
      [
        "201B",
        "01",
        "0",
        "18-05-08",
        "t",
        "15:01:51.000"
      ],
      [
        "201U",
        "01",
        "0",
        "utf8"
      ],
      [
        "202D",
        "01",
        "0",
        "18-05-08",
        "b",
        "ezb2bib",
        "a",
        "1999"
      ],
      [
        "203@",
        "01",
        "0",
        "874422949"
      ],
      [
        "208@",
        "01",
        "a",
        "18-05-08",
        "b",
        "b"
      ],
      [
        "209O",
        "01",
        "a",
        "OLR-EZB",
        "x",
        "00"
      ],
      [
        "209R",
        "01",
        "S",
        "1",
        "u",
        "http://www.bibliothek.uni-regensburg.de/ezeit/?2417376&bibid=UBBUW"
      ],
      [
        "101@",
        "",
        "a",
        "65",
        "c",
        "PICA"
      ],
      [
        "101B",
        "",
        "0",
        "30-04-16",
        "t",
        "12:55:39.000"
      ],
      [
        "101U",
        "",
        "0",
        "utf8"
      ],
      [
        "102D",
        "",
        "0",
        "30-04-16",
        "b",
        "ezblok",
        "a",
        "2004"
      ],
      [
        "109R",
        "",
        "u",
        "http://www.bibliothek.uni-regensburg.de/ezeit/?2417376&bibid=ULBH",
        "B",
        "1"
      ],
      [
        "201B",
        "01",
        "0",
        "30-04-16",
        "t",
        "12:55:39.000"
      ],
      [
        "201U",
        "01",
        "0",
        "utf8"
      ],
      [
        "202D",
        "01",
        "0",
        "30-04-16",
        "b",
        "ezblok",
        "a",
        "2004"
      ],
      [
        "203@",
        "01",
        "0",
        "874446651"
      ],
      [
        "206W",
        "01",
        "0",
        "EZB9066107"
      ],
      [
        "208@",
        "01",
        "a",
        "30-04-16",
        "b",
        "b"
      ],
      [
        "209B",
        "01",
        "a",
        "04",
        "c",
        "10",
        "d",
        "zz",
        "x",
        "53"
      ],
      [
        "209O",
        "01",
        "a",
        "OLR-EZB",
        "x",
        "00"
      ],
      [
        "231@",
        "01",
        "d",
        "1",
        "j",
        "1815",
        "n",
        "8",
        "k",
        "1823"
      ],
      [
        "231B",
        "01",
        "a",
        "lizenzfrei: 1.1815 - 8.1823"
      ],
      [
        "101@",
        "",
        "a",
        "69",
        "c",
        "PICA"
      ],
      [
        "101B",
        "",
        "0",
        "16-04-16",
        "t",
        "23:56:02.000"
      ],
      [
        "101U",
        "",
        "0",
        "utf8"
      ],
      [
        "102D",
        "",
        "0",
        "16-04-16",
        "b",
        "ezblok",
        "a",
        "2004"
      ],
      [
        "109R",
        "",
        "u",
        "http://www.bibliothek.uni-regensburg.de/ezeit/?2417376&bibid=UBGRW"
      ],
      [
        "201B",
        "01",
        "0",
        "14-02-20",
        "t",
        "21:49:56.000"
      ],
      [
        "201U",
        "01",
        "0",
        "utf8"
      ],
      [
        "202D",
        "01",
        "0",
        "14-02-20",
        "b",
        "rabr",
        "a",
        "10001"
      ],
      [
        "203@",
        "01",
        "0",
        "87444571X"
      ],
      [
        "206W",
        "01",
        "0",
        "EZB9066104"
      ],
      [
        "208@",
        "01",
        "a",
        "16-04-16",
        "b",
        "b"
      ],
      [
        "209B",
        "01",
        "a",
        "04",
        "c",
        "10",
        "d",
        "zz",
        "x",
        "53"
      ],
      [
        "209O",
        "01",
        "a",
        "OLR-EZB",
        "x",
        "00"
      ],
      [
        "231@",
        "01",
        "d",
        "1",
        "j",
        "1815",
        "n",
        "8",
        "k",
        "1823"
      ],
      [
        "231B",
        "01",
        "a",
        "lizenzfrei: 1.1815 - 8.1823"
      ],
      [
        "101@",
        "",
        "a",
        "72",
        "c",
        "PICA"
      ],
      [
        "201B",
        "01",
        "0",
        "24-07-09",
        "t",
        "01:02:03.000"
      ],
      [
        "201U",
        "01",
        "0",
        "utf8"
      ],
      [
        "202D",
        "01",
        "0",
        "24-07-09",
        "b",
        "ezb2bibn",
        "a",
        "0035"
      ],
      [
        "203@",
        "01",
        "0",
        "202796647"
      ],
      [
        "208@",
        "01",
        "a",
        "24-07-09",
        "b",
        "b"
      ],
      [
        "209O",
        "01",
        "a",
        "OLR-EZB",
        "x",
        "00"
      ],
      [
        "209R",
        "01",
        "S",
        "0",
        "u",
        "http://www.bibliothek.uni-regensburg.de/ezeit/?2417376&bibid=GWLB"
      ],
      [
        "101@",
        "",
        "a",
        "73",
        "c",
        "PICA"
      ],
      [
        "101B",
        "",
        "0",
        "05-06-16",
        "t",
        "03:53:25.000"
      ],
      [
        "101U",
        "",
        "0",
        "utf8"
      ],
      [
        "102D",
        "",
        "0",
        "05-06-16",
        "b",
        "ezblok",
        "a",
        "2004"
      ],
      [
        "109R",
        "",
        "u",
        "http://www.bibliothek.uni-regensburg.de/ezeit/?2417376&bibid=TIHO",
        "y",
        "EZB",
        "B",
        "1"
      ],
      [
        "201B",
        "01",
        "0",
        "05-06-16",
        "t",
        "03:53:25.000"
      ],
      [
        "201U",
        "01",
        "0",
        "utf8"
      ],
      [
        "202D",
        "01",
        "0",
        "05-06-16",
        "b",
        "ezblok",
        "a",
        "2004"
      ],
      [
        "203@",
        "01",
        "0",
        "1618520059"
      ],
      [
        "206W",
        "01",
        "0",
        "EZB13721723"
      ],
      [
        "208@",
        "01",
        "a",
        "05-06-16",
        "b",
        "b"
      ],
      [
        "209B",
        "01",
        "a",
        "04",
        "c",
        "10",
        "d",
        "zz",
        "x",
        "53"
      ],
      [
        "209O",
        "01",
        "a",
        "OLR-EZB",
        "x",
        "00"
      ],
      [
        "231@",
        "01",
        "d",
        "1",
        "j",
        "1815",
        "n",
        "8",
        "k",
        "1823"
      ],
      [
        "231B",
        "01",
        "a",
        "lizenzfrei: 1.1815 - 8.1823"
      ],
      [
        "101@",
        "",
        "a",
        "74",
        "c",
        "PICA"
      ],
      [
        "101B",
        "",
        "0",
        "30-05-20",
        "t",
        "09:20:15.000"
      ],
      [
        "101U",
        "",
        "0",
        "utf8"
      ],
      [
        "102D",
        "",
        "0",
        "30-05-20",
        "b",
        "ezb_addexp",
        "a",
        "2004"
      ],
      [
        "109R",
        "",
        "u",
        "http://www.bibliothek.uni-regensburg.de/ezeit/?2417376&bibid=MHH",
        "y",
        "EZB",
        "B",
        "2"
      ],
      [
        "201B",
        "01",
        "0",
        "30-05-20",
        "t",
        "09:20:15.000"
      ],
      [
        "201U",
        "01",
        "0",
        "utf8"
      ],
      [
        "202D",
        "01",
        "0",
        "30-05-20",
        "b",
        "ezb_addexp",
        "a",
        "2004"
      ],
      [
        "203@",
        "01",
        "0",
        "3678295029"
      ],
      [
        "206W",
        "01",
        "0",
        "EZB9066091"
      ],
      [
        "208@",
        "01",
        "a",
        "30-05-20",
        "b",
        "bef"
      ],
      [
        "209A",
        "01",
        "f",
        "E-Bibl",
        "x",
        "09"
      ],
      [
        "209B",
        "01",
        "a",
        "04",
        "c",
        "10",
        "d",
        "zz",
        "x",
        "53"
      ],
      [
        "209O",
        "01",
        "a",
        "OLR-EZB",
        "x",
        "00"
      ],
      [
        "231@",
        "01",
        "d",
        "1",
        "j",
        "1815",
        "n",
        "8",
        "k",
        "1823"
      ],
      [
        "231B",
        "01",
        "a",
        "lizenzfrei: 1.1815 - 8.1823"
      ],
      [
        "101@",
        "",
        "a",
        "95",
        "c",
        "PICA"
      ],
      [
        "101B",
        "",
        "0",
        "08-06-16",
        "t",
        "02:11:20.000"
      ],
      [
        "101U",
        "",
        "0",
        "utf8"
      ],
      [
        "102D",
        "",
        "0",
        "08-06-16",
        "b",
        "ezblok",
        "a",
        "2004"
      ],
      [
        "109R",
        "",
        "u",
        "http://www.bibliothek.uni-regensburg.de/ezeit/?2417376&bibid=FHMQ",
        "B",
        "1"
      ],
      [
        "201B",
        "01",
        "0",
        "13-05-17",
        "t",
        "16:00:23.000"
      ],
      [
        "201U",
        "01",
        "0",
        "utf8"
      ],
      [
        "202D",
        "01",
        "0",
        "13-05-17",
        "b",
        "ezblok",
        "a",
        "2004"
      ],
      [
        "203@",
        "01",
        "0",
        "1251637485"
      ],
      [
        "206W",
        "01",
        "0",
        "EZB9066109"
      ],
      [
        "208@",
        "01",
        "a",
        "13-05-17",
        "b",
        "b1"
      ],
      [
        "209B",
        "01",
        "a",
        "04",
        "c",
        "10",
        "d",
        "zz",
        "x",
        "53"
      ],
      [
        "209O",
        "01",
        "a",
        "OLR-EZB",
        "x",
        "00"
      ],
      [
        "231@",
        "01",
        "d",
        "1",
        "j",
        "1815",
        "n",
        "8",
        "k",
        "1823"
      ],
      [
        "231B",
        "01",
        "a",
        "lizenzfrei: 1.1815 - 8.1823"
      ],
      [
        "101@",
        "",
        "a",
        "105",
        "c",
        "PICA"
      ],
      [
        "101B",
        "",
        "0",
        "16-02-18",
        "t",
        "02:30:39.000"
      ],
      [
        "101U",
        "",
        "0",
        "utf8"
      ],
      [
        "102D",
        "",
        "0",
        "16-02-18",
        "b",
        "ezblok",
        "a",
        "2004"
      ],
      [
        "109R",
        "",
        "u",
        "http://www.bibliothek.uni-regensburg.de/ezeit/?2417376&bibid=UBHL"
      ],
      [
        "201B",
        "01",
        "0",
        "16-02-18",
        "t",
        "02:30:39.000"
      ],
      [
        "201U",
        "01",
        "0",
        "utf8"
      ],
      [
        "202D",
        "01",
        "0",
        "16-02-18",
        "b",
        "ezblok",
        "a",
        "2004"
      ],
      [
        "203@",
        "01",
        "0",
        "1751137821"
      ],
      [
        "206W",
        "01",
        "0",
        "EZB18599032"
      ],
      [
        "208@",
        "01",
        "a",
        "16-02-18",
        "b",
        "b"
      ],
      [
        "209B",
        "01",
        "a",
        "04",
        "c",
        "10",
        "d",
        "zz",
        "x",
        "53"
      ],
      [
        "209C",
        "01",
        "a",
        "OLR-EZB",
        "x",
        "00"
      ],
      [
        "231@",
        "01",
        "d",
        "1",
        "j",
        "1815",
        "n",
        "8",
        "k",
        "1823"
      ],
      [
        "231B",
        "01",
        "a",
        "lizenzfrei: 1.1815 - 8.1823"
      ],
      [
        "101@",
        "",
        "a",
        "110",
        "c",
        "PICA"
      ],
      [
        "101B",
        "",
        "0",
        "11-07-15",
        "t",
        "01:05:06.000"
      ],
      [
        "101U",
        "",
        "0",
        "utf8"
      ],
      [
        "102D",
        "",
        "0",
        "11-07-15",
        "b",
        "ezblok",
        "a",
        "2004"
      ],
      [
        "109R",
        "",
        "u",
        "http://www.bibliothek.uni-regensburg.de/ezeit/?2417376&bibid=UBLUE"
      ],
      [
        "201B",
        "01",
        "0",
        "11-07-15",
        "t",
        "01:05:06.000"
      ],
      [
        "201U",
        "01",
        "0",
        "utf8"
      ],
      [
        "202D",
        "01",
        "0",
        "11-07-15",
        "b",
        "ezblok",
        "a",
        "2004"
      ],
      [
        "203@",
        "01",
        "0",
        "874428262"
      ],
      [
        "206W",
        "01",
        "0",
        "EZB9066092"
      ],
      [
        "208@",
        "01",
        "a",
        "10-07-15",
        "b",
        "b"
      ],
      [
        "209B",
        "01",
        "a",
        "04",
        "c",
        "10",
        "d",
        "zz",
        "x",
        "53"
      ],
      [
        "209O",
        "01",
        "a",
        "OLR-EZB",
        "x",
        "00"
      ],
      [
        "231@",
        "01",
        "d",
        "1",
        "j",
        "1815",
        "n",
        "8",
        "k",
        "1823"
      ],
      [
        "231B",
        "01",
        "a",
        "lizenzfrei: 1.1815 - 8.1823"
      ],
      [
        "101@",
        "",
        "a",
        "118",
        "c",
        "PICA"
      ],
      [
        "201B",
        "01",
        "0",
        "09-12-11",
        "t",
        "06:26:38.000"
      ],
      [
        "201U",
        "01",
        "0",
        "utf8"
      ],
      [
        "202D",
        "01",
        "0",
        "09-12-11",
        "b",
        "touchtitle",
        "a",
        "1999"
      ],
      [
        "203@",
        "01",
        "0",
        "898711924"
      ],
      [
        "208@",
        "01",
        "a",
        "02-11-08",
        "b",
        "b1"
      ],
      [
        "209O",
        "01",
        "a",
        "OLR-EZB",
        "x",
        "00"
      ],
      [
        "209R",
        "01",
        "u",
        "http://www.bibliothek.uni-regensburg.de/ezeit/?2417376&bibid=HSB"
      ],
      [
        "101@",
        "",
        "a",
        "122",
        "c",
        "PICA"
      ],
      [
        "201B",
        "01",
        "0",
        "10-05-11",
        "t",
        "15:07:59.000"
      ],
      [
        "201U",
        "01",
        "0",
        "utf8"
      ],
      [
        "202D",
        "01",
        "0",
        "10-05-11",
        "b",
        "ezb2bib",
        "a",
        "1999"
      ],
      [
        "203@",
        "01",
        "0",
        "203884485"
      ],
      [
        "208@",
        "01",
        "a",
        "06-08-09",
        "b",
        "b"
      ],
      [
        "209O",
        "01",
        "a",
        "OLR-EZB",
        "x",
        "00"
      ],
      [
        "209R",
        "01",
        "u",
        "http://www.bibliothek.uni-regensburg.de/ezeit/?2417376&bibid=FHWOE"
      ],
      [
        "101@",
        "",
        "a",
        "130",
        "c",
        "PICA"
      ],
      [
        "201B",
        "01",
        "0",
        "18-05-08",
        "t",
        "18:04:53.000"
      ],
      [
        "201U",
        "01",
        "0",
        "utf8"
      ],
      [
        "202D",
        "01",
        "0",
        "18-05-08",
        "b",
        "ezb2bib",
        "a",
        "1999"
      ],
      [
        "203@",
        "01",
        "0",
        "874432561"
      ],
      [
        "208@",
        "01",
        "a",
        "18-05-08",
        "b",
        "b"
      ],
      [
        "209O",
        "01",
        "a",
        "OLR-EZB",
        "x",
        "00"
      ],
      [
        "209R",
        "01",
        "S",
        "1",
        "u",
        "http://www.bibliothek.uni-regensburg.de/ezeit/?2417376&bibid=UBOS"
      ],
      [
        "101@",
        "",
        "a",
        "131",
        "c",
        "PICA"
      ],
      [
        "201B",
        "01",
        "0",
        "08-08-10",
        "t",
        "17:29:38.000"
      ],
      [
        "201U",
        "01",
        "0",
        "utf8"
      ],
      [
        "202D",
        "01",
        "0",
        "08-08-10",
        "b",
        "ezb2bibn",
        "a",
        "1999"
      ],
      [
        "203@",
        "01",
        "0",
        "1175490741"
      ],
      [
        "208@",
        "01",
        "a",
        "08-08-10",
        "b",
        "b"
      ],
      [
        "209O",
        "01",
        "a",
        "OLR-EZB",
        "x",
        "00"
      ],
      [
        "209R",
        "01",
        "u",
        "http://www.bibliothek.uni-regensburg.de/ezeit/?2417376&bibid=UBVE"
      ],
      [
        "101@",
        "",
        "a",
        "132",
        "c",
        "PICA"
      ],
      [
        "201B",
        "01",
        "0",
        "24-07-09",
        "t",
        "11:55:11.000"
      ],
      [
        "201U",
        "01",
        "0",
        "utf8"
      ],
      [
        "202D",
        "01",
        "0",
        "24-07-09",
        "b",
        "ezb2bibn",
        "a",
        "1999"
      ],
      [
        "203@",
        "01",
        "0",
        "203059999"
      ],
      [
        "208@",
        "01",
        "a",
        "24-07-09",
        "b",
        "b"
      ],
      [
        "209O",
        "01",
        "a",
        "OLR-EZB",
        "x",
        "00"
      ],
      [
        "209R",
        "01",
        "S",
        "0",
        "u",
        "http://www.bibliothek.uni-regensburg.de/ezeit/?2417376&bibid=FHOS"
      ],
      [
        "101@",
        "",
        "a",
        "140",
        "c",
        "PICA"
      ],
      [
        "201B",
        "01",
        "0",
        "10-05-11",
        "t",
        "05:13:46.000"
      ],
      [
        "201U",
        "01",
        "0",
        "utf8"
      ],
      [
        "202D",
        "01",
        "0",
        "10-05-11",
        "b",
        "ezb2bib",
        "a",
        "1999"
      ],
      [
        "203@",
        "01",
        "0",
        "204179866"
      ],
      [
        "208@",
        "01",
        "a",
        "07-08-09",
        "b",
        "b"
      ],
      [
        "209O",
        "01",
        "a",
        "OLR-EZB",
        "x",
        "00"
      ],
      [
        "209R",
        "01",
        "u",
        "http://www.bibliothek.uni-regensburg.de/ezeit/?2417376&bibid=FHWOE"
      ],
      [
        "101@",
        "",
        "a",
        "147",
        "c",
        "PICA"
      ],
      [
        "201B",
        "01",
        "0",
        "27-08-09",
        "t",
        "03:23:56.000"
      ],
      [
        "201U",
        "01",
        "0",
        "utf8"
      ],
      [
        "202D",
        "01",
        "0",
        "27-08-09",
        "b",
        "ezb2bibn",
        "a",
        "1999"
      ],
      [
        "203@",
        "01",
        "0",
        "204576180"
      ],
      [
        "208@",
        "01",
        "a",
        "27-08-09",
        "b",
        "b"
      ],
      [
        "209O",
        "01",
        "a",
        "OLR-EZB",
        "x",
        "00"
      ],
      [
        "209R",
        "01",
        "S",
        "0",
        "u",
        "http://www.bibliothek.uni-regensburg.de/ezeit/?2417376&bibid=HDFL"
      ],
      [
        "237A",
        "01",
        "a",
        "Volltexte frei zugaenglich"
      ],
      [
        "101@",
        "",
        "a",
        "151",
        "c",
        "PICA"
      ],
      [
        "101B",
        "",
        "0",
        "12-06-20",
        "t",
        "04:01:03.000"
      ],
      [
        "101U",
        "",
        "0",
        "utf8"
      ],
      [
        "102D",
        "",
        "0",
        "12-06-20",
        "b",
        "ezb_addexp",
        "a",
        "2004"
      ],
      [
        "109R",
        "",
        "u",
        "http://www.bibliothek.uni-regensburg.de/ezeit/?2417376&bibid=FHEF",
        "y",
        "Zur elektronischen Zeitschrift",
        "B",
        "2"
      ],
      [
        "201B",
        "01",
        "0",
        "12-06-20",
        "t",
        "04:01:03.000"
      ],
      [
        "201U",
        "01",
        "0",
        "utf8"
      ],
      [
        "202D",
        "01",
        "0",
        "12-06-20",
        "b",
        "ezb_addexp",
        "a",
        "2004"
      ],
      [
        "203@",
        "01",
        "0",
        "1400929849"
      ],
      [
        "206W",
        "01",
        "0",
        "EZB9066115"
      ],
      [
        "208@",
        "01",
        "a",
        "14-06-13",
        "b",
        "bezb"
      ],
      [
        "209B",
        "01",
        "a",
        "04",
        "c",
        "10",
        "d",
        "zz",
        "x",
        "53"
      ],
      [
        "209O",
        "01",
        "a",
        "OLR-EZB",
        "x",
        "00"
      ],
      [
        "231@",
        "01",
        "d",
        "1",
        "j",
        "1815",
        "n",
        "8",
        "k",
        "1823"
      ],
      [
        "231B",
        "01",
        "a",
        "lizenzfrei: 1.1815 - 8.1823"
      ],
      [
        "101@",
        "",
        "a",
        "160",
        "c",
        "PICA"
      ],
      [
        "201B",
        "01",
        "0",
        "06-08-09",
        "t",
        "14:50:10.000"
      ],
      [
        "201U",
        "01",
        "0",
        "utf8"
      ],
      [
        "202D",
        "01",
        "0",
        "06-08-09",
        "b",
        "ezb2bib",
        "a",
        "1999"
      ],
      [
        "203@",
        "01",
        "0",
        "203591917"
      ],
      [
        "208@",
        "01",
        "a",
        "06-08-09",
        "b",
        "b"
      ],
      [
        "209O",
        "01",
        "a",
        "OLR-EZB",
        "x",
        "00"
      ],
      [
        "209R",
        "01",
        "S",
        "0",
        "u",
        "http://www.bibliothek.uni-regensburg.de/ezeit/?2417376&bibid=FHOOW"
      ],
      [
        "101@",
        "",
        "a",
        "161",
        "c",
        "PICA"
      ],
      [
        "101B",
        "",
        "0",
        "18-08-16",
        "t",
        "03:21:29.000"
      ],
      [
        "101U",
        "",
        "0",
        "utf8"
      ],
      [
        "102D",
        "",
        "0",
        "18-08-16",
        "b",
        "800",
        "a",
        "1999"
      ],
      [
        "109R",
        "",
        "u",
        "http://www.bibliothek.uni-regensburg.de/ezeit/?2417376&bibid=FHH",
        "y",
        "Zur elektronischen Zeitschrift",
        "B",
        "2"
      ],
      [
        "201B",
        "01",
        "0",
        "13-05-17",
        "t",
        "09:49:54.000"
      ],
      [
        "201U",
        "01",
        "0",
        "utf8"
      ],
      [
        "202D",
        "01",
        "0",
        "13-05-17",
        "b",
        "ezblok",
        "a",
        "2004"
      ],
      [
        "203@",
        "01",
        "0",
        "881754919"
      ],
      [
        "206W",
        "01",
        "0",
        "EZB9066124"
      ],
      [
        "208@",
        "01",
        "a",
        "13-05-17",
        "b",
        "b"
      ],
      [
        "209B",
        "01",
        "a",
        "04",
        "c",
        "10",
        "d",
        "zz",
        "x",
        "53"
      ],
      [
        "209O",
        "01",
        "a",
        "OLR-EZB",
        "x",
        "00"
      ],
      [
        "231@",
        "01",
        "d",
        "1",
        "j",
        "1815",
        "n",
        "8",
        "k",
        "1823"
      ],
      [
        "231B",
        "01",
        "a",
        "lizenzfrei: 1.1815 - 8.1823"
      ],
      [
        "101@",
        "",
        "a",
        "164",
        "c",
        "PICA"
      ],
      [
        "201B",
        "01",
        "0",
        "18-05-08",
        "t",
        "15:05:25.000"
      ],
      [
        "201U",
        "01",
        "0",
        "utf8"
      ],
      [
        "202D",
        "01",
        "0",
        "18-05-08",
        "b",
        "ezb2bib",
        "a",
        "1999"
      ],
      [
        "203@",
        "01",
        "0",
        "874423864"
      ],
      [
        "208@",
        "01",
        "a",
        "18-05-08",
        "b",
        "b"
      ],
      [
        "209O",
        "01",
        "a",
        "OLR-EZB",
        "x",
        "00"
      ],
      [
        "209R",
        "01",
        "S",
        "1",
        "u",
        "http://www.bibliothek.uni-regensburg.de/ezeit/?2417376&bibid=FHWF"
      ],
      [
        "101@",
        "",
        "a",
        "170",
        "c",
        "PICA"
      ],
      [
        "101B",
        "",
        "0",
        "25-05-17",
        "t",
        "01:50:44.000"
      ],
      [
        "101U",
        "",
        "0",
        "utf8"
      ],
      [
        "102D",
        "",
        "0",
        "25-05-17",
        "b",
        "ezblok",
        "a",
        "2004"
      ],
      [
        "109R",
        "",
        "u",
        "http://www.bibliothek.uni-regensburg.de/ezeit/?2417376&bibid=PTB",
        "y",
        "EZB",
        "B",
        "1"
      ],
      [
        "201B",
        "02",
        "0",
        "30-05-20",
        "t",
        "11:06:27.000"
      ],
      [
        "201U",
        "02",
        "0",
        "utf8"
      ],
      [
        "202D",
        "02",
        "0",
        "30-05-20",
        "b",
        "ezb_addexp",
        "a",
        "2004"
      ],
      [
        "203@",
        "02",
        "0",
        "1659976081"
      ],
      [
        "206W",
        "02",
        "0",
        "EZB9066131"
      ],
      [
        "208@",
        "02",
        "a",
        "29-01-17",
        "b",
        "b"
      ],
      [
        "209B",
        "02",
        "a",
        "04",
        "c",
        "10",
        "d",
        "zz",
        "x",
        "53"
      ],
      [
        "209O",
        "02",
        "a",
        "OLR-EZB",
        "x",
        "00"
      ],
      [
        "231@",
        "02",
        "d",
        "1",
        "j",
        "1815",
        "n",
        "8",
        "k",
        "1823"
      ],
      [
        "231B",
        "02",
        "a",
        "lizenzfrei: 1.1815 - 8.1823"
      ],
      [
        "101@",
        "",
        "a",
        "206",
        "c",
        "PICA"
      ],
      [
        "101B",
        "",
        "0",
        "16-08-16",
        "t",
        "14:45:05.000"
      ],
      [
        "101U",
        "",
        "0",
        "utf8"
      ],
      [
        "102D",
        "",
        "0",
        "16-08-16",
        "b",
        "ezblok",
        "a",
        "2004"
      ],
      [
        "109R",
        "",
        "u",
        "http://www.bibliothek.uni-regensburg.de/ezeit/?2417376&bibid=THHFR",
        "B",
        "1"
      ],
      [
        "201B",
        "01",
        "0",
        "30-05-20",
        "t",
        "13:01:58.000"
      ],
      [
        "201U",
        "01",
        "0",
        "utf8"
      ],
      [
        "202D",
        "01",
        "0",
        "30-05-20",
        "b",
        "ezb_addexp",
        "a",
        "2004"
      ],
      [
        "203@",
        "01",
        "0",
        "1632349868"
      ],
      [
        "206W",
        "01",
        "0",
        "EZB15249902"
      ],
      [
        "208@",
        "01",
        "a",
        "18-02-17",
        "b",
        "b"
      ],
      [
        "209B",
        "01",
        "a",
        "04",
        "c",
        "10",
        "d",
        "zz",
        "x",
        "53"
      ],
      [
        "209O",
        "01",
        "a",
        "OLR-EZB",
        "x",
        "00"
      ],
      [
        "231@",
        "01",
        "d",
        "1",
        "j",
        "1815",
        "n",
        "8",
        "k",
        "1823"
      ],
      [
        "231B",
        "01",
        "a",
        "lizenzfrei: 1.1815 - 8.1823"
      ],
      [
        "101@",
        "",
        "a",
        "209",
        "c",
        "PICA"
      ],
      [
        "201B",
        "01",
        "0",
        "25-01-10",
        "t",
        "01:29:04.000"
      ],
      [
        "201U",
        "01",
        "0",
        "utf8"
      ],
      [
        "202D",
        "01",
        "0",
        "25-01-10",
        "b",
        "ezb2bib",
        "a",
        "1999"
      ],
      [
        "203@",
        "01",
        "0",
        "1110914938"
      ],
      [
        "208@",
        "01",
        "a",
        "25-01-10",
        "b",
        "b"
      ],
      [
        "209O",
        "01",
        "a",
        "OLR-EZB",
        "x",
        "00"
      ],
      [
        "209R",
        "01",
        "S",
        "0",
        "u",
        "http://www.bibliothek.uni-regensburg.de/ezeit/?2417376&bibid=MPIL"
      ],
      [
        "101@",
        "",
        "a",
        "213",
        "c",
        "PICA"
      ],
      [
        "101B",
        "",
        "0",
        "13-06-20",
        "t",
        "03:51:09.000"
      ],
      [
        "101U",
        "",
        "0",
        "utf8"
      ],
      [
        "102D",
        "",
        "0",
        "13-06-20",
        "b",
        "ezb_addexp",
        "a",
        "2004"
      ],
      [
        "109R",
        "",
        "u",
        "http://www.bibliothek.uni-regensburg.de/ezeit/?2417376&bibid=HBMST",
        "B",
        "1"
      ],
      [
        "201B",
        "01",
        "0",
        "13-06-20",
        "t",
        "03:51:09.000"
      ],
      [
        "201U",
        "01",
        "0",
        "utf8"
      ],
      [
        "202D",
        "01",
        "0",
        "13-06-20",
        "b",
        "ezb_addexp",
        "a",
        "2004"
      ],
      [
        "203@",
        "01",
        "0",
        "1118800397"
      ],
      [
        "206W",
        "01",
        "0",
        "EZB9066110"
      ],
      [
        "208@",
        "01",
        "a",
        "14-03-10",
        "b",
        "b"
      ],
      [
        "209B",
        "01",
        "a",
        "04",
        "c",
        "10",
        "d",
        "zz",
        "x",
        "53"
      ],
      [
        "209O",
        "01",
        "a",
        "OLR-EZB",
        "x",
        "00"
      ],
      [
        "231@",
        "01",
        "d",
        "1",
        "j",
        "1815",
        "n",
        "8",
        "k",
        "1823"
      ],
      [
        "231B",
        "01",
        "a",
        "lizenzfrei: 1.1815 - 8.1823"
      ],
      [
        "101@",
        "",
        "a",
        "215",
        "c",
        "PICA"
      ],
      [
        "201B",
        "02",
        "0",
        "30-01-17",
        "t",
        "00:28:25.000"
      ],
      [
        "201U",
        "02",
        "0",
        "utf8"
      ],
      [
        "202D",
        "02",
        "0",
        "30-01-17",
        "b",
        "ezb2bib",
        "a",
        "1999"
      ],
      [
        "203@",
        "02",
        "0",
        "1660438446"
      ],
      [
        "208@",
        "02",
        "a",
        "30-01-17",
        "b",
        "bezb"
      ],
      [
        "209O",
        "02",
        "a",
        "OLR-EZB",
        "x",
        "00"
      ],
      [
        "209R",
        "02",
        "u",
        "http://www.bibliothek.uni-regensburg.de/ezeit/?2417376&bibid=MPIDS"
      ],
      [
        "101@",
        "",
        "a",
        "230",
        "c",
        "PICA"
      ],
      [
        "101B",
        "",
        "0",
        "13-06-20",
        "t",
        "03:51:09.000"
      ],
      [
        "101U",
        "",
        "0",
        "utf8"
      ],
      [
        "102D",
        "",
        "0",
        "13-06-20",
        "b",
        "ezb_addexp",
        "a",
        "2004"
      ],
      [
        "109R",
        "",
        "u",
        "http://www.bibliothek.uni-regensburg.de/ezeit/?2417376&bibid=HBMST",
        "B",
        "1"
      ],
      [
        "201B",
        "01",
        "0",
        "13-06-20",
        "t",
        "03:51:09.000"
      ],
      [
        "201U",
        "01",
        "0",
        "utf8"
      ],
      [
        "202D",
        "01",
        "0",
        "13-06-20",
        "b",
        "ezb_addexp",
        "a",
        "2004"
      ],
      [
        "203@",
        "01",
        "0",
        "1119036968"
      ],
      [
        "206W",
        "01",
        "0",
        "EZB9066110"
      ],
      [
        "208@",
        "01",
        "a",
        "14-03-10",
        "b",
        "b"
      ],
      [
        "209B",
        "01",
        "a",
        "0404",
        "c",
        "1010",
        "d",
        "zzzz",
        "x",
        "53"
      ],
      [
        "209O",
        "01",
        "a",
        "OLR-EZB",
        "x",
        "00"
      ],
      [
        "231@",
        "01",
        "d",
        "1",
        "j",
        "1815",
        "n",
        "8",
        "k",
        "1823"
      ],
      [
        "231B",
        "01",
        "a",
        "lizenzfrei: 1.1815 - 8.1823"
      ],
      [
        "101@",
        "",
        "a",
        "239",
        "c",
        "PICA"
      ],
      [
        "201B",
        "01",
        "0",
        "17-01-12",
        "t",
        "18:39:18.000"
      ],
      [
        "201U",
        "01",
        "0",
        "utf8"
      ],
      [
        "202D",
        "01",
        "0",
        "17-01-12",
        "b",
        "ezb2bib",
        "a",
        "1999"
      ],
      [
        "203@",
        "01",
        "0",
        "1288674406"
      ],
      [
        "208@",
        "01",
        "a",
        "17-01-12",
        "b",
        "bezb"
      ],
      [
        "209O",
        "01",
        "a",
        "OLR-EZB",
        "x",
        "00"
      ],
      [
        "209R",
        "01",
        "u",
        "http://www.bibliothek.uni-regensburg.de/ezeit/?2417376&bibid=ICE"
      ],
      [
        "101@",
        "",
        "a",
        "252",
        "c",
        "PICA"
      ],
      [
        "201B",
        "01",
        "0",
        "24-09-18",
        "t",
        "14:58:12.000"
      ],
      [
        "201U",
        "01",
        "0",
        "utf8"
      ],
      [
        "202D",
        "01",
        "0",
        "24-09-18",
        "b",
        "ezb2bib",
        "a",
        "1999"
      ],
      [
        "203@",
        "01",
        "0",
        "180780920X"
      ],
      [
        "208@",
        "01",
        "a",
        "24-09-18",
        "b",
        "bi11e"
      ],
      [
        "209A",
        "01",
        "f",
        "BFR",
        "d",
        "g",
        "x",
        "00"
      ],
      [
        "209O",
        "01",
        "a",
        "OLR-EZB",
        "x",
        "00"
      ],
      [
        "209R",
        "01",
        "u",
        "http://www.bibliothek.uni-regensburg.de/ezeit/?2417376&bibid=BGVV"
      ],
      [
        "220B",
        "01",
        "a",
        "FFRREEEE"
      ],
      [
        "101@",
        "",
        "a",
        "264",
        "c",
        "PICA"
      ],
      [
        "201B",
        "01",
        "0",
        "10-05-11",
        "t",
        "19:08:38.000"
      ],
      [
        "201U",
        "01",
        "0",
        "utf8"
      ],
      [
        "202D",
        "01",
        "0",
        "10-05-11",
        "b",
        "ezb2bib",
        "a",
        "1999"
      ],
      [
        "203@",
        "01",
        "0",
        "1174107995"
      ],
      [
        "208@",
        "01",
        "a",
        "28-07-10",
        "b",
        "b"
      ],
      [
        "209O",
        "01",
        "a",
        "OLR-EZB",
        "x",
        "00"
      ],
      [
        "209R",
        "01",
        "u",
        "http://www.bibliothek.uni-regensburg.de/ezeit/?2417376&bibid=FHWOE"
      ],
      [
        "101@",
        "",
        "a",
        "285",
        "c",
        "PICA"
      ],
      [
        "101B",
        "",
        "0",
        "18-03-16",
        "t",
        "16:42:09.000"
      ],
      [
        "101U",
        "",
        "0",
        "utf8"
      ],
      [
        "102D",
        "",
        "0",
        "18-03-16",
        "b",
        "ezblok",
        "a",
        "2004"
      ],
      [
        "109R",
        "",
        "u",
        "http://www.bibliothek.uni-regensburg.de/ezeit/?2417376&bibid=UBPO",
        "y",
        "EZB",
        "B",
        "1"
      ],
      [
        "201B",
        "01",
        "0",
        "18-03-16",
        "t",
        "16:42:09.000"
      ],
      [
        "201U",
        "01",
        "0",
        "utf8"
      ],
      [
        "202D",
        "01",
        "0",
        "18-03-16",
        "b",
        "ezblok",
        "a",
        "2004"
      ],
      [
        "203@",
        "01",
        "0",
        "874435242"
      ],
      [
        "206W",
        "01",
        "0",
        "EZB9066120"
      ],
      [
        "208@",
        "01",
        "a",
        "18-03-16",
        "b",
        "b"
      ],
      [
        "209A",
        "01",
        "f",
        "1960",
        "x",
        "00"
      ],
      [
        "209B",
        "01",
        "a",
        "04",
        "c",
        "10",
        "d",
        "zz",
        "x",
        "53"
      ],
      [
        "209O",
        "01",
        "a",
        "OLR-EZB",
        "x",
        "00"
      ],
      [
        "231@",
        "01",
        "d",
        "1",
        "j",
        "1815",
        "n",
        "8",
        "k",
        "1823"
      ],
      [
        "231B",
        "01",
        "a",
        "lizenzfrei: 1.1815 - 8.1823"
      ],
      [
        "101@",
        "",
        "a",
        "293",
        "c",
        "PICA"
      ],
      [
        "101B",
        "",
        "0",
        "18-08-16",
        "t",
        "03:15:14.000"
      ],
      [
        "101U",
        "",
        "0",
        "utf8"
      ],
      [
        "102D",
        "",
        "0",
        "18-08-16",
        "b",
        "800",
        "a",
        "1999"
      ],
      [
        "109R",
        "",
        "u",
        "http://www.bibliothek.uni-regensburg.de/ezeit/?2417376&bibid=FHH",
        "y",
        "Zur elektronischen Zeitschrift",
        "B",
        "2"
      ],
      [
        "201B",
        "01",
        "0",
        "05-05-20",
        "t",
        "04:32:25.000"
      ],
      [
        "201U",
        "01",
        "0",
        "utf8"
      ],
      [
        "202D",
        "01",
        "0",
        "05-05-20",
        "b",
        "ezb_addexp",
        "a",
        "2004"
      ],
      [
        "203@",
        "01",
        "0",
        "20064789X"
      ],
      [
        "206W",
        "01",
        "0",
        "EZB9066124"
      ],
      [
        "208@",
        "01",
        "a",
        "13-05-17",
        "b",
        "b"
      ],
      [
        "209B",
        "01",
        "a",
        "04",
        "c",
        "10",
        "d",
        "zz",
        "x",
        "53"
      ],
      [
        "209O",
        "01",
        "a",
        "OLR-EZB",
        "x",
        "00"
      ],
      [
        "231@",
        "01",
        "d",
        "1",
        "j",
        "1815",
        "n",
        "8",
        "k",
        "1823"
      ],
      [
        "231B",
        "01",
        "a",
        "lizenzfrei: 1.1815 - 8.1823"
      ],
      [
        "101@",
        "",
        "a",
        "602",
        "c",
        "PICA"
      ],
      [
        "101B",
        "",
        "0",
        "13-12-15",
        "t",
        "15:06:03.000"
      ],
      [
        "101U",
        "",
        "0",
        "utf8"
      ],
      [
        "102D",
        "",
        "0",
        "13-12-15",
        "b",
        "ezblok",
        "a",
        "2004"
      ],
      [
        "109R",
        "",
        "u",
        "http://www.bibliothek.uni-regensburg.de/ezeit/?2417376&bibid=GKSS",
        "y",
        "EZB",
        "B",
        "1"
      ],
      [
        "201B",
        "01",
        "0",
        "13-05-17",
        "t",
        "18:36:02.000"
      ],
      [
        "201U",
        "01",
        "0",
        "utf8"
      ],
      [
        "202D",
        "01",
        "0",
        "13-05-17",
        "b",
        "ezblok",
        "a",
        "2004"
      ],
      [
        "203@",
        "01",
        "0",
        "1589943600"
      ],
      [
        "206W",
        "01",
        "0",
        "EZB13610420"
      ],
      [
        "208@",
        "01",
        "a",
        "13-05-17",
        "b",
        "b"
      ],
      [
        "209B",
        "01",
        "a",
        "04",
        "c",
        "10",
        "d",
        "zz",
        "x",
        "53"
      ],
      [
        "209O",
        "01",
        "a",
        "OLR-EZB",
        "x",
        "00"
      ],
      [
        "231@",
        "01",
        "d",
        "1",
        "j",
        "1815",
        "n",
        "8",
        "k",
        "1823"
      ],
      [
        "231B",
        "01",
        "a",
        "lizenzfrei: 1.1815 - 8.1823"
      ],
      [
        "101@",
        "",
        "a",
        "2014",
        "c",
        "PICA"
      ],
      [
        "201A",
        "01",
        "0",
        "23-03-12"
      ],
      [
        "201B",
        "01",
        "0",
        "29-03-12",
        "t",
        "07:23:26.000"
      ],
      [
        "201D",
        "01",
        "0",
        "KAUB:23-03-12"
      ],
      [
        "201U",
        "01",
        "0",
        "utf8"
      ],
      [
        "203@",
        "01",
        "0",
        "2709541211"
      ],
      [
        "203S",
        "01",
        "0",
        "70954121X"
      ],
      [
        "206Z",
        "01",
        "0",
        "233955666"
      ],
      [
        "208@",
        "01",
        "a",
        "23-03-12",
        "b",
        "zez"
      ],
      [
        "209A",
        "01",
        "B",
        "90",
        "J",
        "l",
        "x",
        "00"
      ],
      [
        "209B",
        "01",
        "a",
        "zezb",
        "x",
        "12"
      ],
      [
        "209R",
        "01",
        "u",
        "http://www.bibliothek.uni-regensburg.de/ezeit/?2417376&bibid=KIT",
        "x",
        "EZB"
      ],
      [
        "209R",
        "01",
        "u",
        "http://vlp.mpiwg-berlin.mpg.de/library/journals.html",
        "x",
        "Volltext"
      ],
      [
        "231@",
        "01",
        "d",
        "1",
        "j",
        "1815",
        "n",
        "8",
        "k",
        "1823"
      ],
      [
        "231B",
        "01",
        "a",
        "1.1815 - 8.1823"
      ],
      [
        "231L",
        "01",
        "d",
        "1",
        "j",
        "1815",
        "n",
        "8",
        "k",
        "1823",
        "x",
        "0"
      ],
      [
        "247F",
        "01",
        "a",
        "retrodigitalisiert",
        "x",
        "0"
      ],
      [
        "247F",
        "01",
        "a",
        "Einzellizenz",
        "x",
        "1"
      ],
      [
        "247F",
        "01",
        "a",
        "Lizenzfrei",
        "x",
        "2"
      ],
      [
        "101@",
        "",
        "a",
        "2446",
        "c",
        "PICA"
      ],
      [
        "201A",
        "01",
        "0",
        "24-11-17"
      ],
      [
        "201B",
        "01",
        "0",
        "24-11-17",
        "t",
        "17:28:24.000"
      ],
      [
        "201D",
        "01",
        "0",
        "S2LBEH:24-11-17"
      ],
      [
        "201U",
        "01",
        "0",
        "utf8"
      ],
      [
        "203@",
        "01",
        "0",
        "2988147345"
      ],
      [
        "203S",
        "01",
        "0",
        "988147343"
      ],
      [
        "206Z",
        "01",
        "0",
        "426435087"
      ],
      [
        "208@",
        "01",
        "a",
        "24-11-17",
        "b",
        "zez"
      ],
      [
        "209A",
        "01",
        "B",
        "Rt 3",
        "x",
        "00"
      ],
      [
        "209B",
        "01",
        "a",
        "zezb",
        "x",
        "12"
      ],
      [
        "209R",
        "01",
        "u",
        "http://www.bibliothek.uni-regensburg.de/ezeit/?2417376&bibid=EHLB",
        "x",
        "EZB"
      ],
      [
        "231@",
        "01",
        "d",
        "1",
        "j",
        "1815",
        "n",
        "8",
        "k",
        "1823"
      ],
      [
        "231B",
        "01",
        "a",
        "1.1815 - 8.1823"
      ],
      [
        "231L",
        "01",
        "d",
        "1",
        "j",
        "1815",
        "n",
        "8",
        "k",
        "1823",
        "x",
        "0"
      ],
      [
        "247F",
        "01",
        "a",
        "retrodigitalisiert",
        "x",
        "0"
      ],
      [
        "247F",
        "01",
        "a",
        "Einzellizenz",
        "x",
        "1"
      ],
      [
        "247F",
        "01",
        "a",
        "Lizenzfrei",
        "x",
        "2"
      ],
      [
        "101@",
        "",
        "a",
        "4012",
        "c",
        "PICA"
      ],
      [
        "201A",
        "01",
        "0",
        "08-02-12"
      ],
      [
        "201B",
        "01",
        "0",
        "30-04-19",
        "t",
        "18:08:28.000"
      ],
      [
        "201D",
        "01",
        "0",
        "0012:08-02-12"
      ],
      [
        "201U",
        "01",
        "0",
        "utf8"
      ],
      [
        "202D",
        "01",
        "0",
        "30-04-19",
        "b",
        "csfn_storemm-zdb-offline",
        "a",
        "100019999"
      ],
      [
        "203@",
        "01",
        "0",
        "3457818673"
      ],
      [
        "206Z",
        "01",
        "0",
        "226678806"
      ],
      [
        "208@",
        "01",
        "a",
        "08-02-12",
        "b",
        "b"
      ],
      [
        "209B",
        "01",
        "a",
        "04",
        "c",
        "zz",
        "d",
        "10",
        "x",
        "53"
      ],
      [
        "209R",
        "01",
        "u",
        "http://www.bibliothek.uni-regensburg.de/ezeit/?2417376&bibid=BSB",
        "x",
        "EZB"
      ],
      [
        "209R",
        "01",
        "u",
        "http://vlp.mpiwg-berlin.mpg.de/library/journals.html",
        "x",
        "Volltext"
      ],
      [
        "231@",
        "01",
        "d",
        "1",
        "j",
        "1815",
        "n",
        "8",
        "k",
        "1823"
      ],
      [
        "231B",
        "01",
        "a",
        "1.1815 - 8.1823"
      ],
      [
        "101@",
        "",
        "a",
        "4037",
        "c",
        "PICA"
      ],
      [
        "201A",
        "01",
        "0",
        "12-10-18"
      ],
      [
        "201B",
        "01",
        "0",
        "30-04-19",
        "t",
        "18:08:28.000"
      ],
      [
        "201D",
        "01",
        "0",
        "0026:12-10-18"
      ],
      [
        "201U",
        "01",
        "0",
        "utf8"
      ],
      [
        "202D",
        "01",
        "0",
        "30-04-19",
        "b",
        "csfn_storemm-zdb-offline",
        "a",
        "100019999"
      ],
      [
        "203@",
        "01",
        "0",
        "3457818703"
      ],
      [
        "206Z",
        "01",
        "0",
        "467189269"
      ],
      [
        "208@",
        "01",
        "a",
        "12-10-18",
        "b",
        "b"
      ],
      [
        "209A",
        "01",
        "B",
        "26",
        "d",
        "s",
        "x",
        "00"
      ],
      [
        "209B",
        "01",
        "a",
        "04",
        "c",
        "zz",
        "d",
        "10",
        "x",
        "53"
      ],
      [
        "209R",
        "01",
        "u",
        "http://www.bibliothek.uni-regensburg.de/ezeit/?2417376&bibid=UBGIE",
        "x",
        "EZB"
      ],
      [
        "209R",
        "01",
        "u",
        "http://vlp.mpiwg-berlin.mpg.de/library/journals.html",
        "x",
        "Volltext"
      ],
      [
        "231@",
        "01",
        "d",
        "1",
        "j",
        "1815",
        "n",
        "8",
        "k",
        "1823"
      ],
      [
        "231B",
        "01",
        "a",
        "1.1815 - 8.1823"
      ],
      [
        "101@",
        "",
        "a",
        "4112",
        "c",
        "PICA"
      ],
      [
        "201A",
        "01",
        "0",
        "08-02-12"
      ],
      [
        "201B",
        "01",
        "0",
        "30-04-19",
        "t",
        "18:08:28.000"
      ],
      [
        "201D",
        "01",
        "0",
        "0029:08-02-12"
      ],
      [
        "201U",
        "01",
        "0",
        "utf8"
      ],
      [
        "202D",
        "01",
        "0",
        "30-04-19",
        "b",
        "csfn_storemm-zdb-offline",
        "a",
        "100019999"
      ],
      [
        "203@",
        "01",
        "0",
        "3457818711"
      ],
      [
        "206Z",
        "01",
        "0",
        "226678997"
      ],
      [
        "208@",
        "01",
        "a",
        "08-02-12",
        "b",
        "b"
      ],
      [
        "209B",
        "01",
        "a",
        "04",
        "c",
        "zz",
        "d",
        "10",
        "x",
        "53"
      ],
      [
        "209R",
        "01",
        "u",
        "http://www.bibliothek.uni-regensburg.de/ezeit/?2417376&bibid=UBEN",
        "x",
        "EZB"
      ],
      [
        "209R",
        "01",
        "u",
        "http://vlp.mpiwg-berlin.mpg.de/library/journals.html",
        "x",
        "Volltext"
      ],
      [
        "231@",
        "01",
        "d",
        "1",
        "j",
        "1815",
        "n",
        "8",
        "k",
        "1823"
      ],
      [
        "231B",
        "01",
        "a",
        "1.1815 - 8.1823"
      ],
      [
        "101@",
        "",
        "a",
        "4125",
        "c",
        "PICA"
      ],
      [
        "201A",
        "01",
        "0",
        "08-02-12"
      ],
      [
        "201B",
        "01",
        "0",
        "30-04-19",
        "t",
        "18:08:28.000"
      ],
      [
        "201D",
        "01",
        "0",
        "0355:08-02-12"
      ],
      [
        "201U",
        "01",
        "0",
        "utf8"
      ],
      [
        "202D",
        "01",
        "0",
        "30-04-19",
        "b",
        "csfn_storemm-zdb-offline",
        "a",
        "100019999"
      ],
      [
        "203@",
        "01",
        "0",
        "3457818754"
      ],
      [
        "206Z",
        "01",
        "0",
        "226679039"
      ],
      [
        "208@",
        "01",
        "a",
        "08-02-12",
        "b",
        "b000"
      ],
      [
        "209B",
        "01",
        "a",
        "04",
        "c",
        "zz",
        "d",
        "10",
        "x",
        "53"
      ],
      [
        "209R",
        "01",
        "u",
        "http://www.bibliothek.uni-regensburg.de/ezeit/?2417376&bibid=UBR",
        "x",
        "EZB"
      ],
      [
        "209R",
        "01",
        "u",
        "http://vlp.mpiwg-berlin.mpg.de/library/journals.html",
        "x",
        "Volltext"
      ],
      [
        "231@",
        "01",
        "d",
        "1",
        "j",
        "1815",
        "n",
        "8",
        "k",
        "1823"
      ],
      [
        "231B",
        "01",
        "a",
        "1.1815 - 8.1823"
      ],
      [
        "101@",
        "",
        "a",
        "4126",
        "c",
        "PICA"
      ],
      [
        "201A",
        "01",
        "0",
        "08-02-12"
      ],
      [
        "201B",
        "01",
        "0",
        "30-04-19",
        "t",
        "18:08:29.000"
      ],
      [
        "201D",
        "01",
        "0",
        "0384:08-02-12"
      ],
      [
        "201U",
        "01",
        "0",
        "utf8"
      ],
      [
        "202D",
        "01",
        "0",
        "30-04-19",
        "b",
        "csfn_storemm-zdb-offline",
        "a",
        "100019999"
      ],
      [
        "203@",
        "01",
        "0",
        "3457818770"
      ],
      [
        "206Z",
        "01",
        "0",
        "226678954"
      ],
      [
        "208@",
        "01",
        "a",
        "08-02-12",
        "b",
        "b001"
      ],
      [
        "209B",
        "01",
        "a",
        "04",
        "c",
        "zz",
        "d",
        "10",
        "x",
        "53"
      ],
      [
        "209R",
        "01",
        "u",
        "http://www.bibliothek.uni-regensburg.de/ezeit/?2417376&bibid=UBA",
        "x",
        "EZB"
      ],
      [
        "209R",
        "01",
        "u",
        "http://vlp.mpiwg-berlin.mpg.de/library/journals.html",
        "x",
        "Volltext"
      ],
      [
        "231@",
        "01",
        "d",
        "1",
        "j",
        "1815",
        "n",
        "8",
        "k",
        "1823"
      ],
      [
        "231B",
        "01",
        "a",
        "1.1815 - 8.1823"
      ],
      [
        "101@",
        "",
        "a",
        "4249",
        "c",
        "PICA"
      ],
      [
        "201A",
        "01",
        "0",
        "06-02-14"
      ],
      [
        "201B",
        "01",
        "0",
        "30-04-19",
        "t",
        "18:08:28.000"
      ],
      [
        "201D",
        "01",
        "0",
        "0946:06-02-14"
      ],
      [
        "201U",
        "01",
        "0",
        "utf8"
      ],
      [
        "202D",
        "01",
        "0",
        "30-04-19",
        "b",
        "csfn_storemm-zdb-offline",
        "a",
        "100019999"
      ],
      [
        "203@",
        "01",
        "0",
        "3457818738"
      ],
      [
        "206Z",
        "01",
        "0",
        "283803096"
      ],
      [
        "208@",
        "01",
        "a",
        "06-02-14",
        "b",
        "b"
      ],
      [
        "209A",
        "01",
        "B",
        "946",
        "d",
        "s",
        "x",
        "00"
      ],
      [
        "209B",
        "01",
        "a",
        "04",
        "c",
        "zz",
        "d",
        "10",
        "x",
        "53"
      ],
      [
        "209R",
        "01",
        "u",
        "http://www.bibliothek.uni-regensburg.de/ezeit/?2417376&bibid=FHF",
        "x",
        "EZB"
      ],
      [
        "209R",
        "01",
        "u",
        "http://vlp.mpiwg-berlin.mpg.de/library/journals.html",
        "x",
        "Volltext"
      ],
      [
        "231@",
        "01",
        "d",
        "1",
        "j",
        "1815",
        "n",
        "8",
        "k",
        "1823"
      ],
      [
        "231B",
        "01",
        "a",
        "1.1815 - 8.1823"
      ],
      [
        "101@",
        "",
        "a",
        "4305",
        "c",
        "PICA"
      ],
      [
        "201A",
        "01",
        "0",
        "08-02-12"
      ],
      [
        "201B",
        "01",
        "0",
        "30-04-19",
        "t",
        "18:08:28.000"
      ],
      [
        "201D",
        "01",
        "0",
        "0019:08-02-12"
      ],
      [
        "201U",
        "01",
        "0",
        "utf8"
      ],
      [
        "202D",
        "01",
        "0",
        "30-04-19",
        "b",
        "csfn_storemm-zdb-offline",
        "a",
        "100019999"
      ],
      [
        "203@",
        "01",
        "0",
        "3457818681"
      ],
      [
        "206Z",
        "01",
        "0",
        "226679012"
      ],
      [
        "208@",
        "01",
        "a",
        "08-02-12",
        "b",
        "bn"
      ],
      [
        "209B",
        "01",
        "a",
        "04",
        "c",
        "zz",
        "d",
        "10",
        "x",
        "53"
      ],
      [
        "209R",
        "01",
        "u",
        "http://www.bibliothek.uni-regensburg.de/ezeit/?2417376&bibid=UBM",
        "x",
        "EZB"
      ],
      [
        "209R",
        "01",
        "u",
        "http://vlp.mpiwg-berlin.mpg.de/library/journals.html",
        "x",
        "Volltext"
      ],
      [
        "231@",
        "01",
        "d",
        "1",
        "j",
        "1815",
        "n",
        "8",
        "k",
        "1823"
      ],
      [
        "231B",
        "01",
        "a",
        "1.1815 - 8.1823"
      ],
      [
        "101@",
        "",
        "a",
        "4306",
        "c",
        "PICA"
      ],
      [
        "201A",
        "01",
        "0",
        "08-02-12"
      ],
      [
        "201B",
        "01",
        "0",
        "30-04-19",
        "t",
        "18:08:28.000"
      ],
      [
        "201D",
        "01",
        "0",
        "0020:08-02-12"
      ],
      [
        "201U",
        "01",
        "0",
        "utf8"
      ],
      [
        "202D",
        "01",
        "0",
        "30-04-19",
        "b",
        "csfn_storemm-zdb-offline",
        "a",
        "100019999"
      ],
      [
        "203@",
        "01",
        "0",
        "345781869X"
      ],
      [
        "206Z",
        "01",
        "0",
        "226679047"
      ],
      [
        "208@",
        "01",
        "a",
        "08-02-12",
        "b",
        "b"
      ],
      [
        "209B",
        "01",
        "a",
        "04",
        "c",
        "zz",
        "d",
        "10",
        "x",
        "53"
      ],
      [
        "209R",
        "01",
        "u",
        "http://www.bibliothek.uni-regensburg.de/ezeit/?2417376&bibid=UBW",
        "x",
        "EZB"
      ],
      [
        "209R",
        "01",
        "u",
        "http://vlp.mpiwg-berlin.mpg.de/library/journals.html",
        "x",
        "Volltext"
      ],
      [
        "231@",
        "01",
        "d",
        "1",
        "j",
        "1815",
        "n",
        "8",
        "k",
        "1823"
      ],
      [
        "231B",
        "01",
        "a",
        "1.1815 - 8.1823"
      ],
      [
        "101@",
        "",
        "a",
        "4307",
        "c",
        "PICA"
      ],
      [
        "201A",
        "01",
        "0",
        "08-02-12"
      ],
      [
        "201B",
        "01",
        "0",
        "30-04-19",
        "t",
        "18:08:28.000"
      ],
      [
        "201D",
        "01",
        "0",
        "0091:08-02-12"
      ],
      [
        "201U",
        "01",
        "0",
        "utf8"
      ],
      [
        "202D",
        "01",
        "0",
        "30-04-19",
        "b",
        "csfn_storemm-zdb-offline",
        "a",
        "100019999"
      ],
      [
        "203@",
        "01",
        "0",
        "3457818746"
      ],
      [
        "206Z",
        "01",
        "0",
        "226678946"
      ],
      [
        "208@",
        "01",
        "a",
        "08-02-12",
        "b",
        "b"
      ],
      [
        "209B",
        "01",
        "a",
        "04",
        "c",
        "zz",
        "d",
        "10",
        "x",
        "53"
      ],
      [
        "209R",
        "01",
        "u",
        "http://www.bibliothek.uni-regensburg.de/ezeit/?2417376&bibid=TUM",
        "x",
        "EZB"
      ],
      [
        "209R",
        "01",
        "u",
        "http://vlp.mpiwg-berlin.mpg.de/library/journals.html",
        "x",
        "Volltext"
      ],
      [
        "231@",
        "01",
        "d",
        "1",
        "j",
        "1815",
        "n",
        "8",
        "k",
        "1823"
      ],
      [
        "231B",
        "01",
        "a",
        "1.1815 - 8.1823"
      ],
      [
        "101@",
        "",
        "a",
        "4313",
        "c",
        "PICA"
      ],
      [
        "201A",
        "01",
        "0",
        "29-04-17"
      ],
      [
        "201B",
        "01",
        "0",
        "30-04-19",
        "t",
        "18:08:29.000"
      ],
      [
        "201D",
        "01",
        "0",
        "8541:29-04-17"
      ],
      [
        "201U",
        "01",
        "0",
        "utf8"
      ],
      [
        "202D",
        "01",
        "0",
        "30-04-19",
        "b",
        "csfn_storemm-zdb-offline",
        "a",
        "100019999"
      ],
      [
        "203@",
        "01",
        "0",
        "3457818827"
      ],
      [
        "206Z",
        "01",
        "0",
        "40408303X"
      ],
      [
        "208@",
        "01",
        "a",
        "29-04-17",
        "b",
        "b"
      ],
      [
        "209B",
        "01",
        "a",
        "04",
        "c",
        "zz",
        "d",
        "10",
        "x",
        "53"
      ],
      [
        "209R",
        "01",
        "u",
        "http://www.bibliothek.uni-regensburg.de/ezeit/?2417376&bibid=TUCB",
        "x",
        "EZB"
      ],
      [
        "209R",
        "01",
        "u",
        "http://vlp.mpiwg-berlin.mpg.de/library/journals.html",
        "x",
        "Volltext"
      ],
      [
        "231@",
        "01",
        "d",
        "1",
        "j",
        "1815",
        "n",
        "8",
        "k",
        "1823"
      ],
      [
        "231B",
        "01",
        "a",
        "1.1815 - 8.1823"
      ],
      [
        "101@",
        "",
        "a",
        "4322",
        "c",
        "PICA"
      ],
      [
        "201A",
        "01",
        "0",
        "08-02-12"
      ],
      [
        "201B",
        "01",
        "0",
        "30-04-19",
        "t",
        "18:08:29.000"
      ],
      [
        "201D",
        "01",
        "0",
        "0473:08-02-12"
      ],
      [
        "201U",
        "01",
        "0",
        "utf8"
      ],
      [
        "202D",
        "01",
        "0",
        "30-04-19",
        "b",
        "csfn_storemm-zdb-offline",
        "a",
        "100019999"
      ],
      [
        "203@",
        "01",
        "0",
        "3457818789"
      ],
      [
        "206Z",
        "01",
        "0",
        "226678962"
      ],
      [
        "208@",
        "01",
        "a",
        "08-02-12",
        "b",
        "b"
      ],
      [
        "209B",
        "01",
        "a",
        "04",
        "c",
        "zz",
        "d",
        "10",
        "x",
        "53"
      ],
      [
        "209R",
        "01",
        "u",
        "http://www.bibliothek.uni-regensburg.de/ezeit/?2417376&bibid=UBB",
        "x",
        "EZB"
      ],
      [
        "209R",
        "01",
        "u",
        "http://vlp.mpiwg-berlin.mpg.de/library/journals.html",
        "x",
        "Volltext"
      ],
      [
        "231@",
        "01",
        "d",
        "1",
        "j",
        "1815",
        "n",
        "8",
        "k",
        "1823"
      ],
      [
        "231B",
        "01",
        "a",
        "1.1815 - 8.1823"
      ],
      [
        "101@",
        "",
        "a",
        "4323",
        "c",
        "PICA"
      ],
      [
        "201A",
        "01",
        "0",
        "08-02-12"
      ],
      [
        "201B",
        "01",
        "0",
        "30-04-19",
        "t",
        "18:08:29.000"
      ],
      [
        "201D",
        "01",
        "0",
        "0703:08-02-12"
      ],
      [
        "201U",
        "01",
        "0",
        "utf8"
      ],
      [
        "202D",
        "01",
        "0",
        "30-04-19",
        "b",
        "csfn_storemm-zdb-offline",
        "a",
        "100019999"
      ],
      [
        "203@",
        "01",
        "0",
        "3457818797"
      ],
      [
        "206Z",
        "01",
        "0",
        "226678970"
      ],
      [
        "208@",
        "01",
        "a",
        "08-02-12",
        "b",
        "b"
      ],
      [
        "209B",
        "01",
        "a",
        "04",
        "c",
        "zz",
        "d",
        "10",
        "x",
        "53"
      ],
      [
        "209R",
        "01",
        "u",
        "http://www.bibliothek.uni-regensburg.de/ezeit/?2417376&bibid=UBBAY",
        "x",
        "EZB"
      ],
      [
        "209R",
        "01",
        "u",
        "http://vlp.mpiwg-berlin.mpg.de/library/journals.html",
        "x",
        "Volltext"
      ],
      [
        "231@",
        "01",
        "d",
        "1",
        "j",
        "1815",
        "n",
        "8",
        "k",
        "1823"
      ],
      [
        "231B",
        "01",
        "a",
        "1.1815 - 8.1823"
      ],
      [
        "101@",
        "",
        "a",
        "4324",
        "c",
        "PICA"
      ],
      [
        "201A",
        "01",
        "0",
        "08-02-12"
      ],
      [
        "201B",
        "01",
        "0",
        "30-04-19",
        "t",
        "18:08:29.000"
      ],
      [
        "201D",
        "01",
        "0",
        "0739:08-02-12"
      ],
      [
        "201U",
        "01",
        "0",
        "utf8"
      ],
      [
        "202D",
        "01",
        "0",
        "30-04-19",
        "b",
        "csfn_storemm-zdb-offline",
        "a",
        "100019999"
      ],
      [
        "203@",
        "01",
        "0",
        "3457818800"
      ],
      [
        "206Z",
        "01",
        "0",
        "226679020"
      ],
      [
        "208@",
        "01",
        "a",
        "08-02-12",
        "b",
        "b"
      ],
      [
        "209B",
        "01",
        "a",
        "04",
        "c",
        "zz",
        "d",
        "10",
        "x",
        "53"
      ],
      [
        "209R",
        "01",
        "u",
        "http://www.bibliothek.uni-regensburg.de/ezeit/?2417376&bibid=UBPA",
        "x",
        "EZB"
      ],
      [
        "209R",
        "01",
        "u",
        "http://vlp.mpiwg-berlin.mpg.de/library/journals.html",
        "x",
        "Volltext"
      ],
      [
        "231@",
        "01",
        "d",
        "1",
        "j",
        "1815",
        "n",
        "8",
        "k",
        "1823"
      ],
      [
        "231B",
        "01",
        "a",
        "1.1815 - 8.1823"
      ],
      [
        "101@",
        "",
        "a",
        "4325",
        "c",
        "PICA"
      ],
      [
        "201A",
        "01",
        "0",
        "08-02-12"
      ],
      [
        "201B",
        "01",
        "0",
        "30-04-19",
        "t",
        "18:08:29.000"
      ],
      [
        "201D",
        "01",
        "0",
        "0824:08-02-12"
      ],
      [
        "201U",
        "01",
        "0",
        "utf8"
      ],
      [
        "202D",
        "01",
        "0",
        "30-04-19",
        "b",
        "csfn_storemm-zdb-offline",
        "a",
        "100019999"
      ],
      [
        "203@",
        "01",
        "0",
        "3457818819"
      ],
      [
        "206Z",
        "01",
        "0",
        "226678989"
      ],
      [
        "208@",
        "01",
        "a",
        "08-02-12",
        "b",
        "b"
      ],
      [
        "209B",
        "01",
        "a",
        "04",
        "c",
        "zz",
        "d",
        "10",
        "x",
        "53"
      ],
      [
        "209R",
        "01",
        "u",
        "http://www.bibliothek.uni-regensburg.de/ezeit/?2417376&bibid=UBE",
        "x",
        "EZB"
      ],
      [
        "209R",
        "01",
        "u",
        "http://vlp.mpiwg-berlin.mpg.de/library/journals.html",
        "x",
        "Volltext"
      ],
      [
        "231@",
        "01",
        "d",
        "1",
        "j",
        "1815",
        "n",
        "8",
        "k",
        "1823"
      ],
      [
        "231B",
        "01",
        "a",
        "1.1815 - 8.1823"
      ],
      [
        "101@",
        "",
        "a",
        "4338",
        "c",
        "PICA"
      ],
      [
        "201A",
        "01",
        "0",
        "08-02-12"
      ],
      [
        "201B",
        "01",
        "0",
        "30-04-19",
        "t",
        "18:08:28.000"
      ],
      [
        "201D",
        "01",
        "0",
        "0092:08-02-12"
      ],
      [
        "201U",
        "01",
        "0",
        "utf8"
      ],
      [
        "202D",
        "01",
        "0",
        "30-04-19",
        "b",
        "csfn_storemm-zdb-offline",
        "a",
        "100019999"
      ],
      [
        "203@",
        "01",
        "0",
        "345781872X"
      ],
      [
        "206Z",
        "01",
        "0",
        "22667889X"
      ],
      [
        "208@",
        "01",
        "a",
        "08-02-12",
        "b",
        "b"
      ],
      [
        "209B",
        "01",
        "a",
        "04",
        "c",
        "zz",
        "d",
        "10",
        "x",
        "53"
      ],
      [
        "209R",
        "01",
        "u",
        "http://www.bibliothek.uni-regensburg.de/ezeit/?2417376&bibid=FHN",
        "x",
        "EZB"
      ],
      [
        "209R",
        "01",
        "u",
        "http://vlp.mpiwg-berlin.mpg.de/library/journals.html",
        "x",
        "Volltext"
      ],
      [
        "231@",
        "01",
        "d",
        "1",
        "j",
        "1815",
        "n",
        "8",
        "k",
        "1823"
      ],
      [
        "231B",
        "01",
        "a",
        "1.1815 - 8.1823"
      ],
      [
        "101@",
        "",
        "a",
        "4367",
        "c",
        "PICA"
      ],
      [
        "201A",
        "01",
        "0",
        "08-02-12"
      ],
      [
        "201B",
        "01",
        "0",
        "30-04-19",
        "t",
        "18:08:29.000"
      ],
      [
        "201D",
        "01",
        "0",
        "0155:08-02-12"
      ],
      [
        "201U",
        "01",
        "0",
        "utf8"
      ],
      [
        "202D",
        "01",
        "0",
        "30-04-19",
        "b",
        "csfn_storemm-zdb-offline",
        "a",
        "100019999"
      ],
      [
        "203@",
        "01",
        "0",
        "3457818762"
      ],
      [
        "206Z",
        "01",
        "0",
        "226678938"
      ],
      [
        "208@",
        "01",
        "a",
        "08-02-12",
        "b",
        "b"
      ],
      [
        "209B",
        "01",
        "a",
        "04",
        "c",
        "zz",
        "d",
        "10",
        "x",
        "53"
      ],
      [
        "209R",
        "01",
        "u",
        "http://www.bibliothek.uni-regensburg.de/ezeit/?2417376&bibid=STABI",
        "x",
        "EZB"
      ],
      [
        "209R",
        "01",
        "u",
        "http://vlp.mpiwg-berlin.mpg.de/library/journals.html",
        "x",
        "Volltext"
      ],
      [
        "231@",
        "01",
        "d",
        "1",
        "j",
        "1815",
        "n",
        "8",
        "k",
        "1823"
      ],
      [
        "231B",
        "01",
        "a",
        "1.1815 - 8.1823"
      ],
      [
        "101@",
        "",
        "a",
        "4700",
        "c",
        "PICA"
      ],
      [
        "201A",
        "01",
        "0",
        "08-02-12"
      ],
      [
        "201B",
        "01",
        "0",
        "30-04-19",
        "t",
        "18:08:29.000"
      ],
      [
        "201D",
        "01",
        "0",
        "0706:08-02-12"
      ],
      [
        "201U",
        "01",
        "0",
        "utf8"
      ],
      [
        "202D",
        "01",
        "0",
        "30-04-19",
        "b",
        "csfn_storemm-zdb-offline",
        "a",
        "100019999"
      ],
      [
        "203@",
        "01",
        "0",
        "3457818835"
      ],
      [
        "206Z",
        "01",
        "0",
        "226679055"
      ],
      [
        "208@",
        "01",
        "a",
        "08-02-12",
        "b",
        "b"
      ],
      [
        "209A",
        "01",
        "B",
        "706",
        "d",
        "s",
        "x",
        "00"
      ],
      [
        "209B",
        "01",
        "a",
        "04",
        "c",
        "zz",
        "d",
        "10",
        "x",
        "53"
      ],
      [
        "209R",
        "01",
        "u",
        "http://www.bibliothek.uni-regensburg.de/ezeit/?2417376&bibid=UBWM",
        "x",
        "EZB"
      ],
      [
        "209R",
        "01",
        "u",
        "http://vlp.mpiwg-berlin.mpg.de/library/journals.html",
        "x",
        "Volltext"
      ],
      [
        "231@",
        "01",
        "d",
        "1",
        "j",
        "1815",
        "n",
        "8",
        "k",
        "1823"
      ],
      [
        "231B",
        "01",
        "a",
        "1.1815 - 8.1823"
      ]
    ],
    "_id": "560843771"
  }
]
