[{
   "record" : [
      [
         "001A",
         "",
         "0",
         "3280:22-05-13"
      ],
      [
         "001B",
         "",
         "0",
         "1999:06-10-16",
         "t",
         "20:48:39.000"
      ],
      [
         "001D",
         "",
         "0",
         "3280:22-05-13"
      ],
      [
         "001U",
         "",
         "0",
         "utf8"
      ],
      [
         "001X",
         "",
         "0",
         "0"
      ],
      [
         "002@",
         "",
         "0",
         "Asur"
      ],
      [
         "003@",
         "",
         "0",
         "001433164"
      ],
      [
         "006Y",
         "",
         "0",
         "ADW: 063901017"
      ],
      [
         "009@",
         "",
         "b",
         "idz"
      ],
      [
         "010@",
         "",
         "a",
         "ger"
      ],
      [
         "011@",
         "",
         "a",
         "1790"
      ],
      [
         "013@",
         "",
         "0",
         "40"
      ],
      [
         "021G",
         "",
         "g",
         "Garzoni, M.",
         "a",
         "Grammatica e vocabulario della lingua curda.",
         "d",
         "Rom: Propaganda Fidei, 1787."
      ],
      [
         "027D",
         "",
         "a",
         "Magazin für alte, besonders morgenländische und biblische Litteratur",
         "p",
         "Halle",
         "n",
         "Curt",
         "z",
         "1002265x"
      ],
      [
         "028A",
         "",
         "P",
         "Anonym",
         "B",
         "Verf."
      ],
      [
         "028G",
         "",
         "d",
         "M.",
         "a",
         "Garzoni",
         "B",
         "Verf. rez. Werk"
      ],
      [
         "031A",
         "",
         "j",
         "1790",
         "e",
         "3",
         "h",
         "147-156",
         "y",
         "3.Lfg.,147-156"
      ],
      [
         "039B",
         "",
         "c",
         "In:",
         "9",
         "001915835",
         "a",
         "Magazin für alte, besonders morgenländische und biblische Litteratur",
         "z",
         "1002265x",
         "p",
         "Halle",
         "n",
         "Curt",
         "z",
         "A",
         "x",
         "179000000000003853"
      ],
      [
         "041A",
         "",
         "9",
         "000002828",
         "M",
         "Tsx7",
         "a",
         "Rezension"
      ],
      [
         "044K",
         "",
         "9",
         "00000071X",
         "M",
         "Tsx7",
         "a",
         "allgemeiner Text"
      ],
      [
         "044L",
         "",
         "S",
         "s",
         "a",
         "Kurdische Sprache"
      ]
   ],
   "_id" : "001433164"
}]
