"zdb_nr","vd18_nr","type","place","publisher","place_prev","publisher_prev","first_date","last_date","title"
"2684579-9","","Obxz","Halle","Salfeld","Franckfurth||Leipzig","Weidmann","1688","1688","Schertz- und ernsthaffter, vernünfftiger und einfältiger Gedancken über allerhand lustige und nützliche Bücher und Fragen"
"2684587-8","","Obxz","Halle","Salfeld","","","1689","1690","Freymüthiger Jedoch Vernunfft- und Gesetzmäßiger Gedancken Uber allerhand, fürnehmlich aber Neue Bücher"
"2735331-X","","Obvz","Paris","Martin, Coignard, Guerin","","","1701","1734","Machines et inventions approuvées par l'Académie Royale des Sciences depuis son établissement jusqu'à présent"
"2794342-2","90292979","Obvz","[Halle]","","","","1702","1707","Der curieuse und politische Staats-Mercurius"
"2771300-3","","Obxz","Paris","Ballard","","","1703","1734","Recueil général des opéra, représentés par l'Académie Royale de Musique, depuis son établissement"
"2795040-2","90295129","Obvz","Freyburg [i.e. Leipzig]","Wahrmund [i.e. Grosschuff]","","","1704","1708","Der neubestellte Agent von Haus aus, mit allerhand curieusen Missiven, Brieffen, Memoralien, Staffeten, Correspondencen und Commissionen, nach Erforderung der heutigen Staats- und gelehrten Welt"
"2812154-5","90370066","Obvz","Halle","Waysenhaus","","","1708","1708","Bartholomäus Ziegenbalgs ausführlicher Bericht"
"2841647-8","","Obvz","Halle, S.","Waysenhaus","","","1708","1762","Der Königl. dänischen Missionarien aus Ost-Indien eingesandte ausführliche Berichte von dem Werck ihres Amts unter den Heyden"
"2813002-9","90372913","Obvz","Halae Magdeburgicae","","","","1709","1716","Nova librorum rariorum conlectio, qui vel integri inseruntur vel adcurate recensentur"
"2680508-X","9022230X","Obxz","Franckfurt||Leipzig||[Halle]","Renger","","","1709","1721","Neue Bibliothec Oder Nachricht und Urtheile von neuen Büchern Und allerhand zur Gelehrsamkeit dienenden Sachen"
"2769991-2","1400013X","Obxz","Halle","","","","1710","1710","Des Erbaulichen Zeit-Vertreibers erste Ausflucht, welcher von allerhand nützlichen und curiösen Sachen auf eine ergötzende, freye und geziemende Art raisonniret"
"2748458-0","90291735","Obxz","Halle, S.","Waysenhaus","","","1710","1764","Der Königl. dänischen Missionarien aus Ost-Indien eingesandte ausführliche Berichte von dem Werck ihres Amts unter den Heyden"
"2186410-X","","Obvz","Halle, S.","Waysenhaus","","","1710","1772","Der Königl. dänischen Missionarien aus Ost-Indien eingesandte ausführliche Berichte von dem Werck ihres Amts unter den Heyden"
"2686192-6","90156455","Obxz","[S.l.]","","Halle, S.","Renger","1713","1711","Das jetzt lebende Leipzig"
"2795085-2","90278933","Obxz","Halle||Leipzig","Zeitler","","","1715","1716","Summarischer Nachrichten von auserlesenen, mehrenteils alten in der Thomasischen Bibliotheque vorhandenen Büchern ... Stück"
"2774566-1","90311116","Obvz","Halle, Magdeb.","Renger","","","1715","1723","Neue Acerra philologica oder Gründliche Nachrichten aus der Philologie, und denen römischen und griechischen Antiquitaeten"
"2795327-0","90290089","Obvz","Halle","Renger","","","1715","1726","Acta philosophorum, das ist gründl. Nachrichten aus der historia philosophica"
"2748460-9","9029257X","Obvz","Halle","Renger","","","1715","1732","Gundlingiana"
"2689476-2","90237498","Obxz","Franckfurt||Leipzig||[Halle]","Renger","","","1717","1717","Neue Bibliothec Oder Nachricht und Urtheile von neuen Büchern Und allerhand zur Gelehrsamkeit dienenden Sachen"
"2785326-3","11157836|||90317254","Obxz","Leipzig||Gardeleben","Campen","","","1717","1720","Continuation der gründlichen Nachricht von denen Journalen, Ephemeridibus, monatlichen Extracten, so in frantzöischer, lateinischer und deutscher Sprache von Anno ... biß ... ans Licht kommen, allen Liebhabern der Journale ... mitgetheilet von H. P. L. M."
"2795454-7","","Obxz","Halae||Magdeburgicae","","","","1718","1719","Bibliothecae academicae anni ..., qua disputationes orationes et programmata ... recensentur, sectio .."
"2401862-4","","Obvz","Halle","Neue Buch-Handl.","","","1718","1719","Abgesonderte Bibliothec oder zulängliche Nachrichten und unpartheyische Gutachten von einigen mehrenteils neuen Büchern und andern gelehrten Materien"
"2406389-7","90243897","Obvz","Halle im Magdeburgischen","Neue Buchandlung","","","1718","1720","Vermischte Bibliothec Oder: Zulängliche Nachrichten und Unpartheyische Gutachten Von allerhand mehrentheils neuen Büchern und andern gelehrten Materien"
"2702823-9","","Obxz","Franckfurt||Leipzig","Riegel","","","1719","1719","Der Spectateur oder vernünftige Betrachtungen über die verderbten Sitten der heutigen Welt"
"2540005-8","90299469","Obvz","Halle","Renger","","","1720","1721","Ernsthaffte aber doch muntere und vernünfftige Thomasische Gedanken und Erinnerungen über allerhand außerlesene juristische Händel"
"2687634-6","90234146","Obvz","Leipzig","Martini","","","1723","1723","Das gesamte itzt-lebende Geistliche Ministerium, Im Gantzen Churfürstenthum Sachsen und incorporirten Landen, auch Ober- und Nieder-Laußnitz, Oder Das blühende Andencken Aller in Sachsen und Laußnitz Auch einigen andern angräntzenden Ländern Lebenden Evangelisch-Lutherischen Prediger, Wie solche im Jahre ... In Städten und aufm Lande floriret"
"2643393-X","90293770","Obvz","Franckfurt||Leipzig","Braun","Halle","Spörl","1725","1726","Die vernünftigen Tadlerinnen"
"2795548-5","90294815","Obxz","Halle, S.||Leipzig","E. Schneider","Halle, S.","Grundert","1729","1740","Johann Peter von Ludewigs gelehrte Anzeigen, in alle Wissenschaften, so wol geistlicher als weltlicher, alter und neuer Sachen, welche vormals denen wöchentlichen hallischen Anzeigen einverleibet worden, nunmehro aber zusammen gedrucket und mit einem vollständigen Register versehen"
"2657533-4","","Obxz","Dreßden||Leipzig","Hekels","","","1730","1733","Diplomatische und curieuse Nachlese der Historie von Ober-Sachsen und angräntzenden Ländern"
"2668906-6","90196279","Obxz","Sarden","","Philadelphia [i.e. Berleburg]","","1730","1733","Geistliche Fama"
"2658254-5","","Obxz","Stolberg","Ehrhart","","","1731","1731","Stolbergischer Schreib- und Artzney-Caldender"
"2678600-X","90311086","Obvz","Amstelodami||Duisburgi","Wor & Böttger","","","1732","1734","Miscellanea Duisburgensia edita, inedita, vetera, nova, theologica historica, philologica ad incrementum rei literariae omnis"
"2755449-1","","Obxz","La Haye","Hondt","","","1733","1747","Bibliothèque britannique"
"2755404-1","","Obxz","Halle, S.","Waysenhaus","","","1734","1734","Continuation des Berichts der königlichen dänischen Missionarien in Ost-Indien"
"2643013-7","90116429","Obxz","Halae Venedum","Societas","","","1736","1736","Pierides Sive Latium Literatum"
"2693190-4","90247973","Obvz","Hamburg","Piscator","","","1738","1739","Der vernünftige Christ"
"2658257-0","","Obxz","Stolberg","Ehrhart","","","1739","1734","Stolbergischer Schreib- und Gespräch-Calender"
"2667936-X","90196708","Obxz","Leipzig","Breitkopf","","","1739","1744","Der Deutschen Gesellschaft in Leipzig Nachrichten und Anmerkungen welche die Sprache, Beredsamkeit und Dichtkunst der Deutschen betreffen"
"2694894-1","10740619","Obxz","Lipsiae","Fuchsius","","","1741","1743","Exercitationes Societatis Latinae Quae Jenae Est"
"2678594-8","90277325","Obvz","Leipzig","Jacobi","","","1742","1761","Leipziger Sammlungen von allerhand zum land- und stadt-wirthschafftlichen Policey-, Finanz- und Cammer-Wesen dienlichen Nachrichten, Anmerckungen, Begebenheiten, Versuchen, Vorschlägen, neuen und alten Anstalten, Erfindungen, Vortheilen, Fehlern, Künsten, Wissenschaften und Schriften"
"2684383-3","90229681","Obxz","Halle","Hemmerde","Halle|||Halle||Leipzig","Fritsch|||Schuster|||Krug","1743","1743","Der Prüfenden Gesellschafft zu Halle Fortgesetzte, zur Gelehrsamkeit gehörige, Bemühungen"
"2402224-X","","Obvz","Halle","Hemmerde","","","1743","1747","Bemühungen zur Beförderung der Critik und des guten Geschmacks"
"2678593-6","","Obxz","Leipzig","Breitkopf","","","1746","1757","Friedrich Wilhelm Krafts neue theologische Bibliothek, darinnen von den neuesten theologischen Büchern und Schriften Nachricht gegeben wird"
"2794221-1","9027850X","Obxz","Halle","Gebauer","","","1748","1751","Nachrichten von einer hallischen Bibliothek"
"2678592-4","","Obxz","Berlin","","","","1748","1756","Vollstaendiger astronomischer Calender"
"2674578-1","9020882X","Obvz","Torgau","Petersell","","","1749","1749","Torgauische Merckwürdigkeiten und Nachrichten"
"2693216-7","9024799X","Obxz","[Leipzig]","","","","1751","1751","Der Leipziger Zuschauer"
"2821884-X","90396103","Obxz","Halle, S.","Gebauer","","","1752","1755","Altes und Neues von Schulsachen"
"2794220-X","90291824","Obvz","Halle","Gebauer","","","1752","1758","Siegm. Jac. Baumgartens Nachrichten von merkwürdigen Büchern"
"2688208-5","11095040","Obvz","Hamburg","Brandt","","","1753","1754","Hamburgische Beyträge zu den Werken des Witzes und der Sittenlehre"
"2683239-2","11253703","Obxz","Stuttgart","Stoll","","","1755","1755","Sammlung aller Magister-Promotionen, welche zu Tübingen ... geschehen, darinnen nebst dem Vor- und Zu-Namen das Vaterland, die Aemter, und andere dergleichen Umstände der vorkommenden Personen aus vielen bewährten Urkunden zuverläßig angemercket werden"
"2539277-3","90299132","Obvz","Halle, S.","Renger","","","1755","1762","Hallische Beyträge zu der juristischen Gelehrten-Historie"
"2678590-0","","Obxz","Friedrichstadt","Hagemüller","","","1756","1756","Friedrichstädter astronomisch verbesserter, neuer und alter Haushaltungs-Calender"
"2789608-0","90292146","Obxz","Halle","Hemmerde","","","1757","1757","Zuverlässige Nachrichten von der Königlich-Preußischen Armee"
"2690084-1","10887644","Obvz","Frankfurt, M.||Leipzig","","","","1757","1757","Sammlung der neuesten Staats-Schrifften zum Behuf der Historie des jetzigen Krieges in Teutschland"
"2556002-5","90290941","Obvz","Halle","Gebauer","","","1757","1762","Das Reich der Natur und der Sitten"
"2775170-3","90293347","Obvz","Frankfurt||Leipzig","","","","1757","1763","Teutsche Kriegs-Canzley"
"2748475-0","90276965","Obvz","Erlangen","Walther","Bayreuth","Hochfürstliches Zeitungs-Comptoir","1758","1786","Erlangische gelehrte Anmerkungen und Nachrichten"
"2678589-4","","Obxz","Leipzig","Breitkopf","","","1759","1759","Friedrich Wilhelm Krafts neue theologische Bibliothek, darinnen von den neuesten theologischen Büchern und Schriften Nachricht gegeben wird"
"3011234-5","11121777","Obxz","Frankfurt||Leipzig","[Verlag nicht ermittelbar]","","","1759","1759","Etwas für alle Leser auswärtiger und einheimischer Zeitungen"
"2959251-3","","Obxz","Halle","Curts","","","1761","1765","D. Daniel Gottfried Schrebers ... Sammlung verschiedener Schriften,       welche in die öconomischen-, Policey- und Cameral-, auch andere verwandte Wissenschaften einschlagen"
"2755435-1","90764595","Obxz","Magdeburg||Leipzig","Scheidhauer","","","1763","1766","Geistliches Magazin zum nützlichen Gebrauch für Lehrer und andere Christen"
"2794854-7","90284763","Obxz","Halle","Gebauer","","","1763","1768","Der Glückselige"
"2793164-X","90284550","Obxz","Halle","Gebauer","","","1764","1764","Der Gesellige"
"2692472-9","90246462","Obvz","Hamburg","Bock","","","1764","1765","Hamburgisches Journal"
"2752219-2","90281616","Obxz","Halle","Gebauer","","","1764","1767","Der Mensch"
"2816091-5","90379985","Obxz","Halle","Curts","","","1765","1761","Daniel Gottfried Schrebers ... Sammlung verschiedener Schriften, welche in die öconomischen, Policey- und Cameral-, auch andere verwandte Wissenschaften einschlagen"
"2693192-8","11348275","Obxz","Leipzig","An der Pleisse","","","1765","1765","Der Zuschauer von Leipzig"
"2678478-6","","Obxz","A Erlang","Walther","","","1766","1766","Recueil des meilleures pièces du Mercure de France et de quelques autres ouvrages périodiques"
"2759936-X","90294181","Obvz","Eisenach||Göttingen","","","","1766","1772","Vermischte Nachrichten und Anmerkungen zur Erläuterung und Ergänzung der sächßischen besonders aber der Eisenachischen Geschichte"
"2814510-0","9029159X","Obxz","Halle","Curt","","","1767","1768","Der Weise"
"2793033-6","90290275","Obxz","Leipzig","Crusius","Halle","Curts","1767","1769","Daniel Gottfried Schrebers ... neue Cameralschriften"
"2794253-3","90282418","Obvz","Halle","Gebauer","","","1767","1770","Allgemeines historisches Magazin"
"2401984-7","90287827","Obvz","Halle","Gebauer","","","1767","1771","Allgemeine historische Bibliothek"
"2959465-0","90370414-001","Obxz","Halle","Gebauer","","","1767","1771","Deutsche Bibliothek der schönen Wissenschaften"
"2748526-2","90285859","Obvz","Halle","Curt","Hamburg","Ritter|||Buchenröder|||Buchenröder und Ritter","1767","1793","Magazin für die neue Historie und Geographie"
"2759949-8","","Obxz","Paris","Durand","","","1768","1768","Journal d'éducation"
"2678475-0","","Obxz","Paris","Jorry","","","1768","1769","Le courier de la mode"
"2794526-1","90282000","Obxz","[S.l.]","","Frankfurt||Leipzig|||London||Halle","Dodsley","1768","1771","Bibliothek der elenden Scribenten"
"2406214-5","","Obvz","Halle","Gebauer","","","1769","1769","Philosophische Bibliothek"
"2744185-4","11297352","Obxz","Leipzig","Holle","","","1769","1769","Pragmatische Makulatur"
"2810383-X","90366468","Obvz","Halle","Trampe","","","1769","1773","Brittisches Theologisches Magazin"
"2763025-0","90277236","Obvz","Stutgart","Mezler","","","1770","1770","Allgemeiner öconomischer oder Landwirthschafts-Kalender"
"2794844-4","90283317","Obxz","Frankfurt, M||Leipzig","","Leipzig||Halle|||Schaffhausen","Hurter","1770","1770","Der Christ am Sonntage"
"2759551-1","","Obxz","Halle","Waisenhaus","","","1770","1804","Neuere Geschichte der evangelischen Missionsanstalten zu Bekehrung der Heiden in Ost-Indien"
"2763019-5","90295420","Obvz","Stuttgart","Mezler","","","1771","1771","Allgemeiner Landwirthschafts-Kalender"
"2658277-6","","Obxz","Stolberg am Harze","Löhrs","","","1771","1772","Verbesserter Stolbergischer Wirthschafts- und Garten-Calender"
"2655629-7","9017139X","Obxz","Jena","Strauß","","","1772","1772","Historisch-poetischer Calender"
"2796271-4","90281470","Obvz","Halle","Gebauer","","","1772","1775","Magazin der deutschen Critik"
"2763013-4","90296982","Obvz","Stuttgart","Mezler","","","1772","1779","Nützlicher und getreuer Unterricht für den Land- und Bauersmann"
"2403028-4","90277686","Obvz","Göttingen","Vandenhoeck","","","1772","1781","Historisches Journal von Mitgliedern des Königlichen Historischen Instituts zu Göttingen"
"2660796-7","90142020","Obxz","Halle","Gebauer","","","1773","1774","Der Andächtige"
"2795080-3","90289706","Obvz","Halle","Trampe","","","1774","1774","Beyträge zu Beförderung der Naturkunde"
"2796417-6","90280326","Obvz","Halle","Gebauer","","","1774","1776","Die Akademie der Grazien"
"2755286-X","","Obvz","Wismar||Leipzig","Boedner","Bützow||Wismar","Berger und Boedner","1774","1777","Kritische Sammlungen zur neuesten Geschichte der Gelehrsamkeit"
"2402361-9","90279735","Obvz","Halle","Gebauer","","","1774","1778","Fortgesetzte Betrachtungen über die neuesten historischen Schriften"
"2440774-4","90122364","Obvz","Halle","Gebauer","","","1774","1802","Der Naturforscher"
"2795551-5","","Obxz","Halle","","","","1775","1775","Wöchentliche hallische Anzeigen"
"2685124-6","90155556","Obvz","[S.l.]","","","","1775","1775","Adres-Calender, der sämtlichen Königl. Preuß. Lande und Provinzien"
"2794726-9","90289242","Obvz","Halle","Gebauer","","","1775","1779","Der Geschichtforscher"
"2759945-0","","Obxz","Leipzig","Breitkopf","","","1776","1776","Neueste theologische Bibliothek, darinnen von den neuesten theologischen Büchern und Schriften Nachricht gegeben wird"
"2790005-8","90284828","Obxz","Halle, S.","Hendel","","","1778","1778","Magazin für Frauenzimmer"
"2458779-5","90287185","Obvz","Hanau","","","","1778","1780","Nomenclatur und Beschreibung der Insecten in der Grafschaft Hanau-Münzenberg wie auch der Wetterau und der angränzenden Nachbarschaft dies- und jenseits des Mains"
"2658280-6","","Obxz","Stolberg","","","","1779","1779","Allgemeiner Reichs-Wirthschafts- und Historien-Kalender"
"2745598-1","","Obvz","Göttingen","Vandenhoeck und Ruprecht","Göttingen","Vandenhoeck","1779","1791","Beyträge zur Oekonomie, Technologie, Polizey- und Cameralwissenschaft"
"2657316-7","","Obxz","Stolberg am Harze","Löhrs","","","1780","1780","Allgemeine Wirthschafts- und Reichs-Kalender"
"2792132-3","90289722","Obxz","Halle","Hendel","","","1780","1780","Vermischte Aufsätze zur Beförderung der Litteratur und der Sitten"
"2692475-4","90160169","Obxz","Halle","Trampe","","","1780","1782","Erzehlungen aus der würklichen Welt"
"2792789-1","","Obxz","Halle","Gebauer","","","1780","1782","Neueste philosophische Litteratur"
"2794347-1","90290445","Obvz","Halle","Hendel","Weimar|||Dessau||Leipzig","Hoffmann|||Buchhandlung d. Gelehrten","1780","1785","Magazin der italienischen Litteratur und Künste"
"2824766-8","","Obxz","Berlin","","","","1781","1781","Silen und sein Esel"
"2824764-4","","Obxz","Berlin","","","","1781","1781","Die Berlinische Fama über Stadt- und Landbegebenheiten"
"2820169-3","90343182","Obxz","Halle, S.","Crusius","","","1781","1781","Der Erzieher"
"2789030-2","90285964","Obxz","Halle","Gebauer","","","1781","1781","Magazin für die Erziehung und Schulen besonders in den Preußischen Staaten"
"2774604-5","90311191","Obvz","Halle","","","","1781","1781","Neueste Kritik über Wien"
"2021339-6","","Obvz","Halle","Gebauer","","","1781","1781","Magazin für die Erziehung und Schulen besonders in den Preußischen Staaten"
"2539447-2","90298667","Obvz","Halle","Renger","","","1781","1783","Sammlung auserlesener Abhandlungen aus dem Lehnrechte"
"2793545-0","9028545X","Obvz","Cleves","","","","1781","1802","Courier du Bas-Rhin"
"2757090-3","90289862","Obvz","Halle","Hendel","","","1782","1783","Magazin für Pharmazie, Botanik und Materia Medica"
"2655649-2","90171403","Obvz","Wittenberg","Dürr","","","1783","1783","Wittenbergisches Magazin"
"2411971-4","90143353","Obvz","Halle","Hendel","","","1783","1784","Magazin der Alterthümer, oder Abbildungen von den vornehmsten geschnittenen Steinen, Büsten, Statuen, Grouppen, erhabenen und vertieften Arbeiten, Gemählden, Vasen und anderen Geräthschaften"
"2810358-0","9036645X","Obxz","Halle","Gebauer","","","1783","1784","Historische Miscellaneen"
"2829944-9","90357663","Obxz","Halle||Leipzig","","","","1784","1776","Neues Leipziger Allerley der merkwuerdigsten Begebenheiten unserer Zeit"
"2793354-4","90280385","Obvz","Halle","Traupe","","","1784","1784","Physicalische Zeitung"
"2554318-0","","Obxz","Halle","","","","1785","1785","Damenjournal zum Besten des Roseninstituts"
"2824621-4","11475072","Obxz","[Halle, S.]","","","","1785","1786","Einnahme und Ausgabe bey der Stadt-Almosencasse zu Halle"
"2771308-8","90307836","Obxz","Halle","Gebauer","","","1785","1786","Medicinischer Briefwechsel"
"2794364-1","90281012","Obvz","Halle","Verl. d. Waisenhauses","","","1785","1787","Neues geographisches Magazin"
"2792571-7","90292804","Obxz","Halle","Hendel","","","1785","1788","Neue litterarische Nachrichten für Ärzte, Wundärzte und Naturforscher"
"2254754-X","","Obvz","Halle, S.|||Leipzig","Schwetschke|||Churfürstl. Sächsische Zeitungsexpedition","Jena|||Leipzig|||Halle, S.|||Wien","Expedition d. Zeitung|||Müller|||Expedition der Zeitung|||Stahel","1785","1849","Allgemeine Literatur-Zeitung"
"2788789-3","90278402","Obxz","Halle, Saale","Heller","","","1786","1786","Flora"
"2748549-3","9029615X","Obxz","Halle","Dost","","","1786","1786","Briefe über die Bibel im Volkston"
"2669995-3","","Obxz","Schnepfenthal","Erziehungsanst.","Leipzig","Crusius","1786","1903","Nachrichten aus Schnepfenthal"
"2752444-9","90282604","Obvz","Berlin||Nürnberg","","Halle, S.","","1787","1787","Monatsschrift für Damen"
"2433350-5","90283538","Obvz","Halle","Curt","Cassel","Cramer","1787","1790","Magazin für alte, besonders morgenländische und biblische Litteratur"
"2539448-4","90298500","Obvz","Halle","Hendel","","","1787","1794","Miscellaneen zum Lehnrechte"
"2485239-9","","Obvz","Halle||Leipzig||Jena||Gotha||Hamburg||Nürnberg","","","","1788","1788","Historische und geographische Monatsschrift"
"2433287-2","90282213","Obvz","Halle","Gebauer","","","1788","1791","Philosophisches Magazin"
"2668334-9","90196120","Obvz","Freyberg","Craz","","","1788","1793","Bergmännisches Journal"
"2539515-4","9029839X","Obvz","Halle, S.","Zeitung","","","1789","1789","Allgemeine staatswissenschaftliche und juristische Literatur-Zeitung"
"2794790-7","90285271","Obxz","Halle","","","","1789","1790","Magazin für die Mineralogie und mineralogische Technologie"
"2794340-9","90282213","Obxz","Halle","Gebauer","","","1789","1792","Philosophisches Magazin"
"2632521-4","90284615","Obvz","Leipzig","Barth","","","1790","1794","Journal der Physik"
"2658468-2","","Obxz","Halle","Dost","","","1791","1792","Akademisches Taschenbuch zum Nutzen und Vergnügen für Studirende"
"2693189-8","90247981","Obxz","Berlin","Unger","","","1792","1792","Mythologischer Almanach für Damen"
"2713389-8","","Obxz","Halle","Francke","","","1792","1792","Zeitschrift für Gattinnen, Mütter und Töchter"
"2794953-9","90285131","Obvz","Halle","Francke","","","1792","1793","Museum für das weibliche Geschlecht"
"2748575-4","90288882","Obxz","Eisenach||Halle|||Gotha||Halle","Gebauer|||Gebauer [[1794]]","Gotha","Perthes","1792","1796","Der Mineraloge, oder Compendiöse Bibliothek alles Wissenswürdigen aus dem Gebiete der Mineralogie"
"2673554-4","90207114","Obxz","Halle","Hendel","","","1793","1793","Der westphälisch-ökonomischen Societät zu Hamm, vermischte Abhandlungen, zur Beförderung der Oekonomie, der Fabriken und Manufakturen, der Handlung, der Künste und Gewerbe"
"2667941-3","90196716","Obxz","Leipzig","Müller","","","1793","1797","Italienische medicinisch-chirurgische Bibliothek oder Uebersetzungen und Auszüge aus den neuern Schriften italienischer Aerzte und Wundärzte"
"2755679-7","90286448","Obvz","Göttingen","Dieterich","","","1793","1802","Revolutions-Almanach"
"2794231-4","90295358","Obvz","Frankfurt, M.","Eßlinger","","","1794","1796","Magazin der neuesten merkwürdigen Kriegsbegebenheiten"
"2806087-8","90340183","Obxz","Halle","","","","1794","1796","Beiträge zur Geschichte der Medicin"
"2794375-6","90296281","Obvz","Altona","Hammerich","","","1794","1800","Der Genius der Zeit"
"2794673-3","90295064","Obxz","Halle||Leipzig","Kleefeld","","","1795","1797","Annalen der Philosophie und des philosophischen Geistes"
"2790977-3","9028819X","Obvz","Jena||Leipzig","Gabler","Neu-Strelitz","Neuprivilegierte Hof-Buch.|||Michaelis","1795","1800","Philosophisches Journal einer Gesellschaft teutscher Gelehrten"
"2668324-6","90196112","Obvz","Freyberg","Craz","","","1795","1816","Neues bergmännisches Journal"
"2668909-1","90196287","Obxz","Breslau","Korn","","","1796","1796","Der Torso"
"2794089-5","90288068","Obvz","Dresden","Adreßcomptoir","Dresden","Richter","1796","1796","Dresdner gelehrte Anzeigen"
"2755274-3","","Obxz","Wernigerode","Struck","","","1796","1796","Neuer Reichs-Calender"
"2658445-1","90293797","Obvz","Berlin","Haude & Spener","","","1797","1797","Historisch-genealogischer Calender oder Jahrbuch der merkwürdigsten neuen Weltbegebenheiten"
"2821220-4","90345401","Obxz","[Halle]","[Renger]","","","1797","1797","Der Kosmopolit"
"2406964-4","90345096","Obvz","Halle","Renger","","","1797","1798","Der Kosmopolit"
"2673739-5","90148509","Obvz","Lübben","Ritter","","","1797","1801","Niederlausitzsches Addreßverzeichniß"
"2959693-2","","Obxz","Halle","Gebauer","Wechselnde Verlagsorte","","1798","1798","Der Geistliche oder Religionslehrer"
"2812139-9","9036998X","Obvz","Halle","Renger","","","1798","1800","Auswahl der besten ausländischen geographischen und statistischen Nachrichten zur Aufklärung der Völker- und Länderkunde"
"2539620-1","90298098","Obvz","Halle||Leipzig","Curt","","","1799","1801","Juristische Literaturzeitung"
"2540216-X","90298071","Obvz","Halle [u.a.]","Curt","","","1799","1801","Juristische Literaturzeitung"
"2791313-2","90290224","Obxz","Halle","Verl. d. Waisenhauses","","","1799","1802","Neue Beiträge zur Kenntniß der Justizverfassung und juristischen Literatur in den preussischen Staaten"
"2757736-3","","Obxz","Halle, S.","Hallische Zeitung","","","1799","1892","Hallesches Tageblatt"
"2165600-9","","Obvz","Leipzig","Barth","Halle","Renger","1799","1943","Annalen der Physik"
"2539629-8","90299574","Obvz","Halle","Franke","","","1800","1800","Magazin für die Gerechtsame des Adels und der Rittergüter in Deutschland"
"2794941-2","90286375","Obxz","Halle","","","","1800","1800","Archiv für die thierische Chemie"
"2748604-7","90279344","Obxz","Halle","Renger","","","1800","1807","Materialien zur wissenschaftlichen Erklärung der neuesten allgemeinen preussischen Landesgesetze"
"2540214-6","","Obaz","Halle [u.a.]","Curt","","","1801","1801","Juristische Literaturzeitung"
"2408224-7","","Obvz","Altona","Hammerich","","","1801","1802","Der Genius des neunzehnten Jahrhunderts"
"2959561-7","","Obxz","Halle, S.|||Leipzig","Expedition|||Churfürstl. Sächsische Zeitungsexpedition|||Chursächsische Zeitungs-Expedition","Jena","Expedition","1801","1802","Allgemeine Literaturzeitung"
"2748612-6","","Obxz","Halle","Gebauer","","","1801","1808","Liturgisches Journal"
"2796330-5","","Obxz","Halle","Renger","","","1802","1802","Zeitschrift für organische Physik"
"2539527-0","90298284","Obvz","Halle","Verl. d. Waisenhauses","Berlin","Nauck|||Voß","1802","1802","Beiträge zur Kenntniß der Justizverfassung und juristischen Literatur in den preussischen Staaten"
"2755682-7","","Obvz","Göttingen","Dieterich","","","1803","1803","Friedens-Almanach"
"2540199-3","","Obaz","Halle","Verl. d. Waisenhauses","","","1803","1804","C. L. Stengel's Beiträge zur Kenntniß der Justizverfassung und juristischen Literatur in den preussischen Staaten"
"2791314-4","","Obxz","Halle","Verl. d. Waisenhauses","","","1803","1804","C. L. Stengel's Neue Beiträge zur Kenntniß der Justizverfassung und juristischen Literatur in den preussischen Staaten"
"2256942-X","","Obvz","Halle","Hemmerde & Schwetschke","","","1803","1829","Der Land- und Hauswirth"
"2755688-8","","Obvz","Göttingen","Dieterich","","","1804","1804","Kriegs- und Friedens-Almanach"
"2714010-6","","Obvz","Halle||Leipzig","","","","1804","1805","Annalen der preussischen Staatswirthschaft und Statistik"
"2794893-6","","Obxz","Halle","Gebauer","","","1804","1806","Gartenzeitung"
"2794286-7","90286871","Obvz","Leipzig","Weidmann","Leipzig","Weidmann u. Reich","1805","1800","Churfürstlich-Sächsischer Hof- und Staatscalender"
"2702821-5","90282086","Obvz","Leipzig","Gleditsch","Leipzig","Voß|||Koch|||Hempel|||Niemann","1805","1807","Erholungen"
"2795773-1","","Obxz","Halle||Berlin","Buchh. d. Halleschen Waisenhauses","Halle","Verl. d. Waisenhaus-Buchhandl.","1807","1807","Der Biograph"
"2759998-X","","Obxz","[Kassel]","","","","1808","1808","Verzeichniß von Glas- und Treibhaus-Pflanzen, perennirende Stauden-Gewächse und Blumen-Zwiebeln, wie auch ausländische Bäume, Sträucher und Rosen, nebst vorzüglichen Gattungen Obstbäume, Stachelbeeren, und Sämereyen, welche ... zu haben sind bey August Schelhase"
"2540218-3","","Obaz","Halle,S.","Hemmerde und Schwetschke","","","1808","1809","Materialien zur Geschichte, Literatur, Beurtheilung, Erklärung und Anwendung des Code Napoléon, hauptsächlich zum Gebrauch der praktischen Rechtsgelehrten in Deutschland"
"2795035-9","","Obxz","Halle||Berlin","","","","1809","1809","Westphälisches Taschenbuch"
"2791246-2","","Obxz","Halle, Saale","","","","1811","1812","Der westphälische Erzähler, ein Blatt zur Unterhaltung und Belehrung"
"2795700-7","","Obxz","Halle, S.||Berlin","","","","1811","1812","Asklepieion"
"2163420-8","90122135","Obvz","Rudolstadt","Verl. d. Hof-, Buch- u. Kunsth.","Weimar|||Halle","Verl. der Industrie-Comptoir|||Neue Societäts-Buch-u. Kunsth.","1811","1815","London und Paris"
"2752170-9","","Obxz","Halle","Anton","Nürnberg","Schrag","1811","1833","Journal für Chemie und Physik"
"2789219-0","","Obxz","Halle a.d.S.","","","","1812","1812","Altteutscher christlicher Almanach"
"2794093-7","90294041","Obvz","Halle","","","","1812","1813","Archiv für die Physiologie"
"2795508-4","","Obxz","Halle, S.","Hendel","","","1813","1821","Magazin der Entomologie"
"2417376-9","","Obvz","Halle||Berlin","","","","1815","1823","Deutsches Archiv für die Physiologie"
"2263380-7","","Obvz","London","","","","1815","1828","The Botanical register"
"2640260-9","90123077","Obvz","Halle","Kümmel","","","1827","1842","Journal für Prediger"
"2654918-9","","Obvz","Halle, S.|||Leibzig [i.e. Leipzig]","Schwetschke|||Churfürstl. Sächs. Zeitungsexpedition","Jena|||Leipzig|||Halle, S.|||Wien","Expedition d. Zeitung|||Müller|||Expedition der Zeitung|||Stahel","1829","1849","Allgemeine Literatur-Zeitung"
"2539610-9","90298128","Obvz","Halle [u.a.]","Schwetschke & Sohn","","","1834","1857","Archiv des Criminalrechts"
"2748510-9","90290305","Obxz","Halle","Waisenhaus","","","1840","1836","Neuere Geschichte der evangelischen Missionsanstalten zu Bekehrung der Heiden in Ost-Indien"
"2791309-0","90283457","Obvz","Berlin","Haude & Spener","","","1868","1868","Berlinische Nachrichten von Staats- und gelehrten Sachen"
