[
  {
    "record": [
      [
        "001@",
        "",
        "0",
        "31,72,135,294"
      ],
      [
        "001A",
        "",
        "0",
        "0027:09-09-02"
      ],
      [
        "001B",
        "",
        "0",
        "S1A005:05-12-19",
        "t",
        "14:27:55.000"
      ],
      [
        "001D",
        "",
        "0",
        "0035:20-12-04"
      ],
      [
        "001U",
        "",
        "0",
        "utf8"
      ],
      [
        "001X",
        "",
        "0",
        "0"
      ],
      [
        "002@",
        "",
        "0",
        "Acus"
      ],
      [
        "002C",
        "",
        "a",
        "Text",
        "b",
        "txt"
      ],
      [
        "002D",
        "",
        "a",
        "ohne Hilfsmittel zu benutzen",
        "b",
        "n"
      ],
      [
        "002E",
        "",
        "a",
        "Band",
        "b",
        "nc"
      ],
      [
        "003@",
        "",
        "0",
        "353623148"
      ],
      [
        "006Y",
        "",
        "0",
        "ThSTAW6962"
      ],
      [
        "007G",
        "",
        "i",
        "GBV",
        "0",
        "353623148"
      ],
      [
        "009@",
        "",
        "b",
        "ThSTAWMBW"
      ],
      [
        "010@",
        "",
        "a",
        "ger"
      ],
      [
        "011@",
        "",
        "a",
        "1815",
        "n",
        "1815-"
      ],
      [
        "019@",
        "",
        "a",
        "XA-DXDE"
      ],
      [
        "021A",
        "",
        "a",
        "Die @Ritterburgen und Bergschlösser Deutschlands",
        "h",
        "von Friedrich Gottschalck"
      ],
      [
        "028A",
        "",
        "9",
        "138253544",
        "V",
        "Tpv1",
        "7",
        "gnd/104217774",
        "3",
        "168725819",
        "w",
        "piz",
        "A",
        "Gottschalck",
        "D",
        "Kaspar Friedrich",
        "E",
        "1772",
        "M",
        "1854"
      ],
      [
        "032@",
        "",
        "a",
        "Zweite verbesserte und vermehrte Auflage"
      ],
      [
        "033A",
        "",
        "p",
        "Halle",
        "n",
        "Hemmerde und Schwetschke"
      ],
      [
        "033D",
        "",
        "9",
        "104745673",
        "V",
        "Tgv1",
        "7",
        "gnd/4023025-9",
        "3",
        "208947132",
        "w",
        "gik",
        "p",
        "Halle (Saale)",
        "4",
        "pup"
      ],
      [
        "033J",
        "",
        "9",
        "078856485",
        "V",
        "Tpv1",
        "7",
        "gnd/117430919",
        "3",
        "216286808",
        "w",
        "piz",
        "A",
        "Schwetschke",
        "D",
        "Karl August",
        "E",
        "1756",
        "M",
        "1839"
      ],
      [
        "046H",
        "",
        "a",
        "Vorlageform der Veröffentlichungsangabe: Halle, bei Hemmerde und Schwetschke"
      ],
      [
        "046W",
        "",
        "a",
        "IMD-Felder maschinell generiert (GBV)"
      ],
      [
        "101@",
        "",
        "a",
        "31",
        "c",
        "PICA"
      ],
      [
        "201B",
        "01",
        "0",
        "09-09-02",
        "t",
        "11:34:16.239"
      ],
      [
        "201U",
        "01",
        "0",
        "utf8"
      ],
      [
        "202D",
        "01",
        "0",
        "09-09-02",
        "b",
        "1166",
        "a",
        "0000"
      ],
      [
        "203@",
        "01",
        "0",
        "570936349"
      ],
      [
        "208@",
        "01",
        "a",
        "09-09-02",
        "b",
        "x"
      ],
      [
        "101@",
        "",
        "a",
        "72",
        "c",
        "PICA"
      ],
      [
        "201B",
        "01",
        "0",
        "20-12-04",
        "t",
        "08:05:29.000"
      ],
      [
        "201U",
        "01",
        "0",
        "utf8"
      ],
      [
        "202D",
        "01",
        "0",
        "20-12-04",
        "b",
        "3075",
        "a",
        "0035"
      ],
      [
        "203@",
        "01",
        "0",
        "689937857"
      ],
      [
        "208@",
        "01",
        "a",
        "20-12-04",
        "b",
        "xz"
      ],
      [
        "101@",
        "",
        "a",
        "135",
        "c",
        "PICA"
      ],
      [
        "201B",
        "01",
        "0",
        "23-11-09",
        "t",
        "10:47:48.000"
      ],
      [
        "201U",
        "01",
        "0",
        "utf8"
      ],
      [
        "202D",
        "01",
        "0",
        "23-11-09",
        "b",
        "1983",
        "a",
        "3313/0001"
      ],
      [
        "203@",
        "01",
        "0",
        "1103916084"
      ],
      [
        "208@",
        "01",
        "a",
        "23-11-09",
        "b",
        "x"
      ],
      [
        "101@",
        "",
        "a",
        "294",
        "c",
        "PICA"
      ],
      [
        "201B",
        "01",
        "0",
        "26-10-11",
        "t",
        "08:34:33.000"
      ],
      [
        "201U",
        "01",
        "0",
        "utf8"
      ],
      [
        "202D",
        "01",
        "0",
        "26-10-11",
        "b",
        "r294korr",
        "a",
        "1999"
      ],
      [
        "203@",
        "01",
        "0",
        "890832439"
      ],
      [
        "208@",
        "01",
        "a",
        "26-01-07",
        "b",
        "nWS005"
      ],
      [
        "209A",
        "01",
        "b",
        "3294",
        "j",
        "005",
        "f",
        "ThSTAW-MAG",
        "a",
        "Ku 106",
        "d",
        "i",
        "x",
        "00"
      ],
      [
        "209B",
        "01",
        "a",
        "Altkatalog bis Signatur 155/1993",
        "x",
        "00"
      ],
      [
        "209G",
        "01",
        "a",
        "890832439"
      ],
      [
        "231B",
        "01",
        "a",
        "Band 1-9; Band 2: 3.Aufl."
      ],
      [
        "244Z",
        "01",
        "a",
        "Deutschland",
        "x",
        "01"
      ],
      [
        "244Z",
        "01",
        "a",
        "Deutschland / Schloss / Burg / Umfassend / Chronik",
        "x",
        "10"
      ]
    ],
    "_id": "353623148"
  }
]
