[{
   "_id" : "001957236",
   "record" : [
      [
         "001A",
         "",
         "0",
         "3280:12-09-13"
      ],
      [
         "001B",
         "",
         "0",
         "3280:17-12-19",
         "t",
         "16:08:26.000"
      ],
      [
         "001D",
         "",
         "0",
         "3280:12-09-13"
      ],
      [
         "001U",
         "",
         "0",
         "utf8"
      ],
      [
         "001X",
         "",
         "0",
         "0"
      ],
      [
         "002@",
         "",
         "0",
         "Asur"
      ],
      [
         "002C",
         "",
         "a",
         "Text",
         "b",
         "txt"
      ],
      [
         "002D",
         "",
         "a",
         "ohne Hilfsmittel zu benutzen",
         "b",
         "n"
      ],
      [
         "002E",
         "",
         "a",
         "Band",
         "b",
         "nc"
      ],
      [
         "003@",
         "",
         "0",
         "001957236"
      ],
      [
         "006M",
         "",
         "0",
         "VD18 11257334"
      ],
      [
         "006X",
         "",
         "c",
         "LIB",
         "0",
         "12345678"
      ],
      [
         "006X",
         "",
         "c",
         "LIB",
         "0",
         "98765432"
      ],
      [
         "006Z",
         "",
         "0",
         "1000545-6"
      ],
      [
         "007S",
         "",
         "0",
         "VD17 23:241043C"
      ],
      [
         "008@",
         "",
         "b",
         "MH 01MH 11AK 12AK 12JS 12AK TEST NICHT LÖSCHEN 001101110"
      ],
      [
         "009@",
         "",
         "b",
         "gjz"
      ],
      [
         "009P",
         "01",
         "0",
         "[Artikel, Digitalisat]",
         "a",
         "http://vd18.de/de-ulbsa-vd18/content/pageview/15601390",
         "t",
         "0"
      ],
      [
         "009P",
         "01",
         "0",
         "[Artikel, Digitalisat]",
         "a",
         "http://www.gelehrte-journale.de/fileadmin/user_upload/safe/TKB.jpg",
         "t",
         "Meyerische Gerippe"
      ],
      [
         "009P",
         "01",
         "0",
         "[rez. Werk, GBV]",
         "a",
         "http://gso.gbv.de/DB=2.1/PPNSET?PPN=180548689",
         "t",
         "0"
      ],
      [
         "010@",
         "",
         "a",
         "ger",
         "a",
         "lat",
         "c",
         "fre"
      ],
      [
         "010E",
         "",
         "e",
         "rda"
      ],
      [
         "011@",
         "",
         "a",
         "1777"
      ],
      [
         "013@",
         "",
         "0",
         "40"
      ],
      [
         "013D",
         "",
         "9",
         "106186019",
         "a",
         "Rezension",
         "0",
         "gnd/4049712-4"
      ],
      [
         "020F",
         "",
         "a",
         "Das Aussterben des Tarnkappenbibers wurde in Fachkreisen bis weit in das 18. Jahrhundert hinein immer wieder kontrovers diskutiert. In den 70er Jahren sollen im Gebiet der Tschuktschen noch einzelne Exemplare einer kleineren Population gesichtet worden sein, jedoch mit Tarnkappen-Mutationen aus besonders wintertauglichem Fell, castor sibiricus alberich linn. ... (vgl. Zuverlässige Nachrichten, 1777, Bd. 3, 5. St.). Nach neusten Erkenntnissen (Stand August 2017) scheint jedoch im schottischen Loch Ness eine kleine Kolonie von Tarnkappenbibern überlebt zu haben; die bisher gemeldeten Sichtungen sind von offizieller Seite bislang aber noch nicht bestätigt worden."
      ],
      [
         "020F",
         "",
         "a",
         "Verf. erm. nach Victor Schlawenz. (Beispiel-Link [25.02.2017]: https://www.google.de/)"
      ],
      [
         "020F",
         "",
         "a",
         "Eine Ausgabe von 1777 ist in den einschlägigen Bibliothekskatalogen nur in Gütersloh nachweisbar. (online-Suche: März 1785)"
      ],
      [
         "021A",
         "",
         "a",
         "GJZ 18 - MAXIMALMASKE FÜR TESTS!"
      ],
      [
         "022A",
         "01",
         "a",
         "De la Vie et la Mort des Castors au Bonnet Magique <dt.>"
      ],
      [
         "025@",
         "",
         "b",
         "Tarnkappenbyber"
      ],
      [
         "027A",
         "",
         "a",
         "Vom Leben und Sterben der Tarnkappen-Biber."
      ],
      [
         "027A",
         "03",
         "a",
         "Zween Abhandlungen zum Biber in Burgund."
      ],
      [
         "027A",
         "04",
         "a",
         "Vie et Mort des Castors au Bonnet-Magique."
      ],
      [
         "027D",
         "",
         "a",
         "Neue Bibliothec Oder Nachricht und Urtheile von neuen Büchern Und allerhand zur Gelehrsamkeit dienenden Sachen",
         "p",
         "Franckfurt",
         "n",
         "Renger",
         "z",
         "3124253"
      ],
      [
         "028A",
         "",
         "d",
         "Pollux",
         "a",
         "Castor",
         "B",
         "VerfasserIn",
         "4",
         "aut"
      ],
      [
         "028C",
         "",
         "d",
         "Johann",
         "a",
         "Nager",
         "B",
         "erm. VerfasserIn",
         "4",
         "aut"
      ],
      [
         "028C",
         "",
         "d",
         "Karl",
         "a",
         "Butzmann",
         "B",
         "ÜbersetzerIn",
         "4",
         "trl"
      ],
      [
         "028C",
         "",
         "d",
         "Armin",
         "a",
         "Burg",
         "B",
         "IllustratorIn",
         "4",
         "ill"
      ],
      [
         "028C",
         "",
         "P",
         "Biber",
         "9",
         "003851753",
         "d",
         "Carl Heinrich",
         "a",
         "Biber von Bibern",
         "E",
         "1681",
         "F",
         "1749",
         "0",
         "gnd/122827147",
         "B",
         "BearbeiterIn",
         "4",
         "oth"
      ],
      [
         "028C",
         "",
         "d",
         "Carl Heinrich",
         "a",
         "Biber von Bibern",
         "9",
         "003851753",
         "d",
         "Carl Heinrich",
         "a",
         "Biber von Bibern",
         "E",
         "1681",
         "F",
         "1749",
         "0",
         "gnd/122827147",
         "B",
         "BearbeiterIn",
         "4",
         "oth"
      ],
      [
         "028C",
         "",
         "P",
         "Luise",
         "l",
         "Königin von Preußen",
         "p",
         "(-gen-f-)",
         "9",
         "003606058",
         "P",
         "Luise",
         "l",
         "Preußen, Königin",
         "E",
         "1776",
         "F",
         "1810",
         "0",
         "gnd/118575155",
         "B",
         "VerfasserIn",
         "4",
         "aut"
      ],
      [
         "028C",
         "",
         "P",
         "Anonym",
         "p",
         "(-gen-f-)",
         "9",
         "003606058",
         "P",
         "Luise",
         "l",
         "Preußen, Königin",
         "E",
         "1776",
         "F",
         "1810",
         "0",
         "gnd/118575155",
         "B",
         "VerfasserIn",
         "4",
         "aut"
      ],
      [
         "028C",
         "",
         "P",
         "Bibi",
         "p",
         "(-gen-f-)",
         "9",
         "003606058",
         "P",
         "Luise",
         "l",
         "Preußen, Königin",
         "E",
         "1776",
         "F",
         "1810",
         "0",
         "gnd/118575155",
         "B",
         "VerfasserIn",
         "4",
         "aut"
      ],
      [
         "028G",
         "",
         "d",
         "André Hercule",
         "c",
         "de",
         "a",
         "Castoreau",
         "B",
         "VerfasserIn",
         "4",
         "aut"
      ],
      [
         "028G",
         "",
         "d",
         "Jacob Wilhelm",
         "a",
         "Säger",
         "B",
         "HerausgeberIn ; ÜbersetzerIn",
         "4",
         "edt ; trl"
      ],
      [
         "028G",
         "",
         "d",
         "Johann Ernst",
         "a",
         "Tarnmann",
         "B",
         "mutmaßl. ÜbersetzerIn ; erm. BearbeiterIn ; HerausgeberIn",
         "4",
         "trl ; oth ; edt"
      ],
      [
         "028G",
         "",
         "d",
         "Basilius",
         "a",
         "Schwanz",
         "B",
         "BearbeiterIn",
         "4",
         "oth"
      ],
      [
         "028G",
         "",
         "d",
         "Johann Christian",
         "a",
         "Bieber",
         "B",
         "IllustratorIn",
         "4",
         "ill"
      ],
      [
         "028G",
         "",
         "d",
         "Henriette Julie de Castelnau",
         "c",
         "de",
         "a",
         "Murat",
         "l",
         "Freifrau von Biberburgensis",
         "p",
         "(-gen-f-)",
         "9",
         "003746895",
         "d",
         "Henriette Julie de Castelnau",
         "c",
         "de",
         "a",
         "Murat",
         "E",
         "1670",
         "F",
         "1716",
         "0",
         "gnd/120533294",
         "B",
         "BearbeiterIn",
         "4",
         "oth"
      ],
      [
         "028L",
         "",
         "d",
         "Wilhelmine",
         "c",
         "Freifrau von",
         "a",
         "Nagersdorf",
         "l",
         "geb. Biberach",
         "p",
         "(-gen-f-)",
         "7",
         "Nager, Hella",
         "B",
         "WidmungsempfängerIn",
         "4",
         "dte"
      ],
      [
         "028L",
         "",
         "P",
         "Friedrich II.",
         "l",
         "König von Burgenland",
         "B",
         "WidmungsempfängerIn",
         "4",
         "dte"
      ],
      [
         "028L",
         "",
         "d",
         "Josef Ferdinand Norbert",
         "a",
         "Seger",
         "9",
         "003142779",
         "d",
         "Josef Ferdinand Norbert",
         "a",
         "Seger",
         "E",
         "1716",
         "F",
         "1782",
         "0",
         "gnd/102499683",
         "B",
         "WidmungsempfängerIn",
         "4",
         "dte"
      ],
      [
         "029F",
         "",
         "a",
         "Reichshofrat"
      ],
      [
         "029F",
         "",
         "9",
         "003897605",
         "M",
         "Tbv1",
         "a",
         "Académie des Sciences, Belles-Lettres et Arts de Tarn-et-Garonne",
         "g",
         "Montauban",
         "0",
         "gnd/124056-0"
      ],
      [
         "029F",
         "",
         "9",
         "003089347",
         "M",
         "Tbv1",
         "a",
         "Fränkisch-Physicalisch-Ökonomische Bienengesellschaft",
         "0",
         "gnd/1014975-2",
         "7",
         "Nürnberg, Fränkisch-physikalisch-ökonomische Bienengesellschaft",
         "B",
         "HerausgeberIn",
         "4",
         "edt"
      ],
      [
         "029G",
         "",
         "a",
         "Seehausen, Arbeitsgemeinschaft Burgenbau",
         "B",
         "VerfasserIn eines Vorworts",
         "4",
         "wpr"
      ],
      [
         "029G",
         "",
         "9",
         "003070050",
         "M",
         "Tbv1",
         "a",
         "Trinity College Dublin",
         "0",
         "gnd/1010756-3",
         "7",
         "Dublin, Trinity College Dublin",
         "B",
         "VerfasserIn",
         "4",
         "aut"
      ],
      [
         "031A",
         "",
         "d",
         "7",
         "j",
         "1777",
         "e",
         "77/78",
         "b",
         "5",
         "c",
         "6",
         "h",
         "7-77",
         "g",
         "71",
         "y",
         "Bd. 7 (1777), St. 77/78, 5. (Jun.), Seite 7-77, insges. 71 S."
      ],
      [
         "033A",
         "",
         "p",
         "Greifswald",
         "p",
         "Anklam",
         "n",
         "Pommersches priv. Intelligenz-Comtoir"
      ],
      [
         "033F",
         "",
         "h",
         "1776"
      ],
      [
         "034D",
         "",
         "a",
         "XXII, 709 S., [1] Bl."
      ],
      [
         "034I",
         "",
         "a",
         "8°"
      ],
      [
         "034M",
         "",
         "a",
         "Titelvign. (Kupferst.), 2 graph. Darst. (Tab.)"
      ],
      [
         "039B",
         "",
         "c",
         "In",
         "9",
         "001915002",
         "a",
         "Neue Bibliothec Oder Nachricht und Urtheile von neuen Büchern Und allerhand zur Gelehrsamkeit dienenden Sachen",
         "z",
         "3124253",
         "p",
         "Franckfurt",
         "n",
         "Renger",
         "x",
         "177700000070077993"
      ],
      [
         "039D",
         "",
         "c",
         "[Bezug]",
         "9",
         "001915002",
         "a",
         "Neue Bibliothec Oder Nachricht und Urtheile von neuen Büchern Und allerhand zur Gelehrsamkeit dienenden Sachen"
      ],
      [
         "039D",
         "",
         "c",
         "[Bezug]!PPN!Automatisch erstellte Expansion"
      ],
      [
         "039D",
         "",
         "c",
         "Test-HSW",
         "a",
         "[Testverweis] Nur für IT-Testzwecke, nicht für Datenmasken geeignet."
      ],
      [
         "039P",
         "",
         "c",
         "Rezension von",
         "l",
         "Castoreau, André Hercule de ; Säger, Jacob Wilhelm",
         "t",
         "GJZ18 TESTEINTRAG Vom Leben und Sterben der Tarnkappenbiber.",
         "d",
         "Greifswald",
         "e",
         "Nagerhaus",
         "f",
         "1777",
         "h",
         "12, 1 Alph. 3 Bog."
      ],
      [
         "041A",
         "",
         "9",
         "000002828",
         "M",
         "Tsx7",
         "a",
         "Rezension"
      ],
      [
         "041A",
         "01",
         "9",
         "000000949",
         "M",
         "Tsx7",
         "a",
         "Beitrag"
      ],
      [
         "041A",
         "01",
         "9",
         "000004014",
         "M",
         "Tsx7",
         "a",
         "Naturphilosophie"
      ],
      [
         "041A",
         "01",
         "9",
         "000004227",
         "M",
         "Tsx7",
         "a",
         "Kompilation"
      ],
      [
         "041A",
         "02",
         "9",
         "000000949",
         "M",
         "Tsx7",
         "a",
         "Beitrag"
      ],
      [
         "041A",
         "02",
         "9",
         "000004197",
         "M",
         "Tsx7",
         "a",
         "Zoologie"
      ],
      [
         "044K",
         "",
         "9",
         "000000450",
         "M",
         "Tsx7",
         "a",
         "Abhandlung , Naturkunde"
      ],
      [
         "044K",
         "",
         "9",
         "000004243",
         "M",
         "Tsx7",
         "a",
         "Übersetzung"
      ],
      [
         "044K",
         "",
         "9",
         "000004219",
         "M",
         "Tsx7",
         "a",
         "Bearbeitung"
      ],
      [
         "044K",
         "01",
         "9",
         "000003131",
         "M",
         "Tsx7",
         "a",
         "Tabelle"
      ],
      [
         "044K",
         "02",
         "9",
         "000002623",
         "M",
         "Tsx7",
         "a",
         "Programm"
      ],
      [
         "044K",
         "02",
         "9",
         "000004006",
         "M",
         "Tsx7",
         "a",
         "Naturkunde"
      ],
      [
         "044K",
         "02",
         "9",
         "000004200",
         "M",
         "Tsx7",
         "a",
         "Auszug"
      ],
      [
         "044L",
         "",
         "S",
         "g",
         "a",
         "GJZ18 TESTEINTRAG!"
      ],
      [
         "044L",
         "",
         "S",
         "g",
         "a",
         "Gütersloh/Wunderkabinett, Bibersammlung"
      ],
      [
         "044L",
         "",
         "S",
         "g",
         "a",
         "Seehausen/Arbeitsgemeinschaft Burgenbau, Gründungsfeier (1776) ; Ortsteil \"Bei den Palisaden\"/Infrastruktur, Feuerwehr; Liedgut/\"Auf der Mauer, auf der Lauer...\""
      ],
      [
         "044L",
         "",
         "S",
         "g",
         "a",
         "Römisch-Deutsches Reich/Tarnkappen, Rückgang"
      ],
      [
         "044L",
         "",
         "S",
         "g",
         "a",
         "Burgund/Tarnkappenbiber, Populationsschwankungen ; Tarnkappenbiber, Wandertrieb"
      ],
      [
         "044L",
         "",
         "S",
         "g",
         "a",
         "Loch Ness/Tarnkappenbiber, Kolonie"
      ],
      [
         "044L",
         "",
         "S",
         "g",
         "a",
         "Biberburg/\"Titelplatzhalter mit G-Link\" [[http://www.google.de/]] , danach evtl. Spezifizierung"
      ],
      [
         "044L",
         "",
         "S",
         "g",
         "a",
         "Freibiberungen/\"1. Titelplatzhalter mit G-Link\" [[http://www.google.de/]] , danach evtl. Spezifizierung ; \"2. Titelplatzhalter mit G-Link\" [[http://www.google.de/]] , danach evtl. Spezifizierung"
      ],
      [
         "044L",
         "",
         "S",
         "p",
         "a",
         "GJZ18 TESTEINTRAG!"
      ],
      [
         "044L",
         "",
         "S",
         "p",
         "a",
         "Luchs, Johann Peter/Todesumstände; Gebäudeplanung/Statik, Misserfolge"
      ],
      [
         "044L",
         "",
         "S",
         "p",
         "a",
         "Gottwaldt, Christoph/\"D. Christoph Gottwaldts physikalisch-anatomische Bemerkungen über den Biber\" [[http://reader.digitale-sammlungen.de/de/fs1/object/display/bsb10231408_00005.html]]"
      ],
      [
         "044L",
         "",
         "S",
         "p",
         "a",
         "Krantner, Paul Jakob/\"Castoriden und Rodentien\" (T. 3), Pränumerationsaufforderung"
      ],
      [
         "044L",
         "",
         "S",
         "p",
         "a",
         "Seehoff, Heinrich August Ottokar/Bibersammlung"
      ],
      [
         "044L",
         "",
         "S",
         "p",
         "a",
         "Castoreau, André Hercule de/Streit mit Guillaume François de Fortpollux"
      ],
      [
         "044L",
         "",
         "S",
         "p",
         "a",
         "Castorimorpha, Magdalena von/\"Nupti[i]s auspicatis Ornatis. Atque Integerrimi Viri-Iuvenis, Domini Casparis Castorimorphus Sponsi cum Magdalena Holtzia Virgine lectissima, Nobilis.\" [[http://gso.gbv.de/DB=2.1/PPNSET?PPN=537320180]] (1605) , Hochzeitsschrift"
      ],
      [
         "044L",
         "",
         "S",
         "p",
         "a",
         "Holtz, Magdalene von/böser Zwilling, Hexenwerk"
      ],
      [
         "044L",
         "",
         "S",
         "p",
         "a",
         "Burns, Robert/\"Cock Up Your Beaver\" [[https://en.wikipedia.org/wiki/Cock_Up_Your_Beaver]] (1792) , Liedgut ; Tarnkappen, originale (Beaver Hat)"
      ],
      [
         "044L",
         "",
         "S",
         "p",
         "a",
         "Riddle, Tom Marvolo; Riddle, Tom Vorlost/\"Anleitungen und Rituale zur Flucht vor dem Tod. Ein Spaß für die ganze Familie\" [[https://kxp.k10plus.de/DB=2.1/PPNSET?PPN=1010316656]] (2. Aufl.), Ankündigung ; Elderstab, Biberfraß ; Hogwarts, Verlagsgründung ; Demento Mori (Verlag), Neugründung"
      ],
      [
         "044L",
         "",
         "S",
         "f",
         "a",
         "Castorimorpha, Magdalena von (geb. Holtz)"
      ],
      [
         "044L",
         "",
         "S",
         "f",
         "a",
         "Holtz, Magdalene von"
      ],
      [
         "044L",
         "",
         "S",
         "s",
         "a",
         "GJZ18 TESTEINTRAG!"
      ],
      [
         "044L",
         "",
         "S",
         "s",
         "a",
         "Tarnkappenbiber/Skelett, Abbildung ; Meister Yoda, Abstammung ; genagte Raummeter pro Stunde ; Schwimmgeschwindigkeit, Vergleich mit schottischem Pferd ; Streit mit jähzornigem Hamster"
      ],
      [
         "044L",
         "",
         "S",
         "s",
         "a",
         "Biber/Lebensraum, Schutz; Fortpflanzung, Tarnkappen zur Partnersuche"
      ],
      [
         "044L",
         "",
         "S",
         "s",
         "a",
         "Biberburgen/Beschädigung"
      ],
      [
         "044L",
         "",
         "S",
         "s",
         "a",
         "\"Beitrag zur Geschichte und Fabrikation der Castor- und Filzhüte - Testtitel mit G-Link\" [[http://www.google.de/]] /Buchankündigung"
      ],
      [
         "044L",
         "",
         "S",
         "s",
         "a",
         "Old Glen Beaver Malt/Herstellung ; Old Beaver Blend, Verwechslungsgefahr"
      ],
      [
         "044L",
         "",
         "S",
         "s",
         "a",
         "Testreihe 1; Semikola ohne Slash im kompletten SW, was so nicht gewollt war, aber neuerdings möglich sein sollte; Ende der Testreihe"
      ],
      [
         "044L",
         "",
         "S",
         "s",
         "a",
         "Testreihe 2/mehrere Slashes im kompletten SW, was so nicht gewollt war, aber neuerdings möglich sein sollte/Zwischenschritt, unerwünschter/Ende der Testreihe"
      ],
      [
         "044L",
         "",
         "S",
         "s",
         "a",
         "Testreihe 3; die dritte Testreihe ; TestTestTest ;ein Test/nach dem Slash; danach/\"Titelplatzhalter mit G-Link\" [[http://www.google.de/]] , danach evtl. Spezifizierung; Ende der Testreihe"
      ],
      [
         "044L",
         "",
         "S",
         "s",
         "a",
         "Testreihe 4; Semikolon vor Slash/\"Link nach Slash ohne weitere Semikola -> G-Link\" [[http://www.google.de/]] , Ende der Testreihe"
      ],
      [
         "044L",
         "",
         "S",
         "s",
         "a",
         " Test nach SWB-Regelwerk"
      ],
      [
         "044L",
         "",
         "S",
         "v",
         "a",
         "deutsch"
      ],
      [
         "044L",
         "",
         "S",
         "o",
         "a",
         "franz."
      ],
      [
         "044L",
         "",
         "S",
         "i",
         "a",
         "lat."
      ],
      [
         "045Q",
         "01",
         "9",
         "000011975",
         "a",
         "Nat.6.3.6.",
         "a",
         "NATURKUNDE / Sonstige Naturbeschreibung / Zoologie / Tierklassen / Säugetiere"
      ],
      [
         "046L",
         "",
         "a",
         "Fehlpaginierung: S. 10 statt S. 12"
      ],
      [
         "047A",
         "",
         "a",
         "Stadtbibliothek Gütersloh"
      ],
      [
         "047D",
         "",
         "a",
         "GND:111111111,222222222,#,444444444,#,#,777777777,888888888,999999999,000000000,#"
      ],
      [
         "047I",
         "",
         "a",
         "Bewertung durch den Rezensenten: ambivalent"
      ]
   ]
}]
