[
  {
    "record": [
      [
        "001@",
        "",
        "0",
        "1005"
      ],
      [
        "001A",
        "",
        "0",
        "5005:03-10-15"
      ],
      [
        "001B",
        "",
        "0",
        "1999:11-09-17",
        "t",
        "17:00:38.000"
      ],
      [
        "001D",
        "",
        "0",
        "5005:05-10-15"
      ],
      [
        "001U",
        "",
        "0",
        "utf8"
      ],
      [
        "001X",
        "",
        "0",
        "0"
      ],
      [
        "002@",
        "",
        "0",
        "Abu"
      ],
      [
        "002C",
        "",
        "a",
        "Text",
        "b",
        "txt"
      ],
      [
        "002D",
        "",
        "a",
        "ohne Hilfsmittel zu benutzen",
        "b",
        "n"
      ],
      [
        "002E",
        "",
        "a",
        "Band",
        "b",
        "nc"
      ],
      [
        "003@",
        "",
        "0",
        "836077520"
      ],
      [
        "007G",
        "",
        "i",
        "GBV",
        "0",
        "836077520"
      ],
      [
        "010@",
        "",
        "a",
        "ger"
      ],
      [
        "011@",
        "",
        "a",
        "1811"
      ],
      [
        "018@",
        "",
        "a",
        "z"
      ],
      [
        "019@",
        "",
        "a",
        "XA-DXDE"
      ],
      [
        "021A",
        "",
        "a",
        "Allgemeiner Kalender auf das Jahr Christi ... für das Königreich Westphalen"
      ],
      [
        "031@",
        "",
        "a",
        "1811 nachgewiesen"
      ],
      [
        "033A",
        "",
        "p",
        "Halle",
        "n",
        "Waisenhaus"
      ],
      [
        "033J",
        "",
        "9",
        "13196142X",
        "V",
        "Tbv1",
        "7",
        "gnd/2133444-4",
        "3",
        "194623289",
        "w",
        "kiz",
        "A",
        "Franckesche Stiftungen zu Halle",
        "F",
        "Waisenhaus"
      ],
      [
        "046H",
        "",
        "a",
        "Vorlageform der Veröffentlichungsangabe: Halle, gedruckt und zu finden im Waisenhause."
      ],
      [
        "046W",
        "",
        "a",
        "IMD-Felder maschinell generiert (GBV)"
      ],
      [
        "047A",
        "",
        "a",
        "ZRZS: <5005>: Problem: keine ZDB-Aufnahme gefunden (15-10-05) (GBV)"
      ],
      [
        "101@",
        "",
        "a",
        "1005",
        "c",
        "PICA"
      ],
      [
        "201B",
        "01",
        "0",
        "03-10-15",
        "t",
        "10:54:22.000"
      ],
      [
        "201U",
        "01",
        "0",
        "utf8"
      ],
      [
        "202D",
        "01",
        "0",
        "03-10-15",
        "b",
        "1296734",
        "a",
        "5005"
      ],
      [
        "203@",
        "01",
        "0",
        "1570537607"
      ],
      [
        "208@",
        "01",
        "a",
        "03-10-15",
        "b",
        "r"
      ],
      [
        "209A",
        "01",
        "a",
        "Ye 46v",
        "d",
        "d",
        "x",
        "00"
      ],
      [
        "209O",
        "01",
        "a",
        "ST013353",
        "x",
        "00"
      ],
      [
        "231@",
        "01",
        "j",
        "1811"
      ],
      [
        "231B",
        "01",
        "a",
        "1811"
      ],
      [
        "237A",
        "01",
        "a",
        "mit hss. Notizen"
      ]
    ],
    "_id": "836077520"
  }
]
