[{
   "record" : [
      [
         "001A",
         "",
         "0",
         "3280:22-05-13"
      ],
      [
         "001B",
         "",
         "0",
         "1999:06-10-16",
         "t",
         "19:26:25.000"
      ],
      [
         "001D",
         "",
         "0",
         "3280:22-05-13"
      ],
      [
         "001U",
         "",
         "0",
         "utf8"
      ],
      [
         "001X",
         "",
         "0",
         "0"
      ],
      [
         "002@",
         "",
         "0",
         "Asu"
      ],
      [
         "003@",
         "",
         "0",
         "001546791"
      ],
      [
         "006Y",
         "",
         "0",
         "ADW: 118021014"
      ],
      [
         "009@",
         "",
         "b",
         "idz"
      ],
      [
         "010@",
         "",
         "a",
         "ger"
      ],
      [
         "011@",
         "",
         "a",
         "1802"
      ],
      [
         "021A",
         "",
         "a",
         "Reise nach dem mineralischen Bade in Afrika, welches von den Holländern Swarte Bergs warme Bad genannt wird, und 22 1/2 teutsche Meilen vom Vorgebirge der guten Hoffnung entfernt ist."
      ],
      [
         "027D",
         "",
         "a",
         "Der @Naturforscher",
         "h",
         "[Hrsg. von Johann Christian Daniel Schreber]",
         "p",
         "Halle",
         "n",
         "Gebauer",
         "z",
         "5161022"
      ],
      [
         "028A",
         "",
         "d",
         "H.J.",
         "a",
         "LeBeck",
         "B",
         "Verf."
      ],
      [
         "031A",
         "",
         "j",
         "1802",
         "e",
         "29",
         "h",
         "253-271",
         "y",
         "29.St.,253-271"
      ],
      [
         "039B",
         "",
         "c",
         "In:",
         "9",
         "00191636X",
         "a",
         "Der @Naturforscher",
         "z",
         "5161022",
         "p",
         "Halle",
         "n",
         "Gebauer",
         "z",
         "A",
         "x",
         "180200000000029747"
      ],
      [
         "041A",
         "",
         "9",
         "00000071X",
         "M",
         "Tsx7",
         "a",
         "allgemeiner Text"
      ],
      [
         "044L",
         "",
         "S",
         "g",
         "a",
         "Kapland/Reisebeschreibung"
      ],
      [
         "044L",
         "",
         "S",
         "g",
         "a",
         "Zwarte Berge/Heilquellen"
      ]
   ],
   "_id" : "001546791"
}]
