[
  {
    "record": [
      [
        "001@",
        "",
        "0",
        "675"
      ],
      [
        "001A",
        "",
        "0",
        "4675:29-04-19"
      ],
      [
        "001B",
        "",
        "0",
        "4675:29-04-19",
        "t",
        "14:12:42.000"
      ],
      [
        "001D",
        "",
        "0",
        "4675:29-04-19"
      ],
      [
        "001U",
        "",
        "0",
        "utf8"
      ],
      [
        "001X",
        "",
        "0",
        "0"
      ],
      [
        "002@",
        "",
        "0",
        "Aau"
      ],
      [
        "002C",
        "",
        "a",
        "Text",
        "b",
        "txt"
      ],
      [
        "002D",
        "",
        "a",
        "ohne Hilfsmittel zu benutzen",
        "b",
        "n"
      ],
      [
        "002E",
        "",
        "a",
        "Band",
        "b",
        "nc"
      ],
      [
        "003@",
        "",
        "0",
        "166373545X"
      ],
      [
        "007G",
        "",
        "i",
        "KXP",
        "0",
        "166373545X"
      ],
      [
        "010@",
        "",
        "a",
        "lat"
      ],
      [
        "010E",
        "",
        "e",
        "rda"
      ],
      [
        "011@",
        "",
        "a",
        "1815"
      ],
      [
        "019@",
        "",
        "a",
        "XA-DXDE"
      ],
      [
        "021A",
        "",
        "a",
        "Justini Historiarum libri XLIV.",
        "d",
        " In usum studiosae iuventutis denuo singulari cura recogniti",
        "h",
        "[Iustinus, Marcus Iunianus]"
      ],
      [
        "022A",
        "",
        "a",
        "Historiae"
      ],
      [
        "028A",
        "",
        "9",
        "139164111",
        "V",
        "Tpv1",
        "7",
        "gnd/11871435X",
        "3",
        "161548865",
        "w",
        "piz",
        "A",
        "Iustinus",
        "D",
        "Marcus Iunianus",
        "B",
        "VerfasserIn",
        "4",
        "aut"
      ],
      [
        "032@",
        "",
        "a",
        "Editio sexta"
      ],
      [
        "033A",
        "",
        "p",
        "Halae",
        "p",
        "Berolini",
        "n",
        "Orphanotropheum"
      ],
      [
        "034D",
        "",
        "a",
        "248 S."
      ],
      [
        "034I",
        "",
        "a",
        "8°"
      ],
      [
        "046H",
        "",
        "a",
        "Vorlageform der Veröffentlichungsangabe: Halae Et Berolini, Impensis Orphanotrophei. MDCCCXV."
      ],
      [
        "101@",
        "",
        "a",
        "675",
        "c",
        "PICA"
      ],
      [
        "101B",
        "",
        "0",
        "29-04-19",
        "t",
        "14:17:48.000"
      ],
      [
        "101U",
        "",
        "0",
        "utf8"
      ],
      [
        "102D",
        "",
        "0",
        "29-04-19",
        "b",
        "1319325",
        "a",
        "4675/0003"
      ],
      [
        "144Z",
        "",
        "a",
        "Geschichte"
      ],
      [
        "144Z",
        "01",
        "a",
        "Altertum"
      ],
      [
        "144Z",
        "02",
        "a",
        "Geschichtsschreibung"
      ],
      [
        "144Z",
        "03",
        "a",
        "Latein"
      ],
      [
        "201A",
        "01",
        "0",
        "29-04-19"
      ],
      [
        "201B",
        "01",
        "0",
        "29-04-19",
        "t",
        "14:13:21.000"
      ],
      [
        "201D",
        "01",
        "0",
        "4675:29-04-19"
      ],
      [
        "201U",
        "01",
        "0",
        "utf8"
      ],
      [
        "202D",
        "01",
        "0",
        "29-04-19",
        "b",
        "1319325",
        "a",
        "4675/0003"
      ],
      [
        "203@",
        "01",
        "0",
        "3453798619"
      ],
      [
        "208@",
        "01",
        "a",
        "29-04-19",
        "b",
        "zb3"
      ],
      [
        "209A",
        "01",
        "b",
        "4675",
        "j",
        "0003",
        "B",
        "Sta4",
        "a",
        "P H II 086",
        "d",
        "i",
        "x",
        "00"
      ],
      [
        "209C",
        "01",
        "a",
        "P 05532",
        "x",
        "00"
      ]
    ],
    "_id": "166373545X"
  }
]
