[{
   "record" : [
      [
         "001A",
         "",
         "0",
         "3280:16-05-13"
      ],
      [
         "001B",
         "",
         "0",
         "1999:06-10-16",
         "t",
         "20:22:28.000"
      ],
      [
         "001D",
         "",
         "0",
         "3280:16-05-13"
      ],
      [
         "001U",
         "",
         "0",
         "utf8"
      ],
      [
         "001X",
         "",
         "0",
         "0"
      ],
      [
         "002@",
         "",
         "0",
         "Asur"
      ],
      [
         "003@",
         "",
         "0",
         "000408638"
      ],
      [
         "006Y",
         "",
         "0",
         "ADW: 247711011"
      ],
      [
         "009@",
         "",
         "b",
         "idrz"
      ],
      [
         "010@",
         "",
         "a",
         "ger"
      ],
      [
         "011@",
         "",
         "a",
         "1771"
      ],
      [
         "013@",
         "",
         "0",
         "40"
      ],
      [
         "021G",
         "",
         "g",
         "Dutens, L.",
         "a",
         "Recherches sur l'origine des découvertes attribuées aux modernes. Tom.1.2.",
         "d",
         "Paris: Duchesne, 1766. (8, 48 + 228 S.; 257 S.)"
      ],
      [
         "027D",
         "",
         "a",
         "Allgemeine historische Bibliothek",
         "h",
         "von Mitgliedern d. Königlichen Instituts der Historischen Wissenschaften zu Göttingen; hrsg. von Johann Christoph Gatterer",
         "p",
         "Halle",
         "n",
         "Gebauer",
         "z",
         "5573233"
      ],
      [
         "028A",
         "",
         "P",
         "Anonym",
         "B",
         "Verf."
      ],
      [
         "028G",
         "",
         "d",
         "L.",
         "a",
         "Dutens",
         "B",
         "Verf. rez. Werk"
      ],
      [
         "031A",
         "",
         "d",
         "16",
         "j",
         "1771",
         "h",
         "174-192",
         "y",
         "16.Bd.,174-192"
      ],
      [
         "039B",
         "",
         "c",
         "In:",
         "9",
         "001914413",
         "a",
         "Allgemeine historische Bibliothek",
         "d",
         "hrsg. von Johann Christoph Gatterer",
         "0",
         "1866-2498",
         "z",
         "5573233",
         "p",
         "Halle",
         "n",
         "Gebauer",
         "z",
         "A",
         "x",
         "177100000160000826"
      ],
      [
         "041A",
         "",
         "9",
         "000002828",
         "M",
         "Tsx7",
         "a",
         "Rezension"
      ],
      [
         "044K",
         "",
         "9",
         "00000071X",
         "M",
         "Tsx7",
         "a",
         "allgemeiner Text"
      ],
      [
         "044L",
         "",
         "S",
         "s",
         "a",
         "Philosophie/Primat der Antike"
      ],
      [
         "045Q",
         "01",
         "a",
         "Phil.1.4.",
         "9",
         "000009326",
         "a",
         "Phil.1.4.",
         "a",
         "PHILOSOPHIE / Allgemeine Werke / Philosophiegeschichte"
      ],
      [
         "047A",
         "",
         "a",
         "altm"
      ],
      [
         "047I",
         "",
         "a",
         "Bewertung durch den Rezensenten: negativ"
      ]
   ],
   "_id" : "000408638"
}]
