[{
   "_id" : "026614979",
   "record" : [
      [
         "001A",
         "",
         "0",
         "2049:17-12-18"
      ],
      [
         "001B",
         "",
         "0",
         "2049:30-12-18",
         "t",
         "18:13:44.000"
      ],
      [
         "001D",
         "",
         "0",
         "2049:30-12-18"
      ],
      [
         "001U",
         "",
         "0",
         "utf8"
      ],
      [
         "001X",
         "",
         "0",
         "0"
      ],
      [
         "002@",
         "",
         "0",
         "Obv"
      ],
      [
         "002C",
         "",
         "a",
         "Text",
         "b",
         "txt"
      ],
      [
         "002D",
         "",
         "a",
         "Computermedien",
         "b",
         "c"
      ],
      [
         "002E",
         "",
         "a",
         "Online-Ressource",
         "b",
         "cr"
      ],
      [
         "003@",
         "",
         "0",
         "026614979"
      ],
      [
         "004U",
         "",
         "0",
         "urn:nbn:de:gbv:3:1-842627"
      ],
      [
         "006G",
         "",
         "0",
         "1173361588"
      ],
      [
         "006M",
         "",
         "0",
         "VD18 1128188X"
      ],
      [
         "006Y",
         "",
         "0",
         "gvk1042498075"
      ],
      [
         "006Z",
         "",
         "0",
         "2953690-X"
      ],
      [
         "007G",
         "",
         "c",
         "ZDB",
         "0",
         "2953690X"
      ],
      [
         "007S",
         "",
         "0",
         "VD18 1128188X"
      ],
      [
         "009P",
         "05",
         "a",
         "http://nbn-resolving.org/urn:nbn:de:gbv:3:1-842627",
         "x",
         "Resolving-System",
         "3",
         "34",
         "5",
         "0",
         "A",
         "ZDB",
         "B",
         "1"
      ],
      [
         "009P",
         "05",
         "a",
         "http://digitale.bibliothek.uni-halle.de/urn/urn:nbn:de:gbv:3:1-842627",
         "x",
         "Digitalisierung; 1.1794 - 4.1797",
         "z",
         "kostenfrei",
         "3",
         "34",
         "A",
         "ZDB",
         "B",
         "1"
      ],
      [
         "010@",
         "",
         "a",
         "ger"
      ],
      [
         "010E",
         "",
         "b",
         "ger",
         "e",
         "rda"
      ],
      [
         "011@",
         "",
         "a",
         "2018",
         "b",
         "2018",
         "n",
         "[2018]"
      ],
      [
         "013D",
         "",
         "7",
         "gvk10454466X"
      ],
      [
         "013H",
         "",
         "0",
         "dm",
         "0",
         "ld",
         "0",
         "sc"
      ],
      [
         "018@",
         "",
         "a",
         "z"
      ],
      [
         "019@",
         "",
         "a",
         "XA-DXDE"
      ],
      [
         "021A",
         "",
         "a",
         "Predigtentwürfe über die gewöhnlichen Evangelia auf alle Sonn- und Festtage des Jahres, in Sturmischer Manier, ausgezogen aus den völlig ausgearbeiteten Predigtsammlungen der vorzüglichsten teutschen Kanzelredner"
      ],
      [
         "031@",
         "",
         "a",
         "1. Jahrgang-4. Jahrgang"
      ],
      [
         "031N",
         "",
         "d",
         "1",
         "j",
         "1794",
         "n",
         "4",
         "k",
         "1797"
      ],
      [
         "033A",
         "",
         "p",
         "Halle, Saale",
         "n",
         "Universitäts- und Landesbibliothek Sachsen-Anhalt"
      ],
      [
         "034D",
         "",
         "a",
         "Online-Ressource"
      ],
      [
         "036E",
         "",
         "a",
         "VD18 digital"
      ],
      [
         "037A",
         "",
         "a",
         "Reproduktion"
      ],
      [
         "039I",
         "",
         "c",
         "Elektronische Reproduktion von",
         "t",
         "Predigtentwürfe über die gewöhnlichen Evangelia auf alle Sonn- und Festtage des Jahres, in Sturmischer Manier, ausgezogen aus den völlig ausgearbeiteten Predigtsammlungen der vorzüglichsten teutschen Kanzelredner",
         "d",
         "Leipzig",
         "f",
         "1794-1797",
         "C",
         "ZDB",
         "6",
         "2160209-8",
         "C",
         "DNB",
         "6",
         "026429713"
      ],
      [
         "045F",
         "",
         "e",
         "23sdnb",
         "a",
         "230",
         "A",
         "DE-600"
      ],
      [
         "046X",
         "",
         "S",
         "lzar",
         "C",
         "la",
         "a",
         "ZDB"
      ],
      [
         "047A",
         "",
         "a",
         "Bestand: DE-3"
      ]
   ]
}]
